%YAML 1.1
%TAG !u! tag:unity3d.com,2011:
--- !u!1001 &8949891090865855468
PrefabInstance:
  m_ObjectHideFlags: 0
  serializedVersion: 2
  m_Modification:
    m_TransformParent: {fileID: 0}
    m_Modifications:
    - target: {fileID: 2685565606289788091, guid: 98e6bcd327cdd4358afb297512401026,
        type: 3}
      propertyPath: m_Name
      value: Sewer Pipe Straight New Neo City Variant
      objectReference: {fileID: 0}
    - target: {fileID: 2685565606289788092, guid: 98e6bcd327cdd4358afb297512401026,
        type: 3}
      propertyPath: m_RootOrder
      value: 0
      objectReference: {fileID: 0}
    - target: {fileID: 2685565606289788092, guid: 98e6bcd327cdd4358afb297512401026,
        type: 3}
      propertyPath: m_LocalPosition.x
      value: 0
      objectReference: {fileID: 0}
    - target: {fileID: 2685565606289788092, guid: 98e6bcd327cdd4358afb297512401026,
        type: 3}
      propertyPath: m_LocalPosition.y
      value: 0
      objectReference: {fileID: 0}
    - target: {fileID: 2685565606289788092, guid: 98e6bcd327cdd4358afb297512401026,
        type: 3}
      propertyPath: m_LocalPosition.z
      value: 0
      objectReference: {fileID: 0}
    - target: {fileID: 2685565606289788092, guid: 98e6bcd327cdd4358afb297512401026,
        type: 3}
      propertyPath: m_LocalRotation.w
      value: 0.7071068
      objectReference: {fileID: 0}
    - target: {fileID: 2685565606289788092, guid: 98e6bcd327cdd4358afb297512401026,
        type: 3}
      propertyPath: m_LocalRotation.x
      value: 0.7071068
      objectReference: {fileID: 0}
    - target: {fileID: 2685565606289788092, guid: 98e6bcd327cdd4358afb297512401026,
        type: 3}
      propertyPath: m_LocalRotation.y
      value: 0
      objectReference: {fileID: 0}
    - target: {fileID: 2685565606289788092, guid: 98e6bcd327cdd4358afb297512401026,
        type: 3}
      propertyPath: m_LocalRotation.z
      value: 0
      objectReference: {fileID: 0}
    - target: {fileID: 2685565606289788092, guid: 98e6bcd327cdd4358afb297512401026,
        type: 3}
      propertyPath: m_LocalEulerAnglesHint.x
      value: 0
      objectReference: {fileID: 0}
    - target: {fileID: 2685565606289788092, guid: 98e6bcd327cdd4358afb297512401026,
        type: 3}
      propertyPath: m_LocalEulerAnglesHint.y
      value: 0
      objectReference: {fileID: 0}
    - target: {fileID: 2685565606289788092, guid: 98e6bcd327cdd4358afb297512401026,
        type: 3}
      propertyPath: m_LocalEulerAnglesHint.z
      value: 0
      objectReference: {fileID: 0}
    - target: {fileID: 2685565606289788094, guid: 98e6bcd327cdd4358afb297512401026,
        type: 3}
      propertyPath: m_Materials.Array.data[0]
      value: 
      objectReference: {fileID: 2100000, guid: e00b3b5be477d4260afb31f75dba8100, type: 2}
    - target: {fileID: 2685565607334349132, guid: 98e6bcd327cdd4358afb297512401026,
        type: 3}
      propertyPath: m_Materials.Array.data[0]
      value: 
      objectReference: {fileID: 2100000, guid: 7cd781d0439ab4350a64d4fab85797eb, type: 2}
    m_RemovedComponents: []
  m_SourcePrefab: {fileID: 100100000, guid: 98e6bcd327cdd4358afb297512401026, type: 3}
