%YAML 1.1
%TAG !u! tag:unity3d.com,2011:
--- !u!114 &8952018713871411687
MonoBehaviour:
  m_ObjectHideFlags: 0
  m_CorrespondingSourceObject: {fileID: 0}
  m_PrefabInstance: {fileID: 0}
  m_PrefabAsset: {fileID: 0}
  m_GameObject: {fileID: 8201418359291650645}
  m_Enabled: 1
  m_EditorHideFlags: 0
  m_Script: {fileID: 11500000, guid: 472390cc5ca034440be481d36fe76fb7, type: 3}
  m_Name: 
  m_EditorClassIdentifier: 
  drawDebug: 0
  fireType: 0
  repeatType: 0
  subsetFrequency: 1
  reverseFiringOrder: 0
  orientation: 1
  firePointQuantity: 3
  radius: 0.3
  startAngle: -25
  targetAngle: 75
--- !u!1001 &4241482456133439217
PrefabInstance:
  m_ObjectHideFlags: 0
  serializedVersion: 2
  m_Modification:
    m_TransformParent: {fileID: 0}
    m_Modifications:
    - target: {fileID: 372599427437046290, guid: 9249a7fba0960584db102d544f0354a7,
        type: 3}
      propertyPath: orderOverride
      value: 1
      objectReference: {fileID: 0}
    - target: {fileID: 5573658032031928101, guid: 9249a7fba0960584db102d544f0354a7,
        type: 3}
      propertyPath: spriteSheetOriginals.Array.size
      value: 52
      objectReference: {fileID: 0}
    - target: {fileID: 6127400913920567492, guid: 9249a7fba0960584db102d544f0354a7,
        type: 3}
      propertyPath: m_RootOrder
      value: 0
      objectReference: {fileID: 0}
    - target: {fileID: 6127400913920567492, guid: 9249a7fba0960584db102d544f0354a7,
        type: 3}
      propertyPath: m_LocalPosition.x
      value: 20.845573
      objectReference: {fileID: 0}
    - target: {fileID: 6127400913920567492, guid: 9249a7fba0960584db102d544f0354a7,
        type: 3}
      propertyPath: m_LocalPosition.y
      value: 0.19999993
      objectReference: {fileID: 0}
    - target: {fileID: 6127400913920567492, guid: 9249a7fba0960584db102d544f0354a7,
        type: 3}
      propertyPath: m_LocalPosition.z
      value: 12.261093
      objectReference: {fileID: 0}
    - target: {fileID: 6127400913920567492, guid: 9249a7fba0960584db102d544f0354a7,
        type: 3}
      propertyPath: m_LocalRotation.w
      value: 1
      objectReference: {fileID: 0}
    - target: {fileID: 6127400913920567492, guid: 9249a7fba0960584db102d544f0354a7,
        type: 3}
      propertyPath: m_LocalRotation.x
      value: 0
      objectReference: {fileID: 0}
    - target: {fileID: 6127400913920567492, guid: 9249a7fba0960584db102d544f0354a7,
        type: 3}
      propertyPath: m_LocalRotation.y
      value: 0
      objectReference: {fileID: 0}
    - target: {fileID: 6127400913920567492, guid: 9249a7fba0960584db102d544f0354a7,
        type: 3}
      propertyPath: m_LocalRotation.z
      value: 0
      objectReference: {fileID: 0}
    - target: {fileID: 6127400913920567492, guid: 9249a7fba0960584db102d544f0354a7,
        type: 3}
      propertyPath: m_LocalEulerAnglesHint.x
      value: 0
      objectReference: {fileID: 0}
    - target: {fileID: 6127400913920567492, guid: 9249a7fba0960584db102d544f0354a7,
        type: 3}
      propertyPath: m_LocalEulerAnglesHint.y
      value: 0
      objectReference: {fileID: 0}
    - target: {fileID: 6127400913920567492, guid: 9249a7fba0960584db102d544f0354a7,
        type: 3}
      propertyPath: m_LocalEulerAnglesHint.z
      value: 0
      objectReference: {fileID: 0}
    - target: {fileID: 6757701226386229034, guid: 9249a7fba0960584db102d544f0354a7,
        type: 3}
      propertyPath: orderOverride
      value: 3
      objectReference: {fileID: 0}
    - target: {fileID: 8640984293970050645, guid: 9249a7fba0960584db102d544f0354a7,
        type: 3}
      propertyPath: m_Name
      value: Ground Shooting Owl - Knockback Laser - Knockback Grenade
      objectReference: {fileID: 0}
    m_RemovedComponents: []
  m_SourcePrefab: {fileID: 100100000, guid: 9249a7fba0960584db102d544f0354a7, type: 3}
--- !u!4 &7350220187750990811 stripped
Transform:
  m_CorrespondingSourceObject: {fileID: 6691785559468084522, guid: 9249a7fba0960584db102d544f0354a7,
    type: 3}
  m_PrefabInstance: {fileID: 4241482456133439217}
  m_PrefabAsset: {fileID: 0}
--- !u!114 &4536280199580615910 stripped
MonoBehaviour:
  m_CorrespondingSourceObject: {fileID: 299734690452376087, guid: 9249a7fba0960584db102d544f0354a7,
    type: 3}
  m_PrefabInstance: {fileID: 4241482456133439217}
  m_PrefabAsset: {fileID: 0}
  m_GameObject: {fileID: 0}
  m_Enabled: 1
  m_EditorHideFlags: 0
  m_Script: {fileID: 11500000, guid: 43056b56cb720480e8647719950070c8, type: 3}
  m_Name: 
  m_EditorClassIdentifier: 
--- !u!114 &6457217707363648883 stripped
MonoBehaviour:
  m_CorrespondingSourceObject: {fileID: 7151822419754699650, guid: 9249a7fba0960584db102d544f0354a7,
    type: 3}
  m_PrefabInstance: {fileID: 4241482456133439217}
  m_PrefabAsset: {fileID: 0}
  m_GameObject: {fileID: 0}
  m_Enabled: 1
  m_EditorHideFlags: 0
  m_Script: {fileID: 11500000, guid: 0e98e1582a2221345acb0ef23409a093, type: 3}
  m_Name: 
  m_EditorClassIdentifier: 
--- !u!1001 &8201418357825951234
PrefabInstance:
  m_ObjectHideFlags: 0
  serializedVersion: 2
  m_Modification:
    m_TransformParent: {fileID: 7350220187750990811}
    m_Modifications:
    - target: {fileID: 744506840, guid: fb86da32ef51ed740bb632bce1def16e, type: 3}
      propertyPath: m_StaticEditorFlags
      value: 16
      objectReference: {fileID: 0}
    - target: {fileID: 785187630, guid: fb86da32ef51ed740bb632bce1def16e, type: 3}
      propertyPath: m_StaticEditorFlags
      value: 16
      objectReference: {fileID: 0}
    - target: {fileID: 1466397783, guid: fb86da32ef51ed740bb632bce1def16e, type: 3}
      propertyPath: m_StaticEditorFlags
      value: 16
      objectReference: {fileID: 0}
    - target: {fileID: 763393047297647130, guid: fb86da32ef51ed740bb632bce1def16e,
        type: 3}
      propertyPath: orderOverride
      value: 2
      objectReference: {fileID: 0}
    - target: {fileID: 763393047297647130, guid: fb86da32ef51ed740bb632bce1def16e,
        type: 3}
      propertyPath: onAttackStarted.m_PersistentCalls.m_Calls.Array.size
      value: 2
      objectReference: {fileID: 0}
    - target: {fileID: 763393047297647130, guid: fb86da32ef51ed740bb632bce1def16e,
        type: 3}
      propertyPath: onAttackPhaseTriggered.m_PersistentCalls.m_Calls.Array.size
      value: 2
      objectReference: {fileID: 0}
    - target: {fileID: 763393047297647130, guid: fb86da32ef51ed740bb632bce1def16e,
        type: 3}
      propertyPath: onAttackStarted.m_PersistentCalls.m_Calls.Array.data[1].m_Mode
      value: 2
      objectReference: {fileID: 0}
    - target: {fileID: 763393047297647130, guid: fb86da32ef51ed740bb632bce1def16e,
        type: 3}
      propertyPath: onAttackStarted.m_PersistentCalls.m_Calls.Array.data[1].m_Target
      value: 
      objectReference: {fileID: 4536280199580615910}
    - target: {fileID: 763393047297647130, guid: fb86da32ef51ed740bb632bce1def16e,
        type: 3}
      propertyPath: onAttackStarted.m_PersistentCalls.m_Calls.Array.data[1].m_CallState
      value: 2
      objectReference: {fileID: 0}
    - target: {fileID: 763393047297647130, guid: fb86da32ef51ed740bb632bce1def16e,
        type: 3}
      propertyPath: onAttackStarted.m_PersistentCalls.m_Calls.Array.data[1].m_MethodName
      value: Trigger3DSound
      objectReference: {fileID: 0}
    - target: {fileID: 763393047297647130, guid: fb86da32ef51ed740bb632bce1def16e,
        type: 3}
      propertyPath: onAttackPhaseTriggered.m_PersistentCalls.m_Calls.Array.data[1].m_Mode
      value: 1
      objectReference: {fileID: 0}
    - target: {fileID: 763393047297647130, guid: fb86da32ef51ed740bb632bce1def16e,
        type: 3}
      propertyPath: onAttackPhaseTriggered.m_PersistentCalls.m_Calls.Array.data[1].m_Target
      value: 
      objectReference: {fileID: 6457217707363648883}
    - target: {fileID: 763393047297647130, guid: fb86da32ef51ed740bb632bce1def16e,
        type: 3}
      propertyPath: onAttackPhaseTriggered.m_PersistentCalls.m_Calls.Array.data[1].m_CallState
      value: 2
      objectReference: {fileID: 0}
    - target: {fileID: 763393047297647130, guid: fb86da32ef51ed740bb632bce1def16e,
        type: 3}
      propertyPath: onAttackPhaseTriggered.m_PersistentCalls.m_Calls.Array.data[1].m_MethodName
      value: Trigger3DSound
      objectReference: {fileID: 0}
    - target: {fileID: 763393047297647130, guid: fb86da32ef51ed740bb632bce1def16e,
        type: 3}
      propertyPath: onAttackStarted.m_PersistentCalls.m_Calls.Array.data[1].m_Arguments.m_ObjectArgument
      value: 
      objectReference: {fileID: 8300000, guid: 93bab26543fc3da44bf9a18fcd8c503a, type: 3}
    - target: {fileID: 763393047297647130, guid: fb86da32ef51ed740bb632bce1def16e,
        type: 3}
      propertyPath: onAttackStarted.m_PersistentCalls.m_Calls.Array.data[1].m_Arguments.m_ObjectArgumentAssemblyTypeName
      value: UnityEngine.AudioClip, UnityEngine
      objectReference: {fileID: 0}
    - target: {fileID: 763393047297647130, guid: fb86da32ef51ed740bb632bce1def16e,
        type: 3}
      propertyPath: onAttackPhaseTriggered.m_PersistentCalls.m_Calls.Array.data[1].m_Arguments.m_ObjectArgumentAssemblyTypeName
      value: UnityEngine.Object, UnityEngine
      objectReference: {fileID: 0}
    - target: {fileID: 4378140475232039756, guid: fb86da32ef51ed740bb632bce1def16e,
        type: 3}
      propertyPath: m_RootOrder
      value: 2
      objectReference: {fileID: 0}
    - target: {fileID: 4378140475232039756, guid: fb86da32ef51ed740bb632bce1def16e,
        type: 3}
      propertyPath: m_LocalPosition.x
      value: -0.51
      objectReference: {fileID: 0}
    - target: {fileID: 4378140475232039756, guid: fb86da32ef51ed740bb632bce1def16e,
        type: 3}
      propertyPath: m_LocalPosition.y
      value: 1.3
      objectReference: {fileID: 0}
    - target: {fileID: 4378140475232039756, guid: fb86da32ef51ed740bb632bce1def16e,
        type: 3}
      propertyPath: m_LocalPosition.z
      value: 0.778
      objectReference: {fileID: 0}
    - target: {fileID: 4958181933288453853, guid: fb86da32ef51ed740bb632bce1def16e,
        type: 3}
      propertyPath: m_Name
      value: Projectile Attack - Lobbed
      objectReference: {fileID: 0}
    - target: {fileID: 4958181933288453853, guid: fb86da32ef51ed740bb632bce1def16e,
        type: 3}
      propertyPath: m_StaticEditorFlags
      value: 16
      objectReference: {fileID: 0}
    m_RemovedComponents: []
  m_SourcePrefab: {fileID: 100100000, guid: fb86da32ef51ed740bb632bce1def16e, type: 3}
--- !u!1 &8201418359291650645 stripped
GameObject:
  m_CorrespondingSourceObject: {fileID: 1466397783, guid: fb86da32ef51ed740bb632bce1def16e,
    type: 3}
  m_PrefabInstance: {fileID: 8201418357825951234}
  m_PrefabAsset: {fileID: 0}
