%YAML 1.1
%TAG !u! tag:unity3d.com,2011:
--- !u!114 &2909841383669225388
MonoBehaviour:
  m_ObjectHideFlags: 0
  m_CorrespondingSourceObject: {fileID: 0}
  m_PrefabInstance: {fileID: 0}
  m_PrefabAsset: {fileID: 0}
  m_GameObject: {fileID: 361462515161862179}
  m_Enabled: 1
  m_EditorHideFlags: 0
  m_Script: {fileID: 11500000, guid: 325eae5e1580742aba515d9fa77fa94b, type: 3}
  m_Name: 
  m_EditorClassIdentifier: 
  onEnable:
    m_PersistentCalls:
      m_Calls:
      - m_Target: {fileID: 4951977714954214055}
        m_MethodName: SpawnFollower
        m_Mode: 1
        m_Arguments:
          m_ObjectArgument: {fileID: 0}
          m_ObjectArgumentAssemblyTypeName: UnityEngine.Object, UnityEngine
          m_IntArgument: 0
          m_FloatArgument: 0
          m_StringArgument: 
          m_BoolArgument: 0
        m_CallState: 2
--- !u!114 &4951977714954214055
MonoBehaviour:
  m_ObjectHideFlags: 0
  m_CorrespondingSourceObject: {fileID: 0}
  m_PrefabInstance: {fileID: 0}
  m_PrefabAsset: {fileID: 0}
  m_GameObject: {fileID: 361462515161862179}
  m_Enabled: 1
  m_EditorHideFlags: 0
  m_Script: {fileID: 11500000, guid: 9dbb3a7ec0e6e1543a2ab1682855c470, type: 3}
  m_Name: 
  m_EditorClassIdentifier: 
  followerPrefab: {fileID: 3690965462455397106, guid: fa944a03c681768498a66bc6a5ffce10,
    type: 3}
--- !u!1001 &270133795997347882
PrefabInstance:
  m_ObjectHideFlags: 0
  serializedVersion: 2
  m_Modification:
    m_TransformParent: {fileID: 0}
    m_Modifications:
    - target: {fileID: 202490120355795099, guid: c716db665585c4fcdab6d4b36634e589,
        type: 3}
      propertyPath: m_Color.b
      value: 1
      objectReference: {fileID: 0}
    - target: {fileID: 202490120355795099, guid: c716db665585c4fcdab6d4b36634e589,
        type: 3}
      propertyPath: m_Color.g
      value: 0.82179767
      objectReference: {fileID: 0}
    - target: {fileID: 202490120355795099, guid: c716db665585c4fcdab6d4b36634e589,
        type: 3}
      propertyPath: m_Color.r
      value: 0.20392156
      objectReference: {fileID: 0}
    - target: {fileID: 202490120355795099, guid: c716db665585c4fcdab6d4b36634e589,
        type: 3}
      propertyPath: m_Intensity
      value: 1
      objectReference: {fileID: 0}
    - target: {fileID: 485150158160945161, guid: c716db665585c4fcdab6d4b36634e589,
        type: 3}
      propertyPath: m_Name
      value: Split Bullet - Ice Blue (Ice)
      objectReference: {fileID: 0}
    - target: {fileID: 485150158160945173, guid: c716db665585c4fcdab6d4b36634e589,
        type: 3}
      propertyPath: m_RootOrder
      value: 0
      objectReference: {fileID: 0}
    - target: {fileID: 485150158160945173, guid: c716db665585c4fcdab6d4b36634e589,
        type: 3}
      propertyPath: m_LocalPosition.x
      value: -1.5938048
      objectReference: {fileID: 0}
    - target: {fileID: 485150158160945173, guid: c716db665585c4fcdab6d4b36634e589,
        type: 3}
      propertyPath: m_LocalPosition.y
      value: 0.9681535
      objectReference: {fileID: 0}
    - target: {fileID: 485150158160945173, guid: c716db665585c4fcdab6d4b36634e589,
        type: 3}
      propertyPath: m_LocalPosition.z
      value: 0.2623043
      objectReference: {fileID: 0}
    - target: {fileID: 485150158160945173, guid: c716db665585c4fcdab6d4b36634e589,
        type: 3}
      propertyPath: m_LocalRotation.w
      value: 1
      objectReference: {fileID: 0}
    - target: {fileID: 485150158160945173, guid: c716db665585c4fcdab6d4b36634e589,
        type: 3}
      propertyPath: m_LocalRotation.x
      value: -0
      objectReference: {fileID: 0}
    - target: {fileID: 485150158160945173, guid: c716db665585c4fcdab6d4b36634e589,
        type: 3}
      propertyPath: m_LocalRotation.y
      value: -0
      objectReference: {fileID: 0}
    - target: {fileID: 485150158160945173, guid: c716db665585c4fcdab6d4b36634e589,
        type: 3}
      propertyPath: m_LocalRotation.z
      value: -0
      objectReference: {fileID: 0}
    - target: {fileID: 485150158160945173, guid: c716db665585c4fcdab6d4b36634e589,
        type: 3}
      propertyPath: m_LocalEulerAnglesHint.x
      value: 0
      objectReference: {fileID: 0}
    - target: {fileID: 485150158160945173, guid: c716db665585c4fcdab6d4b36634e589,
        type: 3}
      propertyPath: m_LocalEulerAnglesHint.y
      value: 0
      objectReference: {fileID: 0}
    - target: {fileID: 485150158160945173, guid: c716db665585c4fcdab6d4b36634e589,
        type: 3}
      propertyPath: m_LocalEulerAnglesHint.z
      value: 0
      objectReference: {fileID: 0}
    - target: {fileID: 485150158160945175, guid: c716db665585c4fcdab6d4b36634e589,
        type: 3}
      propertyPath: onSelfDestruct.m_PersistentCalls.m_Calls.Array.size
      value: 3
      objectReference: {fileID: 0}
    - target: {fileID: 485150158160945175, guid: c716db665585c4fcdab6d4b36634e589,
        type: 3}
      propertyPath: onSelfDestruct.m_PersistentCalls.m_Calls.Array.data[2].m_Mode
      value: 1
      objectReference: {fileID: 0}
    - target: {fileID: 485150158160945175, guid: c716db665585c4fcdab6d4b36634e589,
        type: 3}
      propertyPath: onSelfDestruct.m_PersistentCalls.m_Calls.Array.data[2].m_Target
      value: 
      objectReference: {fileID: 4951977714954214055}
    - target: {fileID: 485150158160945175, guid: c716db665585c4fcdab6d4b36634e589,
        type: 3}
      propertyPath: onSelfDestruct.m_PersistentCalls.m_Calls.Array.data[2].m_CallState
      value: 2
      objectReference: {fileID: 0}
    - target: {fileID: 485150158160945175, guid: c716db665585c4fcdab6d4b36634e589,
        type: 3}
      propertyPath: onSelfDestruct.m_PersistentCalls.m_Calls.Array.data[2].m_MethodName
      value: ClearFollower
      objectReference: {fileID: 0}
    - target: {fileID: 485150158160945175, guid: c716db665585c4fcdab6d4b36634e589,
        type: 3}
      propertyPath: onSelfDestruct.m_PersistentCalls.m_Calls.Array.data[2].m_Arguments.m_ObjectArgumentAssemblyTypeName
      value: UnityEngine.Object, UnityEngine
      objectReference: {fileID: 0}
    - target: {fileID: 5177614405018175455, guid: c716db665585c4fcdab6d4b36634e589,
        type: 3}
      propertyPath: m_Materials.Array.data[0]
      value: 
      objectReference: {fileID: 2100000, guid: 9c4e602afc4324c159a032d8baaf4957, type: 2}
    - target: {fileID: 5643464649098196301, guid: c716db665585c4fcdab6d4b36634e589,
        type: 3}
      propertyPath: m_Materials.Array.data[0]
      value: 
      objectReference: {fileID: 2100000, guid: e1e123ccfb1e94269a3887d17d7740e4, type: 2}
    - target: {fileID: 6685313889557311662, guid: c716db665585c4fcdab6d4b36634e589,
        type: 3}
      propertyPath: m_RootOrder
      value: 4
      objectReference: {fileID: 0}
    - target: {fileID: 7009238105372036413, guid: c716db665585c4fcdab6d4b36634e589,
        type: 3}
      propertyPath: m_RootOrder
      value: 5
      objectReference: {fileID: 0}
    - target: {fileID: 8645893372367220381, guid: c716db665585c4fcdab6d4b36634e589,
        type: 3}
      propertyPath: m_IsActive
      value: 1
      objectReference: {fileID: 0}
    m_RemovedComponents: []
  m_SourcePrefab: {fileID: 100100000, guid: c716db665585c4fcdab6d4b36634e589, type: 3}
--- !u!1 &361462515161862179 stripped
GameObject:
  m_CorrespondingSourceObject: {fileID: 485150158160945161, guid: c716db665585c4fcdab6d4b36634e589,
    type: 3}
  m_PrefabInstance: {fileID: 270133795997347882}
  m_PrefabAsset: {fileID: 0}
