%YAML 1.1
%TAG !u! tag:unity3d.com,2011:
--- !u!1001 &2121765768523600790
PrefabInstance:
  m_ObjectHideFlags: 0
  serializedVersion: 2
  m_Modification:
    m_TransformParent: {fileID: 0}
    m_Modifications:
    - target: {fileID: 139064693714914153, guid: 53edb7d14943e4679846058be0d8042d,
        type: 3}
      propertyPath: m_Materials.Array.data[2]
      value: 
      objectReference: {fileID: 2100000, guid: cb93118f7c53243b5806c18c5e96dd76, type: 2}
    - target: {fileID: 139064693746578097, guid: 53edb7d14943e4679846058be0d8042d,
        type: 3}
      propertyPath: m_RootOrder
      value: 0
      objectReference: {fileID: 0}
    - target: {fileID: 139064693746578097, guid: 53edb7d14943e4679846058be0d8042d,
        type: 3}
      propertyPath: m_LocalPosition.x
      value: -48.823227
      objectReference: {fileID: 0}
    - target: {fileID: 139064693746578097, guid: 53edb7d14943e4679846058be0d8042d,
        type: 3}
      propertyPath: m_LocalPosition.y
      value: 51.910004
      objectReference: {fileID: 0}
    - target: {fileID: 139064693746578097, guid: 53edb7d14943e4679846058be0d8042d,
        type: 3}
      propertyPath: m_LocalPosition.z
      value: 28.73666
      objectReference: {fileID: 0}
    - target: {fileID: 139064693746578097, guid: 53edb7d14943e4679846058be0d8042d,
        type: 3}
      propertyPath: m_LocalRotation.w
      value: 0.88318604
      objectReference: {fileID: 0}
    - target: {fileID: 139064693746578097, guid: 53edb7d14943e4679846058be0d8042d,
        type: 3}
      propertyPath: m_LocalRotation.x
      value: -0
      objectReference: {fileID: 0}
    - target: {fileID: 139064693746578097, guid: 53edb7d14943e4679846058be0d8042d,
        type: 3}
      propertyPath: m_LocalRotation.y
      value: 0.46902293
      objectReference: {fileID: 0}
    - target: {fileID: 139064693746578097, guid: 53edb7d14943e4679846058be0d8042d,
        type: 3}
      propertyPath: m_LocalRotation.z
      value: -0
      objectReference: {fileID: 0}
    - target: {fileID: 139064693746578097, guid: 53edb7d14943e4679846058be0d8042d,
        type: 3}
      propertyPath: m_LocalEulerAnglesHint.x
      value: 0
      objectReference: {fileID: 0}
    - target: {fileID: 139064693746578097, guid: 53edb7d14943e4679846058be0d8042d,
        type: 3}
      propertyPath: m_LocalEulerAnglesHint.y
      value: -90
      objectReference: {fileID: 0}
    - target: {fileID: 139064693746578097, guid: 53edb7d14943e4679846058be0d8042d,
        type: 3}
      propertyPath: m_LocalEulerAnglesHint.z
      value: 0
      objectReference: {fileID: 0}
    - target: {fileID: 139064693746578100, guid: 53edb7d14943e4679846058be0d8042d,
        type: 3}
      propertyPath: m_Name
      value: Door Frame Armadageddon 3
      objectReference: {fileID: 0}
    - target: {fileID: 139064693746578102, guid: 53edb7d14943e4679846058be0d8042d,
        type: 3}
      propertyPath: m_Tangents.Array.data[40].x
      value: -0.70710623
      objectReference: {fileID: 0}
    - target: {fileID: 139064693746578102, guid: 53edb7d14943e4679846058be0d8042d,
        type: 3}
      propertyPath: m_Tangents.Array.data[40].y
      value: -0.70710737
      objectReference: {fileID: 0}
    - target: {fileID: 139064693746578102, guid: 53edb7d14943e4679846058be0d8042d,
        type: 3}
      propertyPath: m_Tangents.Array.data[40].z
      value: 0
      objectReference: {fileID: 0}
    - target: {fileID: 139064693746578102, guid: 53edb7d14943e4679846058be0d8042d,
        type: 3}
      propertyPath: m_Tangents.Array.data[41].x
      value: -0.70710623
      objectReference: {fileID: 0}
    - target: {fileID: 139064693746578102, guid: 53edb7d14943e4679846058be0d8042d,
        type: 3}
      propertyPath: m_Tangents.Array.data[41].y
      value: -0.70710737
      objectReference: {fileID: 0}
    - target: {fileID: 139064693746578102, guid: 53edb7d14943e4679846058be0d8042d,
        type: 3}
      propertyPath: m_Tangents.Array.data[41].z
      value: 0
      objectReference: {fileID: 0}
    - target: {fileID: 139064693746578102, guid: 53edb7d14943e4679846058be0d8042d,
        type: 3}
      propertyPath: m_Tangents.Array.data[42].x
      value: -0.70710623
      objectReference: {fileID: 0}
    - target: {fileID: 139064693746578102, guid: 53edb7d14943e4679846058be0d8042d,
        type: 3}
      propertyPath: m_Tangents.Array.data[42].y
      value: -0.70710737
      objectReference: {fileID: 0}
    - target: {fileID: 139064693746578102, guid: 53edb7d14943e4679846058be0d8042d,
        type: 3}
      propertyPath: m_Tangents.Array.data[42].z
      value: 0
      objectReference: {fileID: 0}
    - target: {fileID: 139064693746578102, guid: 53edb7d14943e4679846058be0d8042d,
        type: 3}
      propertyPath: m_Tangents.Array.data[43].x
      value: -0.70710623
      objectReference: {fileID: 0}
    - target: {fileID: 139064693746578102, guid: 53edb7d14943e4679846058be0d8042d,
        type: 3}
      propertyPath: m_Tangents.Array.data[43].y
      value: -0.70710737
      objectReference: {fileID: 0}
    - target: {fileID: 139064693746578102, guid: 53edb7d14943e4679846058be0d8042d,
        type: 3}
      propertyPath: m_Tangents.Array.data[43].z
      value: 0
      objectReference: {fileID: 0}
    - target: {fileID: 139064693746578102, guid: 53edb7d14943e4679846058be0d8042d,
        type: 3}
      propertyPath: m_Textures0.Array.data[40].x
      value: 1.9444753
      objectReference: {fileID: 0}
    - target: {fileID: 139064693746578102, guid: 53edb7d14943e4679846058be0d8042d,
        type: 3}
      propertyPath: m_Textures0.Array.data[40].y
      value: 0
      objectReference: {fileID: 0}
    - target: {fileID: 139064693746578102, guid: 53edb7d14943e4679846058be0d8042d,
        type: 3}
      propertyPath: m_Textures0.Array.data[41].x
      value: 1.0644915
      objectReference: {fileID: 0}
    - target: {fileID: 139064693746578102, guid: 53edb7d14943e4679846058be0d8042d,
        type: 3}
      propertyPath: m_Textures0.Array.data[41].y
      value: 0
      objectReference: {fileID: 0}
    - target: {fileID: 139064693746578102, guid: 53edb7d14943e4679846058be0d8042d,
        type: 3}
      propertyPath: m_Textures0.Array.data[42].x
      value: 1.9444753
      objectReference: {fileID: 0}
    - target: {fileID: 139064693746578102, guid: 53edb7d14943e4679846058be0d8042d,
        type: 3}
      propertyPath: m_Textures0.Array.data[42].y
      value: 1
      objectReference: {fileID: 0}
    - target: {fileID: 139064693746578102, guid: 53edb7d14943e4679846058be0d8042d,
        type: 3}
      propertyPath: m_Textures0.Array.data[43].x
      value: 1.0644915
      objectReference: {fileID: 0}
    - target: {fileID: 139064693746578102, guid: 53edb7d14943e4679846058be0d8042d,
        type: 3}
      propertyPath: m_Textures0.Array.data[43].y
      value: 1
      objectReference: {fileID: 0}
    - target: {fileID: 139064693746578103, guid: 53edb7d14943e4679846058be0d8042d,
        type: 3}
      propertyPath: m_Materials.Array.data[0]
      value: 
      objectReference: {fileID: 2100000, guid: cb93118f7c53243b5806c18c5e96dd76, type: 2}
    m_RemovedComponents: []
  m_SourcePrefab: {fileID: 100100000, guid: 53edb7d14943e4679846058be0d8042d, type: 3}
