%YAML 1.1
%TAG !u! tag:unity3d.com,2011:
--- !u!1 &1402176461796910367
GameObject:
  m_ObjectHideFlags: 0
  m_CorrespondingSourceObject: {fileID: 0}
  m_PrefabInstance: {fileID: 0}
  m_PrefabAsset: {fileID: 0}
  serializedVersion: 6
  m_Component:
  - component: {fileID: 7744167923317235854}
  - component: {fileID: 6711091099963142616}
  - component: {fileID: 6336397941277400463}
  m_Layer: 13
  m_Name: Projectile Attack
  m_TagString: Untagged
  m_Icon: {fileID: 0}
  m_NavMeshLayer: 0
  m_StaticEditorFlags: 0
  m_IsActive: 1
--- !u!4 &7744167923317235854
Transform:
  m_ObjectHideFlags: 0
  m_CorrespondingSourceObject: {fileID: 0}
  m_PrefabInstance: {fileID: 0}
  m_PrefabAsset: {fileID: 0}
  m_GameObject: {fileID: 1402176461796910367}
  m_LocalRotation: {x: -0, y: -0, z: -0, w: 1}
  m_LocalPosition: {x: 0, y: 0, z: 0}
  m_LocalScale: {x: 1, y: 1, z: 1}
  m_Children: []
  m_Father: {fileID: 0}
  m_RootOrder: 0
  m_LocalEulerAnglesHint: {x: 0, y: 0, z: 0}
--- !u!114 &6711091099963142616
MonoBehaviour:
  m_ObjectHideFlags: 0
  m_CorrespondingSourceObject: {fileID: 0}
  m_PrefabInstance: {fileID: 0}
  m_PrefabAsset: {fileID: 0}
  m_GameObject: {fileID: 1402176461796910367}
  m_Enabled: 1
  m_EditorHideFlags: 0
  m_Script: {fileID: 11500000, guid: c98b8b34e364a4dd28787ae1af787476, type: 3}
  m_Name: 
  m_EditorClassIdentifier: 
  drawDebug: 0
  canAttack: 1
  orderOverride: -1
  onAttackStarted:
    m_PersistentCalls:
      m_Calls:
      - m_Target: {fileID: 0}
        m_MethodName: ParameterBoolEnable
        m_Mode: 5
        m_Arguments:
          m_ObjectArgument: {fileID: 0}
          m_ObjectArgumentAssemblyTypeName: UnityEngine.Object, UnityEngine
          m_IntArgument: 0
          m_FloatArgument: 0
          m_StringArgument: isAttacking
          m_BoolArgument: 0
        m_CallState: 2
      - m_Target: {fileID: 0}
        m_MethodName: Play
        m_Mode: 1
        m_Arguments:
          m_ObjectArgument: {fileID: 0}
          m_ObjectArgumentAssemblyTypeName: UnityEngine.Object, UnityEngine
          m_IntArgument: 0
          m_FloatArgument: 0
          m_StringArgument: 
          m_BoolArgument: 0
        m_CallState: 2
  onAttackPhaseTriggered:
    m_PersistentCalls:
      m_Calls:
      - m_Target: {fileID: 6336397941277400463}
        m_MethodName: OnTriggerIntegerEvent
        m_Mode: 0
        m_Arguments:
          m_ObjectArgument: {fileID: 0}
          m_ObjectArgumentAssemblyTypeName: UnityEngine.Object, UnityEngine
          m_IntArgument: 0
          m_FloatArgument: 0
          m_StringArgument: 
          m_BoolArgument: 0
        m_CallState: 2
  onAttackEnded:
    m_PersistentCalls:
      m_Calls:
      - m_Target: {fileID: 0}
        m_MethodName: ParameterBoolDisable
        m_Mode: 5
        m_Arguments:
          m_ObjectArgument: {fileID: 0}
          m_ObjectArgumentAssemblyTypeName: UnityEngine.Object, UnityEngine
          m_IntArgument: 0
          m_FloatArgument: 0
          m_StringArgument: isAttacking
          m_BoolArgument: 0
        m_CallState: 2
      - m_Target: {fileID: 0}
        m_MethodName: Stop
        m_Mode: 1
        m_Arguments:
          m_ObjectArgument: {fileID: 0}
          m_ObjectArgumentAssemblyTypeName: UnityEngine.Object, UnityEngine
          m_IntArgument: 0
          m_FloatArgument: 0
          m_StringArgument: 
          m_BoolArgument: 0
        m_CallState: 2
  threatLayer:
    serializedVersion: 2
    m_Bits: 161792
  attackData:
    repeatDelay: 1.5
    cancelPathingOnUse: 1
    triggerConditions:
      array:
      - type: 55
        value: 4
      - type: 50
        value: 13
      - type: 60
        value: 15
      - type: 65
        value: 13
    cancellablePhases: 00000000
    cancelConditions:
      array:
      - list:
          array:
          - type: 130
            value: 0
          - type: 120
            value: 6
    useAiming: 1
    aimSpeed: 150
    shotAngle: 5
    verticalAimSpeed: 140
    verticalAimPadding: 0.5
    maxVerticalAngle: 27.95
    minVerticalAngle: -40
    holdForTarget: 0
    preFireBuffer: 0.1
    cooldown: 1.5
    fireKnockback: 0
    burstFire: 0
    burstAmount: 0
    burstRate: 0
    onBurstFireFinished:
      m_PersistentCalls:
        m_Calls: []
  projectileEmitter: {fileID: 0}
  aimRoot: {fileID: 0}
--- !u!114 &6336397941277400463
MonoBehaviour:
  m_ObjectHideFlags: 0
  m_CorrespondingSourceObject: {fileID: 0}
  m_PrefabInstance: {fileID: 0}
  m_PrefabAsset: {fileID: 0}
  m_GameObject: {fileID: 1402176461796910367}
  m_Enabled: 1
  m_EditorHideFlags: 0
  m_Script: {fileID: 11500000, guid: 104963e590b6909439f60246574521bc, type: 3}
  m_Name: 
  m_EditorClassIdentifier: 
  integerEvents:
    reorderableList:
      canAdd: 1
      canRemove: 1
      draggable: 1
      expandable: 1
      multipleSelection: 1
      isExpanded: 1
      label:
        m_Text: Keys
        m_Image: {fileID: 0}
        m_Tooltip: 
      headerHeight: 18
      footerHeight: 13
      slideEasing: 0.15
      verticalSpacing: 2
      showDefaultBackground: 1
      elementDisplayType: 0
      elementNameProperty: 
      elementNameOverride: 
      elementIcon: {fileID: 0}
    reqReferences: {fileID: 0}
    isExpanded: 1
    _keyValues: 00000000
    _keys: 00000000
    _values:
    - m_PersistentCalls:
        m_Calls:
        - m_Target: {fileID: 0}
          m_MethodName: Trigger3DSound
          m_Mode: 2
          m_Arguments:
            m_ObjectArgument: {fileID: 8300000, guid: 8a8e07f8053114efabed40aa9e909c50,
              type: 3}
            m_ObjectArgumentAssemblyTypeName: UnityEngine.AudioClip, UnityEngine
            m_IntArgument: 0
            m_FloatArgument: 0
            m_StringArgument: 
            m_BoolArgument: 0
          m_CallState: 2
