%YAML 1.1
%TAG !u! tag:unity3d.com,2011:
--- !u!1001 &704315499334374997
PrefabInstance:
  m_ObjectHideFlags: 0
  serializedVersion: 2
  m_Modification:
    m_TransformParent: {fileID: 0}
    m_Modifications:
    - target: {fileID: 1044253821372740858, guid: 2d480d901f598c54ea14e73a12fb8de6,
        type: 3}
      propertyPath: m_Enabled
      value: 0
      objectReference: {fileID: 0}
    - target: {fileID: 2307349215829209942, guid: 2d480d901f598c54ea14e73a12fb8de6,
        type: 3}
      propertyPath: impactPrefab
      value: 
      objectReference: {fileID: 8205307642712095777, guid: 4f85cdb7bb0d35646a09f6252f709a23,
        type: 3}
    - target: {fileID: 2307349215829209942, guid: 2d480d901f598c54ea14e73a12fb8de6,
        type: 3}
      propertyPath: attackData.cooldown
      value: 2
      objectReference: {fileID: 0}
    - target: {fileID: 2307349215829209942, guid: 2d480d901f598c54ea14e73a12fb8de6,
        type: 3}
      propertyPath: attackData.triggerConditions.array.Array.size
      value: 2
      objectReference: {fileID: 0}
    - target: {fileID: 2307349215829209942, guid: 2d480d901f598c54ea14e73a12fb8de6,
        type: 3}
      propertyPath: attackData.triggerConditions.array.Array.data[0].type
      value: 55
      objectReference: {fileID: 0}
    - target: {fileID: 2307349215829209942, guid: 2d480d901f598c54ea14e73a12fb8de6,
        type: 3}
      propertyPath: attackData.triggerConditions.array.Array.data[1].type
      value: 85
      objectReference: {fileID: 0}
    - target: {fileID: 2307349215829209942, guid: 2d480d901f598c54ea14e73a12fb8de6,
        type: 3}
      propertyPath: attackData.triggerConditions.array.Array.data[1].value
      value: 2
      objectReference: {fileID: 0}
    - target: {fileID: 4227918281714910914, guid: 2d480d901f598c54ea14e73a12fb8de6,
        type: 3}
      propertyPath: m_RootOrder
      value: 0
      objectReference: {fileID: 0}
    - target: {fileID: 4227918281714910914, guid: 2d480d901f598c54ea14e73a12fb8de6,
        type: 3}
      propertyPath: m_LocalPosition.x
      value: 0
      objectReference: {fileID: 0}
    - target: {fileID: 4227918281714910914, guid: 2d480d901f598c54ea14e73a12fb8de6,
        type: 3}
      propertyPath: m_LocalPosition.y
      value: 0
      objectReference: {fileID: 0}
    - target: {fileID: 4227918281714910914, guid: 2d480d901f598c54ea14e73a12fb8de6,
        type: 3}
      propertyPath: m_LocalPosition.z
      value: 0
      objectReference: {fileID: 0}
    - target: {fileID: 4227918281714910914, guid: 2d480d901f598c54ea14e73a12fb8de6,
        type: 3}
      propertyPath: m_LocalRotation.w
      value: 1
      objectReference: {fileID: 0}
    - target: {fileID: 4227918281714910914, guid: 2d480d901f598c54ea14e73a12fb8de6,
        type: 3}
      propertyPath: m_LocalRotation.x
      value: -0
      objectReference: {fileID: 0}
    - target: {fileID: 4227918281714910914, guid: 2d480d901f598c54ea14e73a12fb8de6,
        type: 3}
      propertyPath: m_LocalRotation.y
      value: -0
      objectReference: {fileID: 0}
    - target: {fileID: 4227918281714910914, guid: 2d480d901f598c54ea14e73a12fb8de6,
        type: 3}
      propertyPath: m_LocalRotation.z
      value: -0
      objectReference: {fileID: 0}
    - target: {fileID: 4227918281714910914, guid: 2d480d901f598c54ea14e73a12fb8de6,
        type: 3}
      propertyPath: m_LocalEulerAnglesHint.x
      value: 0
      objectReference: {fileID: 0}
    - target: {fileID: 4227918281714910914, guid: 2d480d901f598c54ea14e73a12fb8de6,
        type: 3}
      propertyPath: m_LocalEulerAnglesHint.y
      value: 0
      objectReference: {fileID: 0}
    - target: {fileID: 4227918281714910914, guid: 2d480d901f598c54ea14e73a12fb8de6,
        type: 3}
      propertyPath: m_LocalEulerAnglesHint.z
      value: 0
      objectReference: {fileID: 0}
    - target: {fileID: 4685852580267575147, guid: 2d480d901f598c54ea14e73a12fb8de6,
        type: 3}
      propertyPath: m_Name
      value: Summoning Attack - Flame Spike
      objectReference: {fileID: 0}
    m_RemovedComponents: []
  m_SourcePrefab: {fileID: 100100000, guid: 2d480d901f598c54ea14e73a12fb8de6, type: 3}
