%YAML 1.1
%TAG !u! tag:unity3d.com,2011:
--- !u!1001 &1445219849530782446
PrefabInstance:
  m_ObjectHideFlags: 0
  serializedVersion: 2
  m_Modification:
    m_TransformParent: {fileID: 0}
    m_Modifications:
    - target: {fileID: 2518969096769507862, guid: 3db60e5434b39492db7e59b8a3e88f39,
        type: 3}
      propertyPath: m_IsActive
      value: 0
      objectReference: {fileID: 0}
    - target: {fileID: 2518969096992882443, guid: 3db60e5434b39492db7e59b8a3e88f39,
        type: 3}
      propertyPath: m_Materials.Array.data[0]
      value: 
      objectReference: {fileID: 2100000, guid: 67352ca38c77546fe8190fe413be2121, type: 2}
    - target: {fileID: 2518969098067668494, guid: 3db60e5434b39492db7e59b8a3e88f39,
        type: 3}
      propertyPath: m_RootOrder
      value: 0
      objectReference: {fileID: 0}
    - target: {fileID: 2518969098067668494, guid: 3db60e5434b39492db7e59b8a3e88f39,
        type: 3}
      propertyPath: m_LocalPosition.x
      value: 22.9
      objectReference: {fileID: 0}
    - target: {fileID: 2518969098067668494, guid: 3db60e5434b39492db7e59b8a3e88f39,
        type: 3}
      propertyPath: m_LocalPosition.y
      value: 28
      objectReference: {fileID: 0}
    - target: {fileID: 2518969098067668494, guid: 3db60e5434b39492db7e59b8a3e88f39,
        type: 3}
      propertyPath: m_LocalPosition.z
      value: -191
      objectReference: {fileID: 0}
    - target: {fileID: 2518969098067668494, guid: 3db60e5434b39492db7e59b8a3e88f39,
        type: 3}
      propertyPath: m_LocalRotation.w
      value: 0.7071068
      objectReference: {fileID: 0}
    - target: {fileID: 2518969098067668494, guid: 3db60e5434b39492db7e59b8a3e88f39,
        type: 3}
      propertyPath: m_LocalRotation.x
      value: 0
      objectReference: {fileID: 0}
    - target: {fileID: 2518969098067668494, guid: 3db60e5434b39492db7e59b8a3e88f39,
        type: 3}
      propertyPath: m_LocalRotation.y
      value: -0.7071068
      objectReference: {fileID: 0}
    - target: {fileID: 2518969098067668494, guid: 3db60e5434b39492db7e59b8a3e88f39,
        type: 3}
      propertyPath: m_LocalRotation.z
      value: 0
      objectReference: {fileID: 0}
    - target: {fileID: 2518969098067668494, guid: 3db60e5434b39492db7e59b8a3e88f39,
        type: 3}
      propertyPath: m_LocalEulerAnglesHint.x
      value: 0
      objectReference: {fileID: 0}
    - target: {fileID: 2518969098067668494, guid: 3db60e5434b39492db7e59b8a3e88f39,
        type: 3}
      propertyPath: m_LocalEulerAnglesHint.y
      value: -90.00001
      objectReference: {fileID: 0}
    - target: {fileID: 2518969098067668494, guid: 3db60e5434b39492db7e59b8a3e88f39,
        type: 3}
      propertyPath: m_LocalEulerAnglesHint.z
      value: 0
      objectReference: {fileID: 0}
    - target: {fileID: 2518969098067668592, guid: 3db60e5434b39492db7e59b8a3e88f39,
        type: 3}
      propertyPath: m_Name
      value: Waterfall (Perfect Edition) (Brown Variant)
      objectReference: {fileID: 0}
    - target: {fileID: 2867801269383306648, guid: 3db60e5434b39492db7e59b8a3e88f39,
        type: 3}
      propertyPath: m_Materials.Array.data[0]
      value: 
      objectReference: {fileID: 2100000, guid: 1add5bc7950dc4b448ec2999c81ad168, type: 2}
    m_RemovedComponents: []
  m_SourcePrefab: {fileID: 100100000, guid: 3db60e5434b39492db7e59b8a3e88f39, type: 3}
