%YAML 1.1
%TAG !u! tag:unity3d.com,2011:
--- !u!114 &2908335940104895755
MonoBehaviour:
  m_ObjectHideFlags: 0
  m_CorrespondingSourceObject: {fileID: 0}
  m_PrefabInstance: {fileID: 0}
  m_PrefabAsset: {fileID: 0}
  m_GameObject: {fileID: 7024950091252773230}
  m_Enabled: 1
  m_EditorHideFlags: 0
  m_Script: {fileID: 11500000, guid: 9e4d7e8ca24e345ec849efe853d23dcb, type: 3}
  m_Name: 
  m_EditorClassIdentifier: 
--- !u!114 &8358651502452580960
MonoBehaviour:
  m_ObjectHideFlags: 0
  m_CorrespondingSourceObject: {fileID: 0}
  m_PrefabInstance: {fileID: 0}
  m_PrefabAsset: {fileID: 0}
  m_GameObject: {fileID: 7024950091252773230}
  m_Enabled: 1
  m_EditorHideFlags: 0
  m_Script: {fileID: 11500000, guid: bee0990edccea4641b4b422dd9cdc6ec, type: 3}
  m_Name: 
  m_EditorClassIdentifier: 
  timer: 0
  duration: 1
  variance: 0
  ignoreTimeScale: 0
  repeat: 1
  subtractiveProgress: 0
  onTimerStarted:
    m_PersistentCalls:
      m_Calls: []
  onTimerUpdated:
    m_PersistentCalls:
      m_Calls: []
  onTimerFinished:
    m_PersistentCalls:
      m_Calls:
      - m_Target: {fileID: 2908335940104895755}
        m_MethodName: DespawnObject
        m_Mode: 2
        m_Arguments:
          m_ObjectArgument: {fileID: 7024950091252773230}
          m_ObjectArgumentAssemblyTypeName: UnityEngine.GameObject, UnityEngine
          m_IntArgument: 0
          m_FloatArgument: 0
          m_StringArgument: 
          m_BoolArgument: 0
        m_CallState: 2
--- !u!1001 &2012114897486334884
PrefabInstance:
  m_ObjectHideFlags: 0
  serializedVersion: 2
  m_Modification:
    m_TransformParent: {fileID: 0}
    m_Modifications:
    - target: {fileID: 876, guid: 8e7b9b78f222045de87f85507f57a8d3, type: 3}
      propertyPath: m_IsActive
      value: 0
      objectReference: {fileID: 0}
    - target: {fileID: 878, guid: 8e7b9b78f222045de87f85507f57a8d3, type: 3}
      propertyPath: m_Name
      value: Bang (Effect) Variant - Small
      objectReference: {fileID: 0}
    - target: {fileID: 878, guid: 8e7b9b78f222045de87f85507f57a8d3, type: 3}
      propertyPath: m_IsActive
      value: 1
      objectReference: {fileID: 0}
    - target: {fileID: 957, guid: 8e7b9b78f222045de87f85507f57a8d3, type: 3}
      propertyPath: m_RootOrder
      value: 0
      objectReference: {fileID: 0}
    - target: {fileID: 957, guid: 8e7b9b78f222045de87f85507f57a8d3, type: 3}
      propertyPath: m_LocalScale.x
      value: 0.3
      objectReference: {fileID: 0}
    - target: {fileID: 957, guid: 8e7b9b78f222045de87f85507f57a8d3, type: 3}
      propertyPath: m_LocalScale.y
      value: 0.3
      objectReference: {fileID: 0}
    - target: {fileID: 957, guid: 8e7b9b78f222045de87f85507f57a8d3, type: 3}
      propertyPath: m_LocalScale.z
      value: 0.3
      objectReference: {fileID: 0}
    - target: {fileID: 957, guid: 8e7b9b78f222045de87f85507f57a8d3, type: 3}
      propertyPath: m_LocalPosition.x
      value: 1.5
      objectReference: {fileID: 0}
    - target: {fileID: 957, guid: 8e7b9b78f222045de87f85507f57a8d3, type: 3}
      propertyPath: m_LocalPosition.y
      value: 2.35
      objectReference: {fileID: 0}
    - target: {fileID: 957, guid: 8e7b9b78f222045de87f85507f57a8d3, type: 3}
      propertyPath: m_LocalPosition.z
      value: -0.9
      objectReference: {fileID: 0}
    - target: {fileID: 957, guid: 8e7b9b78f222045de87f85507f57a8d3, type: 3}
      propertyPath: m_LocalRotation.w
      value: 1
      objectReference: {fileID: 0}
    - target: {fileID: 957, guid: 8e7b9b78f222045de87f85507f57a8d3, type: 3}
      propertyPath: m_LocalRotation.x
      value: 0
      objectReference: {fileID: 0}
    - target: {fileID: 957, guid: 8e7b9b78f222045de87f85507f57a8d3, type: 3}
      propertyPath: m_LocalRotation.y
      value: 0
      objectReference: {fileID: 0}
    - target: {fileID: 957, guid: 8e7b9b78f222045de87f85507f57a8d3, type: 3}
      propertyPath: m_LocalRotation.z
      value: 0
      objectReference: {fileID: 0}
    - target: {fileID: 957, guid: 8e7b9b78f222045de87f85507f57a8d3, type: 3}
      propertyPath: m_LocalEulerAnglesHint.x
      value: 0
      objectReference: {fileID: 0}
    - target: {fileID: 957, guid: 8e7b9b78f222045de87f85507f57a8d3, type: 3}
      propertyPath: m_LocalEulerAnglesHint.y
      value: 0
      objectReference: {fileID: 0}
    - target: {fileID: 957, guid: 8e7b9b78f222045de87f85507f57a8d3, type: 3}
      propertyPath: m_LocalEulerAnglesHint.z
      value: 0
      objectReference: {fileID: 0}
    - target: {fileID: 3450858559314708457, guid: 8e7b9b78f222045de87f85507f57a8d3,
        type: 3}
      propertyPath: onParticleSystemDone.m_PersistentCalls.m_Calls.Array.data[0].m_Target
      value: 
      objectReference: {fileID: 2363083057864293727}
    - target: {fileID: 3450858559314708457, guid: 8e7b9b78f222045de87f85507f57a8d3,
        type: 3}
      propertyPath: onParticleSystemDone.m_PersistentCalls.m_Calls.Array.data[0].m_Arguments.m_ObjectArgument
      value: 
      objectReference: {fileID: 7024950091252773230}
    - target: {fileID: 5112793499457139819, guid: 8e7b9b78f222045de87f85507f57a8d3,
        type: 3}
      propertyPath: onEnable.m_PersistentCalls.m_Calls.Array.data[0].m_Target
      value: 
      objectReference: {fileID: 0}
    - target: {fileID: 8832074770722315844, guid: 8e7b9b78f222045de87f85507f57a8d3,
        type: 3}
      propertyPath: m_IsActive
      value: 0
      objectReference: {fileID: 0}
    - target: {fileID: 8832074770737177007, guid: 8e7b9b78f222045de87f85507f57a8d3,
        type: 3}
      propertyPath: m_WasSpriteAssigned
      value: 1
      objectReference: {fileID: 0}
    - target: {fileID: 8832074771316996810, guid: 8e7b9b78f222045de87f85507f57a8d3,
        type: 3}
      propertyPath: m_Name
      value: Bang (Effect) Variant - Small
      objectReference: {fileID: 0}
    - target: {fileID: 8832074771316996811, guid: 8e7b9b78f222045de87f85507f57a8d3,
        type: 3}
      propertyPath: m_LocalScale.x
      value: 0.3
      objectReference: {fileID: 0}
    - target: {fileID: 8832074771316996811, guid: 8e7b9b78f222045de87f85507f57a8d3,
        type: 3}
      propertyPath: m_LocalScale.y
      value: 0.3
      objectReference: {fileID: 0}
    - target: {fileID: 8832074771316996811, guid: 8e7b9b78f222045de87f85507f57a8d3,
        type: 3}
      propertyPath: m_LocalScale.z
      value: 0.3
      objectReference: {fileID: 0}
    m_RemovedComponents: []
  m_SourcePrefab: {fileID: 100100000, guid: 8e7b9b78f222045de87f85507f57a8d3, type: 3}
--- !u!1 &7024950091252773230 stripped
GameObject:
  m_CorrespondingSourceObject: {fileID: 8832074771316996810, guid: 8e7b9b78f222045de87f85507f57a8d3,
    type: 3}
  m_PrefabInstance: {fileID: 2012114897486334884}
  m_PrefabAsset: {fileID: 0}
--- !u!114 &2363083057864293727 stripped
MonoBehaviour:
  m_CorrespondingSourceObject: {fileID: 4262424311371888379, guid: 8e7b9b78f222045de87f85507f57a8d3,
    type: 3}
  m_PrefabInstance: {fileID: 2012114897486334884}
  m_PrefabAsset: {fileID: 0}
  m_GameObject: {fileID: 0}
  m_Enabled: 1
  m_EditorHideFlags: 0
  m_Script: {fileID: 11500000, guid: 9e4d7e8ca24e345ec849efe853d23dcb, type: 3}
  m_Name: 
  m_EditorClassIdentifier: 
