%YAML 1.1
%TAG !u! tag:unity3d.com,2011:
--- !u!114 &3483927728901405398
MonoBehaviour:
  m_ObjectHideFlags: 0
  m_CorrespondingSourceObject: {fileID: 0}
  m_PrefabInstance: {fileID: 0}
  m_PrefabAsset: {fileID: 0}
  m_GameObject: {fileID: 2190996462879953377}
  m_Enabled: 1
  m_EditorHideFlags: 0
  m_Script: {fileID: 11500000, guid: 325eae5e1580742aba515d9fa77fa94b, type: 3}
  m_Name: 
  m_EditorClassIdentifier: 
  onEnable:
    m_PersistentCalls:
      m_Calls:
      - m_Target: {fileID: 7211145640190939003}
        m_MethodName: Trigger3DSound
        m_Mode: 1
        m_Arguments:
          m_ObjectArgument: {fileID: 0}
          m_ObjectArgumentAssemblyTypeName: UnityEngine.Object, UnityEngine
          m_IntArgument: 0
          m_FloatArgument: 0
          m_StringArgument: 
          m_BoolArgument: 0
        m_CallState: 2
--- !u!114 &7211145640190939003
MonoBehaviour:
  m_ObjectHideFlags: 0
  m_CorrespondingSourceObject: {fileID: 0}
  m_PrefabInstance: {fileID: 0}
  m_PrefabAsset: {fileID: 0}
  m_GameObject: {fileID: 2190996462879953377}
  m_Enabled: 1
  m_EditorHideFlags: 0
  m_Script: {fileID: 11500000, guid: 0e98e1582a2221345acb0ef23409a093, type: 3}
  m_Name: 
  m_EditorClassIdentifier: 
  mixerTarget: 2
  playData:
    minDistance: 10
    maxDistance: 15
    is3D: 1
    volume: 1
    isLooping: 0
    autoDestroy: 1
    pitchRange: 0.08
    pitchRangeDirection: 0
    stereoPan: 0
    spread: 45
    ignoreBuffer: 0
    notSet: 0
  audioSet:
    clips:
    - {fileID: 8300000, guid: 6b834442d86e9434399e5b381e53d7ac, type: 3}
    - {fileID: 8300000, guid: 9f9d15eef8dc64d4f9d256b7352da4ec, type: 3}
    - {fileID: 8300000, guid: 7e9391480a6ae412496784f8f5c3e9a0, type: 3}
    playChance: 1
--- !u!1001 &7275053484809988907
PrefabInstance:
  m_ObjectHideFlags: 0
  serializedVersion: 2
  m_Modification:
    m_TransformParent: {fileID: 0}
    m_Modifications:
    - target: {fileID: 8832074771316996810, guid: 8e7b9b78f222045de87f85507f57a8d3,
        type: 3}
      propertyPath: m_Name
      value: Bang (Effect) Variant - Bouncy Ball
      objectReference: {fileID: 0}
    - target: {fileID: 8832074771316996811, guid: 8e7b9b78f222045de87f85507f57a8d3,
        type: 3}
      propertyPath: m_RootOrder
      value: 0
      objectReference: {fileID: 0}
    - target: {fileID: 8832074771316996811, guid: 8e7b9b78f222045de87f85507f57a8d3,
        type: 3}
      propertyPath: m_LocalPosition.x
      value: 0
      objectReference: {fileID: 0}
    - target: {fileID: 8832074771316996811, guid: 8e7b9b78f222045de87f85507f57a8d3,
        type: 3}
      propertyPath: m_LocalPosition.y
      value: 0
      objectReference: {fileID: 0}
    - target: {fileID: 8832074771316996811, guid: 8e7b9b78f222045de87f85507f57a8d3,
        type: 3}
      propertyPath: m_LocalPosition.z
      value: 0
      objectReference: {fileID: 0}
    - target: {fileID: 8832074771316996811, guid: 8e7b9b78f222045de87f85507f57a8d3,
        type: 3}
      propertyPath: m_LocalRotation.w
      value: 1
      objectReference: {fileID: 0}
    - target: {fileID: 8832074771316996811, guid: 8e7b9b78f222045de87f85507f57a8d3,
        type: 3}
      propertyPath: m_LocalRotation.x
      value: 0
      objectReference: {fileID: 0}
    - target: {fileID: 8832074771316996811, guid: 8e7b9b78f222045de87f85507f57a8d3,
        type: 3}
      propertyPath: m_LocalRotation.y
      value: 0
      objectReference: {fileID: 0}
    - target: {fileID: 8832074771316996811, guid: 8e7b9b78f222045de87f85507f57a8d3,
        type: 3}
      propertyPath: m_LocalRotation.z
      value: 0
      objectReference: {fileID: 0}
    - target: {fileID: 8832074771316996811, guid: 8e7b9b78f222045de87f85507f57a8d3,
        type: 3}
      propertyPath: m_LocalEulerAnglesHint.x
      value: 0
      objectReference: {fileID: 0}
    - target: {fileID: 8832074771316996811, guid: 8e7b9b78f222045de87f85507f57a8d3,
        type: 3}
      propertyPath: m_LocalEulerAnglesHint.y
      value: 0
      objectReference: {fileID: 0}
    - target: {fileID: 8832074771316996811, guid: 8e7b9b78f222045de87f85507f57a8d3,
        type: 3}
      propertyPath: m_LocalEulerAnglesHint.z
      value: 0
      objectReference: {fileID: 0}
    m_RemovedComponents:
    - {fileID: 3139513332814228189, guid: 8e7b9b78f222045de87f85507f57a8d3, type: 3}
  m_SourcePrefab: {fileID: 100100000, guid: 8e7b9b78f222045de87f85507f57a8d3, type: 3}
--- !u!1 &2190996462879953377 stripped
GameObject:
  m_CorrespondingSourceObject: {fileID: 8832074771316996810, guid: 8e7b9b78f222045de87f85507f57a8d3,
    type: 3}
  m_PrefabInstance: {fileID: 7275053484809988907}
  m_PrefabAsset: {fileID: 0}
