%YAML 1.1
%TAG !u! tag:unity3d.com,2011:
--- !u!1001 &368330084222846049
PrefabInstance:
  m_ObjectHideFlags: 0
  serializedVersion: 2
  m_Modification:
    m_TransformParent: {fileID: 0}
    m_Modifications:
    - target: {fileID: 604208489995523452, guid: 4bd63747079a3477ab1fda6c3f72d557,
        type: 3}
      propertyPath: m_SelectedEdges.Array.size
      value: 0
      objectReference: {fileID: 0}
    - target: {fileID: 604208489995523452, guid: 4bd63747079a3477ab1fda6c3f72d557,
        type: 3}
      propertyPath: m_SelectedFaces.Array.size
      value: 0
      objectReference: {fileID: 0}
    - target: {fileID: 604208489995523452, guid: 4bd63747079a3477ab1fda6c3f72d557,
        type: 3}
      propertyPath: m_Tangents.Array.data[89].y
      value: 0.000000046922548
      objectReference: {fileID: 0}
    - target: {fileID: 604208489995523452, guid: 4bd63747079a3477ab1fda6c3f72d557,
        type: 3}
      propertyPath: m_Tangents.Array.data[89].z
      value: 0.00020444053
      objectReference: {fileID: 0}
    - target: {fileID: 604208489995523452, guid: 4bd63747079a3477ab1fda6c3f72d557,
        type: 3}
      propertyPath: m_Tangents.Array.data[90].y
      value: 0.000000046922548
      objectReference: {fileID: 0}
    - target: {fileID: 604208489995523452, guid: 4bd63747079a3477ab1fda6c3f72d557,
        type: 3}
      propertyPath: m_Tangents.Array.data[90].z
      value: 0.00020444053
      objectReference: {fileID: 0}
    - target: {fileID: 604208489995523452, guid: 4bd63747079a3477ab1fda6c3f72d557,
        type: 3}
      propertyPath: m_Tangents.Array.data[104].y
      value: 0.0000000021605429
      objectReference: {fileID: 0}
    - target: {fileID: 604208489995523452, guid: 4bd63747079a3477ab1fda6c3f72d557,
        type: 3}
      propertyPath: m_Tangents.Array.data[104].z
      value: 0.00010956654
      objectReference: {fileID: 0}
    - target: {fileID: 604208489995523452, guid: 4bd63747079a3477ab1fda6c3f72d557,
        type: 3}
      propertyPath: m_Tangents.Array.data[105].y
      value: 0.0000000021605429
      objectReference: {fileID: 0}
    - target: {fileID: 604208489995523452, guid: 4bd63747079a3477ab1fda6c3f72d557,
        type: 3}
      propertyPath: m_Tangents.Array.data[105].z
      value: 0.00010956654
      objectReference: {fileID: 0}
    - target: {fileID: 604208489995523452, guid: 4bd63747079a3477ab1fda6c3f72d557,
        type: 3}
      propertyPath: m_Tangents.Array.data[106].y
      value: 0.0000000021605429
      objectReference: {fileID: 0}
    - target: {fileID: 604208489995523452, guid: 4bd63747079a3477ab1fda6c3f72d557,
        type: 3}
      propertyPath: m_Tangents.Array.data[106].z
      value: 0.00010956654
      objectReference: {fileID: 0}
    - target: {fileID: 604208489995523452, guid: 4bd63747079a3477ab1fda6c3f72d557,
        type: 3}
      propertyPath: m_Tangents.Array.data[107].y
      value: 0.0000000021605429
      objectReference: {fileID: 0}
    - target: {fileID: 604208489995523452, guid: 4bd63747079a3477ab1fda6c3f72d557,
        type: 3}
      propertyPath: m_Tangents.Array.data[107].z
      value: 0.00010956654
      objectReference: {fileID: 0}
    - target: {fileID: 604208489995523452, guid: 4bd63747079a3477ab1fda6c3f72d557,
        type: 3}
      propertyPath: m_Tangents.Array.data[108].x
      value: 0.9999976
      objectReference: {fileID: 0}
    - target: {fileID: 604208489995523452, guid: 4bd63747079a3477ab1fda6c3f72d557,
        type: 3}
      propertyPath: m_Tangents.Array.data[108].z
      value: -6.7936715e-12
      objectReference: {fileID: 0}
    - target: {fileID: 604208489995523452, guid: 4bd63747079a3477ab1fda6c3f72d557,
        type: 3}
      propertyPath: m_Tangents.Array.data[109].y
      value: 0.0021736766
      objectReference: {fileID: 0}
    - target: {fileID: 604208489995523452, guid: 4bd63747079a3477ab1fda6c3f72d557,
        type: 3}
      propertyPath: m_Tangents.Array.data[109].z
      value: 3.9144327e-11
      objectReference: {fileID: 0}
    - target: {fileID: 604208489995523452, guid: 4bd63747079a3477ab1fda6c3f72d557,
        type: 3}
      propertyPath: m_Tangents.Array.data[110].y
      value: 0.0021736766
      objectReference: {fileID: 0}
    - target: {fileID: 604208489995523452, guid: 4bd63747079a3477ab1fda6c3f72d557,
        type: 3}
      propertyPath: m_Tangents.Array.data[110].z
      value: 3.9144327e-11
      objectReference: {fileID: 0}
    - target: {fileID: 604208489995523452, guid: 4bd63747079a3477ab1fda6c3f72d557,
        type: 3}
      propertyPath: m_Tangents.Array.data[112].z
      value: -8.448851e-11
      objectReference: {fileID: 0}
    - target: {fileID: 604208489995523452, guid: 4bd63747079a3477ab1fda6c3f72d557,
        type: 3}
      propertyPath: m_Tangents.Array.data[113].z
      value: -5.4019716e-11
      objectReference: {fileID: 0}
    - target: {fileID: 604208489995523452, guid: 4bd63747079a3477ab1fda6c3f72d557,
        type: 3}
      propertyPath: m_Tangents.Array.data[114].z
      value: -5.4019716e-11
      objectReference: {fileID: 0}
    - target: {fileID: 604208489995523452, guid: 4bd63747079a3477ab1fda6c3f72d557,
        type: 3}
      propertyPath: m_Tangents.Array.data[115].y
      value: -0.0021736769
      objectReference: {fileID: 0}
    - target: {fileID: 604208489995523452, guid: 4bd63747079a3477ab1fda6c3f72d557,
        type: 3}
      propertyPath: m_Tangents.Array.data[115].z
      value: -2.3550923e-11
      objectReference: {fileID: 0}
    - target: {fileID: 604208489995523452, guid: 4bd63747079a3477ab1fda6c3f72d557,
        type: 3}
      propertyPath: m_Tangents.Array.data[116].y
      value: -0.0000000017284346
      objectReference: {fileID: 0}
    - target: {fileID: 604208489995523452, guid: 4bd63747079a3477ab1fda6c3f72d557,
        type: 3}
      propertyPath: m_Tangents.Array.data[116].z
      value: -0.00010956654
      objectReference: {fileID: 0}
    - target: {fileID: 604208489995523452, guid: 4bd63747079a3477ab1fda6c3f72d557,
        type: 3}
      propertyPath: m_Tangents.Array.data[117].y
      value: 0.0000000062765024
      objectReference: {fileID: 0}
    - target: {fileID: 604208489995523452, guid: 4bd63747079a3477ab1fda6c3f72d557,
        type: 3}
      propertyPath: m_Tangents.Array.data[118].y
      value: 0.0000000062765024
      objectReference: {fileID: 0}
    - target: {fileID: 604208489995523452, guid: 4bd63747079a3477ab1fda6c3f72d557,
        type: 3}
      propertyPath: m_Tangents.Array.data[119].y
      value: 0.000000014281439
      objectReference: {fileID: 0}
    - target: {fileID: 604208489995523452, guid: 4bd63747079a3477ab1fda6c3f72d557,
        type: 3}
      propertyPath: m_Tangents.Array.data[119].z
      value: -0.000109566565
      objectReference: {fileID: 0}
    - target: {fileID: 604208489995523452, guid: 4bd63747079a3477ab1fda6c3f72d557,
        type: 3}
      propertyPath: m_Tangents.Array.data[127].z
      value: -0.000020737589
      objectReference: {fileID: 0}
    - target: {fileID: 604208489995523452, guid: 4bd63747079a3477ab1fda6c3f72d557,
        type: 3}
      propertyPath: m_Tangents.Array.data[152].y
      value: 0.00000001576978
      objectReference: {fileID: 0}
    - target: {fileID: 604208489995523452, guid: 4bd63747079a3477ab1fda6c3f72d557,
        type: 3}
      propertyPath: m_Tangents.Array.data[152].z
      value: -0.00000018034281
      objectReference: {fileID: 0}
    - target: {fileID: 604208489995523452, guid: 4bd63747079a3477ab1fda6c3f72d557,
        type: 3}
      propertyPath: m_Tangents.Array.data[153].y
      value: 0.000000007884883
      objectReference: {fileID: 0}
    - target: {fileID: 604208489995523452, guid: 4bd63747079a3477ab1fda6c3f72d557,
        type: 3}
      propertyPath: m_Tangents.Array.data[153].z
      value: -0.00000006937879
      objectReference: {fileID: 0}
    - target: {fileID: 604208489995523452, guid: 4bd63747079a3477ab1fda6c3f72d557,
        type: 3}
      propertyPath: m_Tangents.Array.data[154].y
      value: 0.000000007884883
      objectReference: {fileID: 0}
    - target: {fileID: 604208489995523452, guid: 4bd63747079a3477ab1fda6c3f72d557,
        type: 3}
      propertyPath: m_Tangents.Array.data[154].z
      value: -0.00000006937879
      objectReference: {fileID: 0}
    - target: {fileID: 604208489995523452, guid: 4bd63747079a3477ab1fda6c3f72d557,
        type: 3}
      propertyPath: m_Tangents.Array.data[155].y
      value: -2.4341484e-15
      objectReference: {fileID: 0}
    - target: {fileID: 604208489995523452, guid: 4bd63747079a3477ab1fda6c3f72d557,
        type: 3}
      propertyPath: m_Tangents.Array.data[155].z
      value: 0.000000041585228
      objectReference: {fileID: 0}
    - target: {fileID: 604208489995523452, guid: 4bd63747079a3477ab1fda6c3f72d557,
        type: 3}
      propertyPath: m_Tangents.Array.data[156].x
      value: -0.00000012200255
      objectReference: {fileID: 0}
    - target: {fileID: 604208489995523452, guid: 4bd63747079a3477ab1fda6c3f72d557,
        type: 3}
      propertyPath: m_Tangents.Array.data[156].y
      value: 0.000000046253245
      objectReference: {fileID: 0}
    - target: {fileID: 604208489995523452, guid: 4bd63747079a3477ab1fda6c3f72d557,
        type: 3}
      propertyPath: m_Tangents.Array.data[157].x
      value: 0.00000002216919
      objectReference: {fileID: 0}
    - target: {fileID: 604208489995523452, guid: 4bd63747079a3477ab1fda6c3f72d557,
        type: 3}
      propertyPath: m_Tangents.Array.data[157].y
      value: -0.00000014321431
      objectReference: {fileID: 0}
    - target: {fileID: 604208489995523452, guid: 4bd63747079a3477ab1fda6c3f72d557,
        type: 3}
      propertyPath: m_Tangents.Array.data[158].x
      value: 0.00000002216919
      objectReference: {fileID: 0}
    - target: {fileID: 604208489995523452, guid: 4bd63747079a3477ab1fda6c3f72d557,
        type: 3}
      propertyPath: m_Tangents.Array.data[158].y
      value: -0.00000014321431
      objectReference: {fileID: 0}
    - target: {fileID: 604208489995523452, guid: 4bd63747079a3477ab1fda6c3f72d557,
        type: 3}
      propertyPath: m_Tangents.Array.data[159].x
      value: 0.00000016634095
      objectReference: {fileID: 0}
    - target: {fileID: 604208489995523452, guid: 4bd63747079a3477ab1fda6c3f72d557,
        type: 3}
      propertyPath: m_Tangents.Array.data[159].y
      value: -0.0000003326819
      objectReference: {fileID: 0}
    - target: {fileID: 604208489995523452, guid: 4bd63747079a3477ab1fda6c3f72d557,
        type: 3}
      propertyPath: m_Tangents.Array.data[189].y
      value: -0.48779866
      objectReference: {fileID: 0}
    - target: {fileID: 604208489995523452, guid: 4bd63747079a3477ab1fda6c3f72d557,
        type: 3}
      propertyPath: m_Tangents.Array.data[189].z
      value: 0.0000006005026
      objectReference: {fileID: 0}
    - target: {fileID: 604208489995523452, guid: 4bd63747079a3477ab1fda6c3f72d557,
        type: 3}
      propertyPath: m_Tangents.Array.data[190].y
      value: -0.48779866
      objectReference: {fileID: 0}
    - target: {fileID: 604208489995523452, guid: 4bd63747079a3477ab1fda6c3f72d557,
        type: 3}
      propertyPath: m_Tangents.Array.data[190].z
      value: 0.0000006005026
      objectReference: {fileID: 0}
    - target: {fileID: 604208489995523452, guid: 4bd63747079a3477ab1fda6c3f72d557,
        type: 3}
      propertyPath: m_Textures0.Array.data[48].y
      value: -0.2148621
      objectReference: {fileID: 0}
    - target: {fileID: 604208489995523452, guid: 4bd63747079a3477ab1fda6c3f72d557,
        type: 3}
      propertyPath: m_Textures0.Array.data[49].y
      value: -0.2148621
      objectReference: {fileID: 0}
    - target: {fileID: 604208489995523452, guid: 4bd63747079a3477ab1fda6c3f72d557,
        type: 3}
      propertyPath: m_Textures0.Array.data[50].y
      value: -0.50318766
      objectReference: {fileID: 0}
    - target: {fileID: 604208489995523452, guid: 4bd63747079a3477ab1fda6c3f72d557,
        type: 3}
      propertyPath: m_Textures0.Array.data[51].y
      value: -0.50318766
      objectReference: {fileID: 0}
    - target: {fileID: 604208489995523452, guid: 4bd63747079a3477ab1fda6c3f72d557,
        type: 3}
      propertyPath: m_SelectedVertices.Array.size
      value: 0
      objectReference: {fileID: 0}
    - target: {fileID: 604208489995523452, guid: 4bd63747079a3477ab1fda6c3f72d557,
        type: 3}
      propertyPath: m_Textures0.Array.data[104].y
      value: -0.82414335
      objectReference: {fileID: 0}
    - target: {fileID: 604208489995523452, guid: 4bd63747079a3477ab1fda6c3f72d557,
        type: 3}
      propertyPath: m_Textures0.Array.data[106].y
      value: -0.83246034
      objectReference: {fileID: 0}
    - target: {fileID: 604208489995523452, guid: 4bd63747079a3477ab1fda6c3f72d557,
        type: 3}
      propertyPath: m_Textures0.Array.data[108].x
      value: -0.513385
      objectReference: {fileID: 0}
    - target: {fileID: 604208489995523452, guid: 4bd63747079a3477ab1fda6c3f72d557,
        type: 3}
      propertyPath: m_Textures0.Array.data[109].x
      value: -0.5128823
      objectReference: {fileID: 0}
    - target: {fileID: 604208489995523452, guid: 4bd63747079a3477ab1fda6c3f72d557,
        type: 3}
      propertyPath: m_Textures0.Array.data[110].x
      value: -4.339379
      objectReference: {fileID: 0}
    - target: {fileID: 604208489995523452, guid: 4bd63747079a3477ab1fda6c3f72d557,
        type: 3}
      propertyPath: m_Textures0.Array.data[112].y
      value: -0.30123115
      objectReference: {fileID: 0}
    - target: {fileID: 604208489995523452, guid: 4bd63747079a3477ab1fda6c3f72d557,
        type: 3}
      propertyPath: m_Textures0.Array.data[114].y
      value: -0.30163932
      objectReference: {fileID: 0}
    - target: {fileID: 604208489995523452, guid: 4bd63747079a3477ab1fda6c3f72d557,
        type: 3}
      propertyPath: m_Textures0.Array.data[115].x
      value: 4.3300514
      objectReference: {fileID: 0}
    - target: {fileID: 604208489995523452, guid: 4bd63747079a3477ab1fda6c3f72d557,
        type: 3}
      propertyPath: m_Textures0.Array.data[115].y
      value: -0.0016417551
      objectReference: {fileID: 0}
    - target: {fileID: 604208489995523452, guid: 4bd63747079a3477ab1fda6c3f72d557,
        type: 3}
      propertyPath: m_Textures0.Array.data[116].y
      value: -1.1239922
      objectReference: {fileID: 0}
    - target: {fileID: 604208489995523452, guid: 4bd63747079a3477ab1fda6c3f72d557,
        type: 3}
      propertyPath: m_Textures0.Array.data[117].y
      value: -0.8241596
      objectReference: {fileID: 0}
    - target: {fileID: 604208489995523452, guid: 4bd63747079a3477ab1fda6c3f72d557,
        type: 3}
      propertyPath: m_Textures0.Array.data[118].y
      value: -1.1323092
      objectReference: {fileID: 0}
    - target: {fileID: 604208489995523452, guid: 4bd63747079a3477ab1fda6c3f72d557,
        type: 3}
      propertyPath: m_Textures0.Array.data[152].y
      value: 0.39692545
      objectReference: {fileID: 0}
    - target: {fileID: 604208489995523452, guid: 4bd63747079a3477ab1fda6c3f72d557,
        type: 3}
      propertyPath: m_Textures0.Array.data[153].y
      value: 0.39692554
      objectReference: {fileID: 0}
    - target: {fileID: 604208489995523452, guid: 4bd63747079a3477ab1fda6c3f72d557,
        type: 3}
      propertyPath: m_Textures0.Array.data[155].y
      value: 0.521595
      objectReference: {fileID: 0}
    - target: {fileID: 604208489995523452, guid: 4bd63747079a3477ab1fda6c3f72d557,
        type: 3}
      propertyPath: m_Textures0.Array.data[156].y
      value: 0.39692527
      objectReference: {fileID: 0}
    - target: {fileID: 604208489995523452, guid: 4bd63747079a3477ab1fda6c3f72d557,
        type: 3}
      propertyPath: m_Textures0.Array.data[157].y
      value: 0.3969252
      objectReference: {fileID: 0}
    - target: {fileID: 2668238869727802361, guid: 4bd63747079a3477ab1fda6c3f72d557,
        type: 3}
      propertyPath: m_Materials.Array.data[0]
      value: 
      objectReference: {fileID: 2100000, guid: 5e2dea80cc3224df284de6c6750072b4, type: 2}
    - target: {fileID: 2668238869727802361, guid: 4bd63747079a3477ab1fda6c3f72d557,
        type: 3}
      propertyPath: m_Materials.Array.data[1]
      value: 
      objectReference: {fileID: 2100000, guid: 0cadfaafb47424573849c1927ba2bf87, type: 2}
    - target: {fileID: 5304280771500097869, guid: 4bd63747079a3477ab1fda6c3f72d557,
        type: 3}
      propertyPath: m_Materials.Array.data[0]
      value: 
      objectReference: {fileID: 2100000, guid: 5e2dea80cc3224df284de6c6750072b4, type: 2}
    - target: {fileID: 5304280771500097869, guid: 4bd63747079a3477ab1fda6c3f72d557,
        type: 3}
      propertyPath: m_Materials.Array.data[1]
      value: 
      objectReference: {fileID: 2100000, guid: 0cadfaafb47424573849c1927ba2bf87, type: 2}
    - target: {fileID: 5964301699028038977, guid: 4bd63747079a3477ab1fda6c3f72d557,
        type: 3}
      propertyPath: m_SelectedEdges.Array.size
      value: 0
      objectReference: {fileID: 0}
    - target: {fileID: 5964301699028038977, guid: 4bd63747079a3477ab1fda6c3f72d557,
        type: 3}
      propertyPath: m_SelectedFaces.Array.size
      value: 0
      objectReference: {fileID: 0}
    - target: {fileID: 5964301699028038977, guid: 4bd63747079a3477ab1fda6c3f72d557,
        type: 3}
      propertyPath: m_Tangents.Array.data[97].x
      value: -0.49269393
      objectReference: {fileID: 0}
    - target: {fileID: 5964301699028038977, guid: 4bd63747079a3477ab1fda6c3f72d557,
        type: 3}
      propertyPath: m_Tangents.Array.data[98].x
      value: -0.49269393
      objectReference: {fileID: 0}
    - target: {fileID: 5964301699028038977, guid: 4bd63747079a3477ab1fda6c3f72d557,
        type: 3}
      propertyPath: m_SelectedFaces.Array.data[0]
      value: 8
      objectReference: {fileID: 0}
    - target: {fileID: 5964301699028038977, guid: 4bd63747079a3477ab1fda6c3f72d557,
        type: 3}
      propertyPath: m_SelectedVertices.Array.size
      value: 0
      objectReference: {fileID: 0}
    - target: {fileID: 5964301699028038977, guid: 4bd63747079a3477ab1fda6c3f72d557,
        type: 3}
      propertyPath: m_Textures0.Array.data[100].y
      value: -0.14780629
      objectReference: {fileID: 0}
    - target: {fileID: 5964301699028038977, guid: 4bd63747079a3477ab1fda6c3f72d557,
        type: 3}
      propertyPath: m_Textures0.Array.data[101].y
      value: -0.14780629
      objectReference: {fileID: 0}
    - target: {fileID: 5964301699028038977, guid: 4bd63747079a3477ab1fda6c3f72d557,
        type: 3}
      propertyPath: m_Textures0.Array.data[102].y
      value: -0.032890566
      objectReference: {fileID: 0}
    - target: {fileID: 5964301699028038977, guid: 4bd63747079a3477ab1fda6c3f72d557,
        type: 3}
      propertyPath: m_Textures0.Array.data[103].y
      value: -0.032890566
      objectReference: {fileID: 0}
    - target: {fileID: 5964301699028038977, guid: 4bd63747079a3477ab1fda6c3f72d557,
        type: 3}
      propertyPath: m_Textures0.Array.data[132].y
      value: -1.7190564
      objectReference: {fileID: 0}
    - target: {fileID: 5964301699028038977, guid: 4bd63747079a3477ab1fda6c3f72d557,
        type: 3}
      propertyPath: m_Textures0.Array.data[133].y
      value: -1.7190564
      objectReference: {fileID: 0}
    - target: {fileID: 5964301699028038977, guid: 4bd63747079a3477ab1fda6c3f72d557,
        type: 3}
      propertyPath: m_Textures0.Array.data[134].y
      value: -1.3372449
      objectReference: {fileID: 0}
    - target: {fileID: 5964301699028038977, guid: 4bd63747079a3477ab1fda6c3f72d557,
        type: 3}
      propertyPath: m_Textures0.Array.data[135].y
      value: -1.3372449
      objectReference: {fileID: 0}
    - target: {fileID: 5964301699028038977, guid: 4bd63747079a3477ab1fda6c3f72d557,
        type: 3}
      propertyPath: m_SelectedEdges.Array.data[0].a
      value: 32
      objectReference: {fileID: 0}
    - target: {fileID: 5964301699028038977, guid: 4bd63747079a3477ab1fda6c3f72d557,
        type: 3}
      propertyPath: m_SelectedEdges.Array.data[0].b
      value: 33
      objectReference: {fileID: 0}
    - target: {fileID: 5964301699028038977, guid: 4bd63747079a3477ab1fda6c3f72d557,
        type: 3}
      propertyPath: m_SelectedEdges.Array.data[1].a
      value: 34
      objectReference: {fileID: 0}
    - target: {fileID: 5964301699028038977, guid: 4bd63747079a3477ab1fda6c3f72d557,
        type: 3}
      propertyPath: m_SelectedEdges.Array.data[1].b
      value: 32
      objectReference: {fileID: 0}
    - target: {fileID: 5964301699028038977, guid: 4bd63747079a3477ab1fda6c3f72d557,
        type: 3}
      propertyPath: m_SelectedEdges.Array.data[2].a
      value: 33
      objectReference: {fileID: 0}
    - target: {fileID: 5964301699028038977, guid: 4bd63747079a3477ab1fda6c3f72d557,
        type: 3}
      propertyPath: m_SelectedEdges.Array.data[2].b
      value: 35
      objectReference: {fileID: 0}
    - target: {fileID: 5964301699028038977, guid: 4bd63747079a3477ab1fda6c3f72d557,
        type: 3}
      propertyPath: m_SelectedEdges.Array.data[3].a
      value: 35
      objectReference: {fileID: 0}
    - target: {fileID: 5964301699028038977, guid: 4bd63747079a3477ab1fda6c3f72d557,
        type: 3}
      propertyPath: m_SelectedEdges.Array.data[3].b
      value: 34
      objectReference: {fileID: 0}
    - target: {fileID: 5964301699028038977, guid: 4bd63747079a3477ab1fda6c3f72d557,
        type: 3}
      propertyPath: m_SelectedVertices.Array.data[0]
      value: 32
      objectReference: {fileID: 0}
    - target: {fileID: 5964301699028038977, guid: 4bd63747079a3477ab1fda6c3f72d557,
        type: 3}
      propertyPath: m_SelectedVertices.Array.data[1]
      value: 33
      objectReference: {fileID: 0}
    - target: {fileID: 5964301699028038977, guid: 4bd63747079a3477ab1fda6c3f72d557,
        type: 3}
      propertyPath: m_SelectedVertices.Array.data[2]
      value: 34
      objectReference: {fileID: 0}
    - target: {fileID: 5964301699028038977, guid: 4bd63747079a3477ab1fda6c3f72d557,
        type: 3}
      propertyPath: m_SelectedVertices.Array.data[3]
      value: 35
      objectReference: {fileID: 0}
    - target: {fileID: 6194825234380357930, guid: 4bd63747079a3477ab1fda6c3f72d557,
        type: 3}
      propertyPath: m_SelectedEdges.Array.size
      value: 0
      objectReference: {fileID: 0}
    - target: {fileID: 6194825234380357930, guid: 4bd63747079a3477ab1fda6c3f72d557,
        type: 3}
      propertyPath: m_SelectedFaces.Array.size
      value: 0
      objectReference: {fileID: 0}
    - target: {fileID: 6194825234380357930, guid: 4bd63747079a3477ab1fda6c3f72d557,
        type: 3}
      propertyPath: m_Tangents.Array.data[89].y
      value: 0.000000046922548
      objectReference: {fileID: 0}
    - target: {fileID: 6194825234380357930, guid: 4bd63747079a3477ab1fda6c3f72d557,
        type: 3}
      propertyPath: m_Tangents.Array.data[89].z
      value: 0.00020444053
      objectReference: {fileID: 0}
    - target: {fileID: 6194825234380357930, guid: 4bd63747079a3477ab1fda6c3f72d557,
        type: 3}
      propertyPath: m_Tangents.Array.data[90].y
      value: 0.000000046922548
      objectReference: {fileID: 0}
    - target: {fileID: 6194825234380357930, guid: 4bd63747079a3477ab1fda6c3f72d557,
        type: 3}
      propertyPath: m_Tangents.Array.data[90].z
      value: 0.00020444053
      objectReference: {fileID: 0}
    - target: {fileID: 6194825234380357930, guid: 4bd63747079a3477ab1fda6c3f72d557,
        type: 3}
      propertyPath: m_Tangents.Array.data[104].y
      value: 0.0000000021605429
      objectReference: {fileID: 0}
    - target: {fileID: 6194825234380357930, guid: 4bd63747079a3477ab1fda6c3f72d557,
        type: 3}
      propertyPath: m_Tangents.Array.data[104].z
      value: 0.00010956654
      objectReference: {fileID: 0}
    - target: {fileID: 6194825234380357930, guid: 4bd63747079a3477ab1fda6c3f72d557,
        type: 3}
      propertyPath: m_Tangents.Array.data[105].y
      value: 0.0000000021605429
      objectReference: {fileID: 0}
    - target: {fileID: 6194825234380357930, guid: 4bd63747079a3477ab1fda6c3f72d557,
        type: 3}
      propertyPath: m_Tangents.Array.data[105].z
      value: 0.00010956654
      objectReference: {fileID: 0}
    - target: {fileID: 6194825234380357930, guid: 4bd63747079a3477ab1fda6c3f72d557,
        type: 3}
      propertyPath: m_Tangents.Array.data[106].y
      value: 0.0000000021605429
      objectReference: {fileID: 0}
    - target: {fileID: 6194825234380357930, guid: 4bd63747079a3477ab1fda6c3f72d557,
        type: 3}
      propertyPath: m_Tangents.Array.data[106].z
      value: 0.00010956654
      objectReference: {fileID: 0}
    - target: {fileID: 6194825234380357930, guid: 4bd63747079a3477ab1fda6c3f72d557,
        type: 3}
      propertyPath: m_Tangents.Array.data[107].y
      value: 0.0000000021605429
      objectReference: {fileID: 0}
    - target: {fileID: 6194825234380357930, guid: 4bd63747079a3477ab1fda6c3f72d557,
        type: 3}
      propertyPath: m_Tangents.Array.data[107].z
      value: 0.00010956654
      objectReference: {fileID: 0}
    - target: {fileID: 6194825234380357930, guid: 4bd63747079a3477ab1fda6c3f72d557,
        type: 3}
      propertyPath: m_Tangents.Array.data[108].x
      value: 0.9999976
      objectReference: {fileID: 0}
    - target: {fileID: 6194825234380357930, guid: 4bd63747079a3477ab1fda6c3f72d557,
        type: 3}
      propertyPath: m_Tangents.Array.data[108].z
      value: -6.7936715e-12
      objectReference: {fileID: 0}
    - target: {fileID: 6194825234380357930, guid: 4bd63747079a3477ab1fda6c3f72d557,
        type: 3}
      propertyPath: m_Tangents.Array.data[109].y
      value: 0.0021736766
      objectReference: {fileID: 0}
    - target: {fileID: 6194825234380357930, guid: 4bd63747079a3477ab1fda6c3f72d557,
        type: 3}
      propertyPath: m_Tangents.Array.data[109].z
      value: 3.9144327e-11
      objectReference: {fileID: 0}
    - target: {fileID: 6194825234380357930, guid: 4bd63747079a3477ab1fda6c3f72d557,
        type: 3}
      propertyPath: m_Tangents.Array.data[110].y
      value: 0.0021736766
      objectReference: {fileID: 0}
    - target: {fileID: 6194825234380357930, guid: 4bd63747079a3477ab1fda6c3f72d557,
        type: 3}
      propertyPath: m_Tangents.Array.data[110].z
      value: 3.9144327e-11
      objectReference: {fileID: 0}
    - target: {fileID: 6194825234380357930, guid: 4bd63747079a3477ab1fda6c3f72d557,
        type: 3}
      propertyPath: m_Tangents.Array.data[112].z
      value: -8.448851e-11
      objectReference: {fileID: 0}
    - target: {fileID: 6194825234380357930, guid: 4bd63747079a3477ab1fda6c3f72d557,
        type: 3}
      propertyPath: m_Tangents.Array.data[113].z
      value: -5.4019716e-11
      objectReference: {fileID: 0}
    - target: {fileID: 6194825234380357930, guid: 4bd63747079a3477ab1fda6c3f72d557,
        type: 3}
      propertyPath: m_Tangents.Array.data[114].z
      value: -5.4019716e-11
      objectReference: {fileID: 0}
    - target: {fileID: 6194825234380357930, guid: 4bd63747079a3477ab1fda6c3f72d557,
        type: 3}
      propertyPath: m_Tangents.Array.data[115].y
      value: -0.0021736769
      objectReference: {fileID: 0}
    - target: {fileID: 6194825234380357930, guid: 4bd63747079a3477ab1fda6c3f72d557,
        type: 3}
      propertyPath: m_Tangents.Array.data[115].z
      value: -2.3550923e-11
      objectReference: {fileID: 0}
    - target: {fileID: 6194825234380357930, guid: 4bd63747079a3477ab1fda6c3f72d557,
        type: 3}
      propertyPath: m_Tangents.Array.data[116].y
      value: -0.0000000017284346
      objectReference: {fileID: 0}
    - target: {fileID: 6194825234380357930, guid: 4bd63747079a3477ab1fda6c3f72d557,
        type: 3}
      propertyPath: m_Tangents.Array.data[116].z
      value: -0.00010956654
      objectReference: {fileID: 0}
    - target: {fileID: 6194825234380357930, guid: 4bd63747079a3477ab1fda6c3f72d557,
        type: 3}
      propertyPath: m_Tangents.Array.data[117].y
      value: 0.0000000062765024
      objectReference: {fileID: 0}
    - target: {fileID: 6194825234380357930, guid: 4bd63747079a3477ab1fda6c3f72d557,
        type: 3}
      propertyPath: m_Tangents.Array.data[118].y
      value: 0.0000000062765024
      objectReference: {fileID: 0}
    - target: {fileID: 6194825234380357930, guid: 4bd63747079a3477ab1fda6c3f72d557,
        type: 3}
      propertyPath: m_Tangents.Array.data[119].y
      value: 0.000000014281439
      objectReference: {fileID: 0}
    - target: {fileID: 6194825234380357930, guid: 4bd63747079a3477ab1fda6c3f72d557,
        type: 3}
      propertyPath: m_Tangents.Array.data[119].z
      value: -0.000109566565
      objectReference: {fileID: 0}
    - target: {fileID: 6194825234380357930, guid: 4bd63747079a3477ab1fda6c3f72d557,
        type: 3}
      propertyPath: m_Tangents.Array.data[127].z
      value: -0.000020737589
      objectReference: {fileID: 0}
    - target: {fileID: 6194825234380357930, guid: 4bd63747079a3477ab1fda6c3f72d557,
        type: 3}
      propertyPath: m_Tangents.Array.data[152].y
      value: 0.00000001576978
      objectReference: {fileID: 0}
    - target: {fileID: 6194825234380357930, guid: 4bd63747079a3477ab1fda6c3f72d557,
        type: 3}
      propertyPath: m_Tangents.Array.data[152].z
      value: -0.00000018034281
      objectReference: {fileID: 0}
    - target: {fileID: 6194825234380357930, guid: 4bd63747079a3477ab1fda6c3f72d557,
        type: 3}
      propertyPath: m_Tangents.Array.data[153].y
      value: 0.000000007884883
      objectReference: {fileID: 0}
    - target: {fileID: 6194825234380357930, guid: 4bd63747079a3477ab1fda6c3f72d557,
        type: 3}
      propertyPath: m_Tangents.Array.data[153].z
      value: -0.00000006937879
      objectReference: {fileID: 0}
    - target: {fileID: 6194825234380357930, guid: 4bd63747079a3477ab1fda6c3f72d557,
        type: 3}
      propertyPath: m_Tangents.Array.data[154].y
      value: 0.000000007884883
      objectReference: {fileID: 0}
    - target: {fileID: 6194825234380357930, guid: 4bd63747079a3477ab1fda6c3f72d557,
        type: 3}
      propertyPath: m_Tangents.Array.data[154].z
      value: -0.00000006937879
      objectReference: {fileID: 0}
    - target: {fileID: 6194825234380357930, guid: 4bd63747079a3477ab1fda6c3f72d557,
        type: 3}
      propertyPath: m_Tangents.Array.data[155].y
      value: -2.4341484e-15
      objectReference: {fileID: 0}
    - target: {fileID: 6194825234380357930, guid: 4bd63747079a3477ab1fda6c3f72d557,
        type: 3}
      propertyPath: m_Tangents.Array.data[155].z
      value: 0.000000041585228
      objectReference: {fileID: 0}
    - target: {fileID: 6194825234380357930, guid: 4bd63747079a3477ab1fda6c3f72d557,
        type: 3}
      propertyPath: m_Tangents.Array.data[156].x
      value: -0.00000012200255
      objectReference: {fileID: 0}
    - target: {fileID: 6194825234380357930, guid: 4bd63747079a3477ab1fda6c3f72d557,
        type: 3}
      propertyPath: m_Tangents.Array.data[156].y
      value: 0.000000046253245
      objectReference: {fileID: 0}
    - target: {fileID: 6194825234380357930, guid: 4bd63747079a3477ab1fda6c3f72d557,
        type: 3}
      propertyPath: m_Tangents.Array.data[157].x
      value: 0.00000002216919
      objectReference: {fileID: 0}
    - target: {fileID: 6194825234380357930, guid: 4bd63747079a3477ab1fda6c3f72d557,
        type: 3}
      propertyPath: m_Tangents.Array.data[157].y
      value: -0.00000014321431
      objectReference: {fileID: 0}
    - target: {fileID: 6194825234380357930, guid: 4bd63747079a3477ab1fda6c3f72d557,
        type: 3}
      propertyPath: m_Tangents.Array.data[158].x
      value: 0.00000002216919
      objectReference: {fileID: 0}
    - target: {fileID: 6194825234380357930, guid: 4bd63747079a3477ab1fda6c3f72d557,
        type: 3}
      propertyPath: m_Tangents.Array.data[158].y
      value: -0.00000014321431
      objectReference: {fileID: 0}
    - target: {fileID: 6194825234380357930, guid: 4bd63747079a3477ab1fda6c3f72d557,
        type: 3}
      propertyPath: m_Tangents.Array.data[159].x
      value: 0.00000016634095
      objectReference: {fileID: 0}
    - target: {fileID: 6194825234380357930, guid: 4bd63747079a3477ab1fda6c3f72d557,
        type: 3}
      propertyPath: m_Tangents.Array.data[159].y
      value: -0.0000003326819
      objectReference: {fileID: 0}
    - target: {fileID: 6194825234380357930, guid: 4bd63747079a3477ab1fda6c3f72d557,
        type: 3}
      propertyPath: m_Tangents.Array.data[189].y
      value: -0.48779866
      objectReference: {fileID: 0}
    - target: {fileID: 6194825234380357930, guid: 4bd63747079a3477ab1fda6c3f72d557,
        type: 3}
      propertyPath: m_Tangents.Array.data[189].z
      value: 0.0000006005026
      objectReference: {fileID: 0}
    - target: {fileID: 6194825234380357930, guid: 4bd63747079a3477ab1fda6c3f72d557,
        type: 3}
      propertyPath: m_Tangents.Array.data[190].y
      value: -0.48779866
      objectReference: {fileID: 0}
    - target: {fileID: 6194825234380357930, guid: 4bd63747079a3477ab1fda6c3f72d557,
        type: 3}
      propertyPath: m_Tangents.Array.data[190].z
      value: 0.0000006005026
      objectReference: {fileID: 0}
    - target: {fileID: 6194825234380357930, guid: 4bd63747079a3477ab1fda6c3f72d557,
        type: 3}
      propertyPath: m_Textures0.Array.data[48].y
      value: -0.2148621
      objectReference: {fileID: 0}
    - target: {fileID: 6194825234380357930, guid: 4bd63747079a3477ab1fda6c3f72d557,
        type: 3}
      propertyPath: m_Textures0.Array.data[49].y
      value: -0.2148621
      objectReference: {fileID: 0}
    - target: {fileID: 6194825234380357930, guid: 4bd63747079a3477ab1fda6c3f72d557,
        type: 3}
      propertyPath: m_Textures0.Array.data[50].y
      value: -0.50318766
      objectReference: {fileID: 0}
    - target: {fileID: 6194825234380357930, guid: 4bd63747079a3477ab1fda6c3f72d557,
        type: 3}
      propertyPath: m_Textures0.Array.data[51].y
      value: -0.50318766
      objectReference: {fileID: 0}
    - target: {fileID: 6194825234380357930, guid: 4bd63747079a3477ab1fda6c3f72d557,
        type: 3}
      propertyPath: m_SelectedVertices.Array.size
      value: 0
      objectReference: {fileID: 0}
    - target: {fileID: 6194825234380357930, guid: 4bd63747079a3477ab1fda6c3f72d557,
        type: 3}
      propertyPath: m_Textures0.Array.data[104].y
      value: -0.82414335
      objectReference: {fileID: 0}
    - target: {fileID: 6194825234380357930, guid: 4bd63747079a3477ab1fda6c3f72d557,
        type: 3}
      propertyPath: m_Textures0.Array.data[106].y
      value: -0.83246034
      objectReference: {fileID: 0}
    - target: {fileID: 6194825234380357930, guid: 4bd63747079a3477ab1fda6c3f72d557,
        type: 3}
      propertyPath: m_Textures0.Array.data[108].x
      value: -0.513385
      objectReference: {fileID: 0}
    - target: {fileID: 6194825234380357930, guid: 4bd63747079a3477ab1fda6c3f72d557,
        type: 3}
      propertyPath: m_Textures0.Array.data[109].x
      value: -0.5128823
      objectReference: {fileID: 0}
    - target: {fileID: 6194825234380357930, guid: 4bd63747079a3477ab1fda6c3f72d557,
        type: 3}
      propertyPath: m_Textures0.Array.data[110].x
      value: -4.339379
      objectReference: {fileID: 0}
    - target: {fileID: 6194825234380357930, guid: 4bd63747079a3477ab1fda6c3f72d557,
        type: 3}
      propertyPath: m_Textures0.Array.data[112].y
      value: -0.30123115
      objectReference: {fileID: 0}
    - target: {fileID: 6194825234380357930, guid: 4bd63747079a3477ab1fda6c3f72d557,
        type: 3}
      propertyPath: m_Textures0.Array.data[114].y
      value: -0.30163932
      objectReference: {fileID: 0}
    - target: {fileID: 6194825234380357930, guid: 4bd63747079a3477ab1fda6c3f72d557,
        type: 3}
      propertyPath: m_Textures0.Array.data[115].x
      value: 4.3300514
      objectReference: {fileID: 0}
    - target: {fileID: 6194825234380357930, guid: 4bd63747079a3477ab1fda6c3f72d557,
        type: 3}
      propertyPath: m_Textures0.Array.data[115].y
      value: -0.0016417551
      objectReference: {fileID: 0}
    - target: {fileID: 6194825234380357930, guid: 4bd63747079a3477ab1fda6c3f72d557,
        type: 3}
      propertyPath: m_Textures0.Array.data[116].y
      value: -1.1239922
      objectReference: {fileID: 0}
    - target: {fileID: 6194825234380357930, guid: 4bd63747079a3477ab1fda6c3f72d557,
        type: 3}
      propertyPath: m_Textures0.Array.data[117].y
      value: -0.8241596
      objectReference: {fileID: 0}
    - target: {fileID: 6194825234380357930, guid: 4bd63747079a3477ab1fda6c3f72d557,
        type: 3}
      propertyPath: m_Textures0.Array.data[118].y
      value: -1.1323092
      objectReference: {fileID: 0}
    - target: {fileID: 6194825234380357930, guid: 4bd63747079a3477ab1fda6c3f72d557,
        type: 3}
      propertyPath: m_Textures0.Array.data[152].y
      value: 0.39692545
      objectReference: {fileID: 0}
    - target: {fileID: 6194825234380357930, guid: 4bd63747079a3477ab1fda6c3f72d557,
        type: 3}
      propertyPath: m_Textures0.Array.data[153].y
      value: 0.39692554
      objectReference: {fileID: 0}
    - target: {fileID: 6194825234380357930, guid: 4bd63747079a3477ab1fda6c3f72d557,
        type: 3}
      propertyPath: m_Textures0.Array.data[155].y
      value: 0.521595
      objectReference: {fileID: 0}
    - target: {fileID: 6194825234380357930, guid: 4bd63747079a3477ab1fda6c3f72d557,
        type: 3}
      propertyPath: m_Textures0.Array.data[156].y
      value: 0.39692527
      objectReference: {fileID: 0}
    - target: {fileID: 6194825234380357930, guid: 4bd63747079a3477ab1fda6c3f72d557,
        type: 3}
      propertyPath: m_Textures0.Array.data[157].y
      value: 0.3969252
      objectReference: {fileID: 0}
    - target: {fileID: 6194825234380357931, guid: 4bd63747079a3477ab1fda6c3f72d557,
        type: 3}
      propertyPath: m_Materials.Array.data[0]
      value: 
      objectReference: {fileID: 2100000, guid: 5e2dea80cc3224df284de6c6750072b4, type: 2}
    - target: {fileID: 6194825234380357931, guid: 4bd63747079a3477ab1fda6c3f72d557,
        type: 3}
      propertyPath: m_Materials.Array.data[1]
      value: 
      objectReference: {fileID: 2100000, guid: 0cadfaafb47424573849c1927ba2bf87, type: 2}
    - target: {fileID: 6194825234439732188, guid: 4bd63747079a3477ab1fda6c3f72d557,
        type: 3}
      propertyPath: m_SelectedEdges.Array.size
      value: 0
      objectReference: {fileID: 0}
    - target: {fileID: 6194825234439732188, guid: 4bd63747079a3477ab1fda6c3f72d557,
        type: 3}
      propertyPath: m_SelectedFaces.Array.size
      value: 0
      objectReference: {fileID: 0}
    - target: {fileID: 6194825234439732188, guid: 4bd63747079a3477ab1fda6c3f72d557,
        type: 3}
      propertyPath: m_Tangents.Array.data[52].x
      value: 0.7071068
      objectReference: {fileID: 0}
    - target: {fileID: 6194825234439732188, guid: 4bd63747079a3477ab1fda6c3f72d557,
        type: 3}
      propertyPath: m_Tangents.Array.data[52].y
      value: 0.70710677
      objectReference: {fileID: 0}
    - target: {fileID: 6194825234439732188, guid: 4bd63747079a3477ab1fda6c3f72d557,
        type: 3}
      propertyPath: m_Tangents.Array.data[52].z
      value: -1.6296941e-14
      objectReference: {fileID: 0}
    - target: {fileID: 6194825234439732188, guid: 4bd63747079a3477ab1fda6c3f72d557,
        type: 3}
      propertyPath: m_Tangents.Array.data[53].x
      value: 0.7071068
      objectReference: {fileID: 0}
    - target: {fileID: 6194825234439732188, guid: 4bd63747079a3477ab1fda6c3f72d557,
        type: 3}
      propertyPath: m_Tangents.Array.data[53].y
      value: 0.70710677
      objectReference: {fileID: 0}
    - target: {fileID: 6194825234439732188, guid: 4bd63747079a3477ab1fda6c3f72d557,
        type: 3}
      propertyPath: m_Tangents.Array.data[53].z
      value: 3.1123785e-14
      objectReference: {fileID: 0}
    - target: {fileID: 6194825234439732188, guid: 4bd63747079a3477ab1fda6c3f72d557,
        type: 3}
      propertyPath: m_Tangents.Array.data[54].x
      value: 0.7071068
      objectReference: {fileID: 0}
    - target: {fileID: 6194825234439732188, guid: 4bd63747079a3477ab1fda6c3f72d557,
        type: 3}
      propertyPath: m_Tangents.Array.data[54].y
      value: 0.70710677
      objectReference: {fileID: 0}
    - target: {fileID: 6194825234439732188, guid: 4bd63747079a3477ab1fda6c3f72d557,
        type: 3}
      propertyPath: m_Tangents.Array.data[54].z
      value: 3.1123785e-14
      objectReference: {fileID: 0}
    - target: {fileID: 6194825234439732188, guid: 4bd63747079a3477ab1fda6c3f72d557,
        type: 3}
      propertyPath: m_Tangents.Array.data[55].z
      value: 0
      objectReference: {fileID: 0}
    - target: {fileID: 6194825234439732188, guid: 4bd63747079a3477ab1fda6c3f72d557,
        type: 3}
      propertyPath: m_Tangents.Array.data[64].x
      value: 0.7071064
      objectReference: {fileID: 0}
    - target: {fileID: 6194825234439732188, guid: 4bd63747079a3477ab1fda6c3f72d557,
        type: 3}
      propertyPath: m_Tangents.Array.data[64].z
      value: 0.70710725
      objectReference: {fileID: 0}
    - target: {fileID: 6194825234439732188, guid: 4bd63747079a3477ab1fda6c3f72d557,
        type: 3}
      propertyPath: m_Tangents.Array.data[65].x
      value: 0.7071064
      objectReference: {fileID: 0}
    - target: {fileID: 6194825234439732188, guid: 4bd63747079a3477ab1fda6c3f72d557,
        type: 3}
      propertyPath: m_Tangents.Array.data[65].z
      value: 0.70710725
      objectReference: {fileID: 0}
    - target: {fileID: 6194825234439732188, guid: 4bd63747079a3477ab1fda6c3f72d557,
        type: 3}
      propertyPath: m_Tangents.Array.data[66].x
      value: 0.7071064
      objectReference: {fileID: 0}
    - target: {fileID: 6194825234439732188, guid: 4bd63747079a3477ab1fda6c3f72d557,
        type: 3}
      propertyPath: m_Tangents.Array.data[66].z
      value: 0.70710725
      objectReference: {fileID: 0}
    - target: {fileID: 6194825234439732188, guid: 4bd63747079a3477ab1fda6c3f72d557,
        type: 3}
      propertyPath: m_Tangents.Array.data[67].x
      value: 0.7071064
      objectReference: {fileID: 0}
    - target: {fileID: 6194825234439732188, guid: 4bd63747079a3477ab1fda6c3f72d557,
        type: 3}
      propertyPath: m_Tangents.Array.data[67].z
      value: 0.70710725
      objectReference: {fileID: 0}
    - target: {fileID: 6194825234439732188, guid: 4bd63747079a3477ab1fda6c3f72d557,
        type: 3}
      propertyPath: m_Textures0.Array.data[44].x
      value: -1.0223714
      objectReference: {fileID: 0}
    - target: {fileID: 6194825234439732188, guid: 4bd63747079a3477ab1fda6c3f72d557,
        type: 3}
      propertyPath: m_Textures0.Array.data[45].x
      value: -1.0223714
      objectReference: {fileID: 0}
    - target: {fileID: 6194825234439732188, guid: 4bd63747079a3477ab1fda6c3f72d557,
        type: 3}
      propertyPath: m_Textures0.Array.data[46].x
      value: -1.0930821
      objectReference: {fileID: 0}
    - target: {fileID: 6194825234439732188, guid: 4bd63747079a3477ab1fda6c3f72d557,
        type: 3}
      propertyPath: m_Textures0.Array.data[47].x
      value: -1.0930821
      objectReference: {fileID: 0}
    - target: {fileID: 6194825234439732188, guid: 4bd63747079a3477ab1fda6c3f72d557,
        type: 3}
      propertyPath: m_Textures0.Array.data[48].x
      value: 0.14142135
      objectReference: {fileID: 0}
    - target: {fileID: 6194825234439732188, guid: 4bd63747079a3477ab1fda6c3f72d557,
        type: 3}
      propertyPath: m_Textures0.Array.data[49].x
      value: 0.14142135
      objectReference: {fileID: 0}
    - target: {fileID: 6194825234439732188, guid: 4bd63747079a3477ab1fda6c3f72d557,
        type: 3}
      propertyPath: m_Textures0.Array.data[50].x
      value: 0.21213204
      objectReference: {fileID: 0}
    - target: {fileID: 6194825234439732188, guid: 4bd63747079a3477ab1fda6c3f72d557,
        type: 3}
      propertyPath: m_Textures0.Array.data[51].x
      value: 0.21213204
      objectReference: {fileID: 0}
    - target: {fileID: 6194825234439732188, guid: 4bd63747079a3477ab1fda6c3f72d557,
        type: 3}
      propertyPath: m_Textures0.Array.data[52].x
      value: -0.6363959
      objectReference: {fileID: 0}
    - target: {fileID: 6194825234439732188, guid: 4bd63747079a3477ab1fda6c3f72d557,
        type: 3}
      propertyPath: m_Textures0.Array.data[53].x
      value: -0.63639575
      objectReference: {fileID: 0}
    - target: {fileID: 6194825234439732188, guid: 4bd63747079a3477ab1fda6c3f72d557,
        type: 3}
      propertyPath: m_Textures0.Array.data[60].x
      value: -0.9192377
      objectReference: {fileID: 0}
    - target: {fileID: 6194825234439732188, guid: 4bd63747079a3477ab1fda6c3f72d557,
        type: 3}
      propertyPath: m_Textures0.Array.data[61].x
      value: -0.9192377
      objectReference: {fileID: 0}
    - target: {fileID: 6194825234439732188, guid: 4bd63747079a3477ab1fda6c3f72d557,
        type: 3}
      propertyPath: m_Textures0.Array.data[62].x
      value: -0.848527
      objectReference: {fileID: 0}
    - target: {fileID: 6194825234439732188, guid: 4bd63747079a3477ab1fda6c3f72d557,
        type: 3}
      propertyPath: m_Textures0.Array.data[63].x
      value: -0.848527
      objectReference: {fileID: 0}
    - target: {fileID: 6194825234439732188, guid: 4bd63747079a3477ab1fda6c3f72d557,
        type: 3}
      propertyPath: m_Textures0.Array.data[64].x
      value: 1.8001882
      objectReference: {fileID: 0}
    - target: {fileID: 6194825234439732188, guid: 4bd63747079a3477ab1fda6c3f72d557,
        type: 3}
      propertyPath: m_Textures0.Array.data[65].x
      value: 1.8001882
      objectReference: {fileID: 0}
    - target: {fileID: 6194825234439732188, guid: 4bd63747079a3477ab1fda6c3f72d557,
        type: 3}
      propertyPath: m_Textures0.Array.data[66].x
      value: 1.7294776
      objectReference: {fileID: 0}
    - target: {fileID: 6194825234439732188, guid: 4bd63747079a3477ab1fda6c3f72d557,
        type: 3}
      propertyPath: m_Textures0.Array.data[67].x
      value: 1.7294776
      objectReference: {fileID: 0}
    - target: {fileID: 6194825234439732188, guid: 4bd63747079a3477ab1fda6c3f72d557,
        type: 3}
      propertyPath: m_Textures0.Array.data[68].x
      value: 1.3435019
      objectReference: {fileID: 0}
    - target: {fileID: 6194825234439732188, guid: 4bd63747079a3477ab1fda6c3f72d557,
        type: 3}
      propertyPath: m_Textures0.Array.data[69].x
      value: 1.343502
      objectReference: {fileID: 0}
    - target: {fileID: 6194825234439732188, guid: 4bd63747079a3477ab1fda6c3f72d557,
        type: 3}
      propertyPath: m_Textures0.Array.data[70].x
      value: 1.2727913
      objectReference: {fileID: 0}
    - target: {fileID: 6194825234439732188, guid: 4bd63747079a3477ab1fda6c3f72d557,
        type: 3}
      propertyPath: m_Textures0.Array.data[71].x
      value: 1.2727914
      objectReference: {fileID: 0}
    - target: {fileID: 6194825234439732188, guid: 4bd63747079a3477ab1fda6c3f72d557,
        type: 3}
      propertyPath: m_SelectedVertices.Array.size
      value: 0
      objectReference: {fileID: 0}
    - target: {fileID: 6194825234439732189, guid: 4bd63747079a3477ab1fda6c3f72d557,
        type: 3}
      propertyPath: m_Materials.Array.data[0]
      value: 
      objectReference: {fileID: 2100000, guid: 5e2dea80cc3224df284de6c6750072b4, type: 2}
    - target: {fileID: 6194825234447207340, guid: 4bd63747079a3477ab1fda6c3f72d557,
        type: 3}
      propertyPath: m_SelectedEdges.Array.size
      value: 0
      objectReference: {fileID: 0}
    - target: {fileID: 6194825234447207340, guid: 4bd63747079a3477ab1fda6c3f72d557,
        type: 3}
      propertyPath: m_SelectedFaces.Array.size
      value: 0
      objectReference: {fileID: 0}
    - target: {fileID: 6194825234447207340, guid: 4bd63747079a3477ab1fda6c3f72d557,
        type: 3}
      propertyPath: m_Tangents.Array.data[52].x
      value: 0.7071068
      objectReference: {fileID: 0}
    - target: {fileID: 6194825234447207340, guid: 4bd63747079a3477ab1fda6c3f72d557,
        type: 3}
      propertyPath: m_Tangents.Array.data[52].y
      value: 0.70710677
      objectReference: {fileID: 0}
    - target: {fileID: 6194825234447207340, guid: 4bd63747079a3477ab1fda6c3f72d557,
        type: 3}
      propertyPath: m_Tangents.Array.data[52].z
      value: -1.6296941e-14
      objectReference: {fileID: 0}
    - target: {fileID: 6194825234447207340, guid: 4bd63747079a3477ab1fda6c3f72d557,
        type: 3}
      propertyPath: m_Tangents.Array.data[53].x
      value: 0.7071068
      objectReference: {fileID: 0}
    - target: {fileID: 6194825234447207340, guid: 4bd63747079a3477ab1fda6c3f72d557,
        type: 3}
      propertyPath: m_Tangents.Array.data[53].y
      value: 0.70710677
      objectReference: {fileID: 0}
    - target: {fileID: 6194825234447207340, guid: 4bd63747079a3477ab1fda6c3f72d557,
        type: 3}
      propertyPath: m_Tangents.Array.data[53].z
      value: 3.1123785e-14
      objectReference: {fileID: 0}
    - target: {fileID: 6194825234447207340, guid: 4bd63747079a3477ab1fda6c3f72d557,
        type: 3}
      propertyPath: m_Tangents.Array.data[54].x
      value: 0.7071068
      objectReference: {fileID: 0}
    - target: {fileID: 6194825234447207340, guid: 4bd63747079a3477ab1fda6c3f72d557,
        type: 3}
      propertyPath: m_Tangents.Array.data[54].y
      value: 0.70710677
      objectReference: {fileID: 0}
    - target: {fileID: 6194825234447207340, guid: 4bd63747079a3477ab1fda6c3f72d557,
        type: 3}
      propertyPath: m_Tangents.Array.data[54].z
      value: 3.1123785e-14
      objectReference: {fileID: 0}
    - target: {fileID: 6194825234447207340, guid: 4bd63747079a3477ab1fda6c3f72d557,
        type: 3}
      propertyPath: m_Tangents.Array.data[55].z
      value: 0
      objectReference: {fileID: 0}
    - target: {fileID: 6194825234447207340, guid: 4bd63747079a3477ab1fda6c3f72d557,
        type: 3}
      propertyPath: m_Tangents.Array.data[64].x
      value: 0.7071064
      objectReference: {fileID: 0}
    - target: {fileID: 6194825234447207340, guid: 4bd63747079a3477ab1fda6c3f72d557,
        type: 3}
      propertyPath: m_Tangents.Array.data[64].z
      value: 0.70710725
      objectReference: {fileID: 0}
    - target: {fileID: 6194825234447207340, guid: 4bd63747079a3477ab1fda6c3f72d557,
        type: 3}
      propertyPath: m_Tangents.Array.data[65].x
      value: 0.7071064
      objectReference: {fileID: 0}
    - target: {fileID: 6194825234447207340, guid: 4bd63747079a3477ab1fda6c3f72d557,
        type: 3}
      propertyPath: m_Tangents.Array.data[65].z
      value: 0.70710725
      objectReference: {fileID: 0}
    - target: {fileID: 6194825234447207340, guid: 4bd63747079a3477ab1fda6c3f72d557,
        type: 3}
      propertyPath: m_Tangents.Array.data[66].x
      value: 0.7071064
      objectReference: {fileID: 0}
    - target: {fileID: 6194825234447207340, guid: 4bd63747079a3477ab1fda6c3f72d557,
        type: 3}
      propertyPath: m_Tangents.Array.data[66].z
      value: 0.70710725
      objectReference: {fileID: 0}
    - target: {fileID: 6194825234447207340, guid: 4bd63747079a3477ab1fda6c3f72d557,
        type: 3}
      propertyPath: m_Tangents.Array.data[67].x
      value: 0.7071064
      objectReference: {fileID: 0}
    - target: {fileID: 6194825234447207340, guid: 4bd63747079a3477ab1fda6c3f72d557,
        type: 3}
      propertyPath: m_Tangents.Array.data[67].z
      value: 0.70710725
      objectReference: {fileID: 0}
    - target: {fileID: 6194825234447207340, guid: 4bd63747079a3477ab1fda6c3f72d557,
        type: 3}
      propertyPath: m_Textures0.Array.data[44].x
      value: -1.0223714
      objectReference: {fileID: 0}
    - target: {fileID: 6194825234447207340, guid: 4bd63747079a3477ab1fda6c3f72d557,
        type: 3}
      propertyPath: m_Textures0.Array.data[45].x
      value: -1.0223714
      objectReference: {fileID: 0}
    - target: {fileID: 6194825234447207340, guid: 4bd63747079a3477ab1fda6c3f72d557,
        type: 3}
      propertyPath: m_Textures0.Array.data[46].x
      value: -1.0930821
      objectReference: {fileID: 0}
    - target: {fileID: 6194825234447207340, guid: 4bd63747079a3477ab1fda6c3f72d557,
        type: 3}
      propertyPath: m_Textures0.Array.data[47].x
      value: -1.0930821
      objectReference: {fileID: 0}
    - target: {fileID: 6194825234447207340, guid: 4bd63747079a3477ab1fda6c3f72d557,
        type: 3}
      propertyPath: m_Textures0.Array.data[48].x
      value: 0.14142135
      objectReference: {fileID: 0}
    - target: {fileID: 6194825234447207340, guid: 4bd63747079a3477ab1fda6c3f72d557,
        type: 3}
      propertyPath: m_Textures0.Array.data[49].x
      value: 0.14142135
      objectReference: {fileID: 0}
    - target: {fileID: 6194825234447207340, guid: 4bd63747079a3477ab1fda6c3f72d557,
        type: 3}
      propertyPath: m_Textures0.Array.data[50].x
      value: 0.21213204
      objectReference: {fileID: 0}
    - target: {fileID: 6194825234447207340, guid: 4bd63747079a3477ab1fda6c3f72d557,
        type: 3}
      propertyPath: m_Textures0.Array.data[51].x
      value: 0.21213204
      objectReference: {fileID: 0}
    - target: {fileID: 6194825234447207340, guid: 4bd63747079a3477ab1fda6c3f72d557,
        type: 3}
      propertyPath: m_Textures0.Array.data[52].x
      value: -0.6363959
      objectReference: {fileID: 0}
    - target: {fileID: 6194825234447207340, guid: 4bd63747079a3477ab1fda6c3f72d557,
        type: 3}
      propertyPath: m_Textures0.Array.data[53].x
      value: -0.63639575
      objectReference: {fileID: 0}
    - target: {fileID: 6194825234447207340, guid: 4bd63747079a3477ab1fda6c3f72d557,
        type: 3}
      propertyPath: m_Textures0.Array.data[60].x
      value: -0.9192377
      objectReference: {fileID: 0}
    - target: {fileID: 6194825234447207340, guid: 4bd63747079a3477ab1fda6c3f72d557,
        type: 3}
      propertyPath: m_Textures0.Array.data[61].x
      value: -0.9192377
      objectReference: {fileID: 0}
    - target: {fileID: 6194825234447207340, guid: 4bd63747079a3477ab1fda6c3f72d557,
        type: 3}
      propertyPath: m_Textures0.Array.data[62].x
      value: -0.848527
      objectReference: {fileID: 0}
    - target: {fileID: 6194825234447207340, guid: 4bd63747079a3477ab1fda6c3f72d557,
        type: 3}
      propertyPath: m_Textures0.Array.data[63].x
      value: -0.848527
      objectReference: {fileID: 0}
    - target: {fileID: 6194825234447207340, guid: 4bd63747079a3477ab1fda6c3f72d557,
        type: 3}
      propertyPath: m_Textures0.Array.data[64].x
      value: 1.8001882
      objectReference: {fileID: 0}
    - target: {fileID: 6194825234447207340, guid: 4bd63747079a3477ab1fda6c3f72d557,
        type: 3}
      propertyPath: m_Textures0.Array.data[65].x
      value: 1.8001882
      objectReference: {fileID: 0}
    - target: {fileID: 6194825234447207340, guid: 4bd63747079a3477ab1fda6c3f72d557,
        type: 3}
      propertyPath: m_Textures0.Array.data[66].x
      value: 1.7294776
      objectReference: {fileID: 0}
    - target: {fileID: 6194825234447207340, guid: 4bd63747079a3477ab1fda6c3f72d557,
        type: 3}
      propertyPath: m_Textures0.Array.data[67].x
      value: 1.7294776
      objectReference: {fileID: 0}
    - target: {fileID: 6194825234447207340, guid: 4bd63747079a3477ab1fda6c3f72d557,
        type: 3}
      propertyPath: m_Textures0.Array.data[68].x
      value: 1.3435019
      objectReference: {fileID: 0}
    - target: {fileID: 6194825234447207340, guid: 4bd63747079a3477ab1fda6c3f72d557,
        type: 3}
      propertyPath: m_Textures0.Array.data[69].x
      value: 1.343502
      objectReference: {fileID: 0}
    - target: {fileID: 6194825234447207340, guid: 4bd63747079a3477ab1fda6c3f72d557,
        type: 3}
      propertyPath: m_Textures0.Array.data[70].x
      value: 1.2727913
      objectReference: {fileID: 0}
    - target: {fileID: 6194825234447207340, guid: 4bd63747079a3477ab1fda6c3f72d557,
        type: 3}
      propertyPath: m_Textures0.Array.data[71].x
      value: 1.2727914
      objectReference: {fileID: 0}
    - target: {fileID: 6194825234447207340, guid: 4bd63747079a3477ab1fda6c3f72d557,
        type: 3}
      propertyPath: m_SelectedVertices.Array.size
      value: 0
      objectReference: {fileID: 0}
    - target: {fileID: 6194825234447207341, guid: 4bd63747079a3477ab1fda6c3f72d557,
        type: 3}
      propertyPath: m_Materials.Array.data[0]
      value: 
      objectReference: {fileID: 2100000, guid: 5e2dea80cc3224df284de6c6750072b4, type: 2}
    - target: {fileID: 6194825235100956062, guid: 4bd63747079a3477ab1fda6c3f72d557,
        type: 3}
      propertyPath: m_SelectedEdges.Array.size
      value: 0
      objectReference: {fileID: 0}
    - target: {fileID: 6194825235100956062, guid: 4bd63747079a3477ab1fda6c3f72d557,
        type: 3}
      propertyPath: m_SelectedFaces.Array.size
      value: 0
      objectReference: {fileID: 0}
    - target: {fileID: 6194825235100956062, guid: 4bd63747079a3477ab1fda6c3f72d557,
        type: 3}
      propertyPath: m_Tangents.Array.data[52].x
      value: 0.7071068
      objectReference: {fileID: 0}
    - target: {fileID: 6194825235100956062, guid: 4bd63747079a3477ab1fda6c3f72d557,
        type: 3}
      propertyPath: m_Tangents.Array.data[52].y
      value: 0.70710677
      objectReference: {fileID: 0}
    - target: {fileID: 6194825235100956062, guid: 4bd63747079a3477ab1fda6c3f72d557,
        type: 3}
      propertyPath: m_Tangents.Array.data[52].z
      value: -1.6296941e-14
      objectReference: {fileID: 0}
    - target: {fileID: 6194825235100956062, guid: 4bd63747079a3477ab1fda6c3f72d557,
        type: 3}
      propertyPath: m_Tangents.Array.data[53].x
      value: 0.7071068
      objectReference: {fileID: 0}
    - target: {fileID: 6194825235100956062, guid: 4bd63747079a3477ab1fda6c3f72d557,
        type: 3}
      propertyPath: m_Tangents.Array.data[53].y
      value: 0.70710677
      objectReference: {fileID: 0}
    - target: {fileID: 6194825235100956062, guid: 4bd63747079a3477ab1fda6c3f72d557,
        type: 3}
      propertyPath: m_Tangents.Array.data[53].z
      value: 3.1123785e-14
      objectReference: {fileID: 0}
    - target: {fileID: 6194825235100956062, guid: 4bd63747079a3477ab1fda6c3f72d557,
        type: 3}
      propertyPath: m_Tangents.Array.data[54].x
      value: 0.7071068
      objectReference: {fileID: 0}
    - target: {fileID: 6194825235100956062, guid: 4bd63747079a3477ab1fda6c3f72d557,
        type: 3}
      propertyPath: m_Tangents.Array.data[54].y
      value: 0.70710677
      objectReference: {fileID: 0}
    - target: {fileID: 6194825235100956062, guid: 4bd63747079a3477ab1fda6c3f72d557,
        type: 3}
      propertyPath: m_Tangents.Array.data[54].z
      value: 3.1123785e-14
      objectReference: {fileID: 0}
    - target: {fileID: 6194825235100956062, guid: 4bd63747079a3477ab1fda6c3f72d557,
        type: 3}
      propertyPath: m_Tangents.Array.data[55].z
      value: 0
      objectReference: {fileID: 0}
    - target: {fileID: 6194825235100956062, guid: 4bd63747079a3477ab1fda6c3f72d557,
        type: 3}
      propertyPath: m_Tangents.Array.data[64].x
      value: 0.7071064
      objectReference: {fileID: 0}
    - target: {fileID: 6194825235100956062, guid: 4bd63747079a3477ab1fda6c3f72d557,
        type: 3}
      propertyPath: m_Tangents.Array.data[64].z
      value: 0.70710725
      objectReference: {fileID: 0}
    - target: {fileID: 6194825235100956062, guid: 4bd63747079a3477ab1fda6c3f72d557,
        type: 3}
      propertyPath: m_Tangents.Array.data[65].x
      value: 0.7071064
      objectReference: {fileID: 0}
    - target: {fileID: 6194825235100956062, guid: 4bd63747079a3477ab1fda6c3f72d557,
        type: 3}
      propertyPath: m_Tangents.Array.data[65].z
      value: 0.70710725
      objectReference: {fileID: 0}
    - target: {fileID: 6194825235100956062, guid: 4bd63747079a3477ab1fda6c3f72d557,
        type: 3}
      propertyPath: m_Tangents.Array.data[66].x
      value: 0.7071064
      objectReference: {fileID: 0}
    - target: {fileID: 6194825235100956062, guid: 4bd63747079a3477ab1fda6c3f72d557,
        type: 3}
      propertyPath: m_Tangents.Array.data[66].z
      value: 0.70710725
      objectReference: {fileID: 0}
    - target: {fileID: 6194825235100956062, guid: 4bd63747079a3477ab1fda6c3f72d557,
        type: 3}
      propertyPath: m_Tangents.Array.data[67].x
      value: 0.7071064
      objectReference: {fileID: 0}
    - target: {fileID: 6194825235100956062, guid: 4bd63747079a3477ab1fda6c3f72d557,
        type: 3}
      propertyPath: m_Tangents.Array.data[67].z
      value: 0.70710725
      objectReference: {fileID: 0}
    - target: {fileID: 6194825235100956062, guid: 4bd63747079a3477ab1fda6c3f72d557,
        type: 3}
      propertyPath: m_Textures0.Array.data[44].x
      value: -1.0223714
      objectReference: {fileID: 0}
    - target: {fileID: 6194825235100956062, guid: 4bd63747079a3477ab1fda6c3f72d557,
        type: 3}
      propertyPath: m_Textures0.Array.data[45].x
      value: -1.0223714
      objectReference: {fileID: 0}
    - target: {fileID: 6194825235100956062, guid: 4bd63747079a3477ab1fda6c3f72d557,
        type: 3}
      propertyPath: m_Textures0.Array.data[46].x
      value: -1.0930821
      objectReference: {fileID: 0}
    - target: {fileID: 6194825235100956062, guid: 4bd63747079a3477ab1fda6c3f72d557,
        type: 3}
      propertyPath: m_Textures0.Array.data[47].x
      value: -1.0930821
      objectReference: {fileID: 0}
    - target: {fileID: 6194825235100956062, guid: 4bd63747079a3477ab1fda6c3f72d557,
        type: 3}
      propertyPath: m_Textures0.Array.data[48].x
      value: 0.14142135
      objectReference: {fileID: 0}
    - target: {fileID: 6194825235100956062, guid: 4bd63747079a3477ab1fda6c3f72d557,
        type: 3}
      propertyPath: m_Textures0.Array.data[49].x
      value: 0.14142135
      objectReference: {fileID: 0}
    - target: {fileID: 6194825235100956062, guid: 4bd63747079a3477ab1fda6c3f72d557,
        type: 3}
      propertyPath: m_Textures0.Array.data[50].x
      value: 0.21213204
      objectReference: {fileID: 0}
    - target: {fileID: 6194825235100956062, guid: 4bd63747079a3477ab1fda6c3f72d557,
        type: 3}
      propertyPath: m_Textures0.Array.data[51].x
      value: 0.21213204
      objectReference: {fileID: 0}
    - target: {fileID: 6194825235100956062, guid: 4bd63747079a3477ab1fda6c3f72d557,
        type: 3}
      propertyPath: m_Textures0.Array.data[52].x
      value: -0.6363959
      objectReference: {fileID: 0}
    - target: {fileID: 6194825235100956062, guid: 4bd63747079a3477ab1fda6c3f72d557,
        type: 3}
      propertyPath: m_Textures0.Array.data[53].x
      value: -0.63639575
      objectReference: {fileID: 0}
    - target: {fileID: 6194825235100956062, guid: 4bd63747079a3477ab1fda6c3f72d557,
        type: 3}
      propertyPath: m_Textures0.Array.data[60].x
      value: -0.9192377
      objectReference: {fileID: 0}
    - target: {fileID: 6194825235100956062, guid: 4bd63747079a3477ab1fda6c3f72d557,
        type: 3}
      propertyPath: m_Textures0.Array.data[61].x
      value: -0.9192377
      objectReference: {fileID: 0}
    - target: {fileID: 6194825235100956062, guid: 4bd63747079a3477ab1fda6c3f72d557,
        type: 3}
      propertyPath: m_Textures0.Array.data[62].x
      value: -0.848527
      objectReference: {fileID: 0}
    - target: {fileID: 6194825235100956062, guid: 4bd63747079a3477ab1fda6c3f72d557,
        type: 3}
      propertyPath: m_Textures0.Array.data[63].x
      value: -0.848527
      objectReference: {fileID: 0}
    - target: {fileID: 6194825235100956062, guid: 4bd63747079a3477ab1fda6c3f72d557,
        type: 3}
      propertyPath: m_Textures0.Array.data[64].x
      value: 1.8001882
      objectReference: {fileID: 0}
    - target: {fileID: 6194825235100956062, guid: 4bd63747079a3477ab1fda6c3f72d557,
        type: 3}
      propertyPath: m_Textures0.Array.data[65].x
      value: 1.8001882
      objectReference: {fileID: 0}
    - target: {fileID: 6194825235100956062, guid: 4bd63747079a3477ab1fda6c3f72d557,
        type: 3}
      propertyPath: m_Textures0.Array.data[66].x
      value: 1.7294776
      objectReference: {fileID: 0}
    - target: {fileID: 6194825235100956062, guid: 4bd63747079a3477ab1fda6c3f72d557,
        type: 3}
      propertyPath: m_Textures0.Array.data[67].x
      value: 1.7294776
      objectReference: {fileID: 0}
    - target: {fileID: 6194825235100956062, guid: 4bd63747079a3477ab1fda6c3f72d557,
        type: 3}
      propertyPath: m_Textures0.Array.data[68].x
      value: 1.3435019
      objectReference: {fileID: 0}
    - target: {fileID: 6194825235100956062, guid: 4bd63747079a3477ab1fda6c3f72d557,
        type: 3}
      propertyPath: m_Textures0.Array.data[69].x
      value: 1.343502
      objectReference: {fileID: 0}
    - target: {fileID: 6194825235100956062, guid: 4bd63747079a3477ab1fda6c3f72d557,
        type: 3}
      propertyPath: m_Textures0.Array.data[70].x
      value: 1.2727913
      objectReference: {fileID: 0}
    - target: {fileID: 6194825235100956062, guid: 4bd63747079a3477ab1fda6c3f72d557,
        type: 3}
      propertyPath: m_Textures0.Array.data[71].x
      value: 1.2727914
      objectReference: {fileID: 0}
    - target: {fileID: 6194825235100956062, guid: 4bd63747079a3477ab1fda6c3f72d557,
        type: 3}
      propertyPath: m_SelectedVertices.Array.size
      value: 0
      objectReference: {fileID: 0}
    - target: {fileID: 6194825235100956063, guid: 4bd63747079a3477ab1fda6c3f72d557,
        type: 3}
      propertyPath: m_Materials.Array.data[0]
      value: 
      objectReference: {fileID: 2100000, guid: 5e2dea80cc3224df284de6c6750072b4, type: 2}
    - target: {fileID: 6194825235304093876, guid: 4bd63747079a3477ab1fda6c3f72d557,
        type: 3}
      propertyPath: m_Tangents.Array.data[52].x
      value: 0.7071068
      objectReference: {fileID: 0}
    - target: {fileID: 6194825235304093876, guid: 4bd63747079a3477ab1fda6c3f72d557,
        type: 3}
      propertyPath: m_Tangents.Array.data[52].y
      value: 0.70710677
      objectReference: {fileID: 0}
    - target: {fileID: 6194825235304093876, guid: 4bd63747079a3477ab1fda6c3f72d557,
        type: 3}
      propertyPath: m_Tangents.Array.data[52].z
      value: -1.6296941e-14
      objectReference: {fileID: 0}
    - target: {fileID: 6194825235304093876, guid: 4bd63747079a3477ab1fda6c3f72d557,
        type: 3}
      propertyPath: m_Tangents.Array.data[53].x
      value: 0.7071068
      objectReference: {fileID: 0}
    - target: {fileID: 6194825235304093876, guid: 4bd63747079a3477ab1fda6c3f72d557,
        type: 3}
      propertyPath: m_Tangents.Array.data[53].y
      value: 0.70710677
      objectReference: {fileID: 0}
    - target: {fileID: 6194825235304093876, guid: 4bd63747079a3477ab1fda6c3f72d557,
        type: 3}
      propertyPath: m_Tangents.Array.data[53].z
      value: 3.1123785e-14
      objectReference: {fileID: 0}
    - target: {fileID: 6194825235304093876, guid: 4bd63747079a3477ab1fda6c3f72d557,
        type: 3}
      propertyPath: m_Tangents.Array.data[54].x
      value: 0.7071068
      objectReference: {fileID: 0}
    - target: {fileID: 6194825235304093876, guid: 4bd63747079a3477ab1fda6c3f72d557,
        type: 3}
      propertyPath: m_Tangents.Array.data[54].y
      value: 0.70710677
      objectReference: {fileID: 0}
    - target: {fileID: 6194825235304093876, guid: 4bd63747079a3477ab1fda6c3f72d557,
        type: 3}
      propertyPath: m_Tangents.Array.data[54].z
      value: 3.1123785e-14
      objectReference: {fileID: 0}
    - target: {fileID: 6194825235304093876, guid: 4bd63747079a3477ab1fda6c3f72d557,
        type: 3}
      propertyPath: m_Tangents.Array.data[55].z
      value: 0
      objectReference: {fileID: 0}
    - target: {fileID: 6194825235304093876, guid: 4bd63747079a3477ab1fda6c3f72d557,
        type: 3}
      propertyPath: m_Tangents.Array.data[64].x
      value: 0.7071064
      objectReference: {fileID: 0}
    - target: {fileID: 6194825235304093876, guid: 4bd63747079a3477ab1fda6c3f72d557,
        type: 3}
      propertyPath: m_Tangents.Array.data[64].z
      value: 0.70710725
      objectReference: {fileID: 0}
    - target: {fileID: 6194825235304093876, guid: 4bd63747079a3477ab1fda6c3f72d557,
        type: 3}
      propertyPath: m_Tangents.Array.data[65].x
      value: 0.7071064
      objectReference: {fileID: 0}
    - target: {fileID: 6194825235304093876, guid: 4bd63747079a3477ab1fda6c3f72d557,
        type: 3}
      propertyPath: m_Tangents.Array.data[65].z
      value: 0.70710725
      objectReference: {fileID: 0}
    - target: {fileID: 6194825235304093876, guid: 4bd63747079a3477ab1fda6c3f72d557,
        type: 3}
      propertyPath: m_Tangents.Array.data[66].x
      value: 0.7071064
      objectReference: {fileID: 0}
    - target: {fileID: 6194825235304093876, guid: 4bd63747079a3477ab1fda6c3f72d557,
        type: 3}
      propertyPath: m_Tangents.Array.data[66].z
      value: 0.70710725
      objectReference: {fileID: 0}
    - target: {fileID: 6194825235304093876, guid: 4bd63747079a3477ab1fda6c3f72d557,
        type: 3}
      propertyPath: m_Tangents.Array.data[67].x
      value: 0.7071064
      objectReference: {fileID: 0}
    - target: {fileID: 6194825235304093876, guid: 4bd63747079a3477ab1fda6c3f72d557,
        type: 3}
      propertyPath: m_Tangents.Array.data[67].z
      value: 0.70710725
      objectReference: {fileID: 0}
    - target: {fileID: 6194825235304093876, guid: 4bd63747079a3477ab1fda6c3f72d557,
        type: 3}
      propertyPath: m_Textures0.Array.data[44].x
      value: -1.0223714
      objectReference: {fileID: 0}
    - target: {fileID: 6194825235304093876, guid: 4bd63747079a3477ab1fda6c3f72d557,
        type: 3}
      propertyPath: m_Textures0.Array.data[45].x
      value: -1.0223714
      objectReference: {fileID: 0}
    - target: {fileID: 6194825235304093876, guid: 4bd63747079a3477ab1fda6c3f72d557,
        type: 3}
      propertyPath: m_Textures0.Array.data[46].x
      value: -1.0930821
      objectReference: {fileID: 0}
    - target: {fileID: 6194825235304093876, guid: 4bd63747079a3477ab1fda6c3f72d557,
        type: 3}
      propertyPath: m_Textures0.Array.data[47].x
      value: -1.0930821
      objectReference: {fileID: 0}
    - target: {fileID: 6194825235304093876, guid: 4bd63747079a3477ab1fda6c3f72d557,
        type: 3}
      propertyPath: m_Textures0.Array.data[48].x
      value: 0.14142135
      objectReference: {fileID: 0}
    - target: {fileID: 6194825235304093876, guid: 4bd63747079a3477ab1fda6c3f72d557,
        type: 3}
      propertyPath: m_Textures0.Array.data[49].x
      value: 0.14142135
      objectReference: {fileID: 0}
    - target: {fileID: 6194825235304093876, guid: 4bd63747079a3477ab1fda6c3f72d557,
        type: 3}
      propertyPath: m_Textures0.Array.data[50].x
      value: 0.21213204
      objectReference: {fileID: 0}
    - target: {fileID: 6194825235304093876, guid: 4bd63747079a3477ab1fda6c3f72d557,
        type: 3}
      propertyPath: m_Textures0.Array.data[51].x
      value: 0.21213204
      objectReference: {fileID: 0}
    - target: {fileID: 6194825235304093876, guid: 4bd63747079a3477ab1fda6c3f72d557,
        type: 3}
      propertyPath: m_Textures0.Array.data[52].x
      value: -0.6363959
      objectReference: {fileID: 0}
    - target: {fileID: 6194825235304093876, guid: 4bd63747079a3477ab1fda6c3f72d557,
        type: 3}
      propertyPath: m_Textures0.Array.data[53].x
      value: -0.63639575
      objectReference: {fileID: 0}
    - target: {fileID: 6194825235304093876, guid: 4bd63747079a3477ab1fda6c3f72d557,
        type: 3}
      propertyPath: m_Textures0.Array.data[60].x
      value: -0.9192377
      objectReference: {fileID: 0}
    - target: {fileID: 6194825235304093876, guid: 4bd63747079a3477ab1fda6c3f72d557,
        type: 3}
      propertyPath: m_Textures0.Array.data[61].x
      value: -0.9192377
      objectReference: {fileID: 0}
    - target: {fileID: 6194825235304093876, guid: 4bd63747079a3477ab1fda6c3f72d557,
        type: 3}
      propertyPath: m_Textures0.Array.data[62].x
      value: -0.848527
      objectReference: {fileID: 0}
    - target: {fileID: 6194825235304093876, guid: 4bd63747079a3477ab1fda6c3f72d557,
        type: 3}
      propertyPath: m_Textures0.Array.data[63].x
      value: -0.848527
      objectReference: {fileID: 0}
    - target: {fileID: 6194825235304093876, guid: 4bd63747079a3477ab1fda6c3f72d557,
        type: 3}
      propertyPath: m_Textures0.Array.data[64].x
      value: 1.8001882
      objectReference: {fileID: 0}
    - target: {fileID: 6194825235304093876, guid: 4bd63747079a3477ab1fda6c3f72d557,
        type: 3}
      propertyPath: m_Textures0.Array.data[65].x
      value: 1.8001882
      objectReference: {fileID: 0}
    - target: {fileID: 6194825235304093876, guid: 4bd63747079a3477ab1fda6c3f72d557,
        type: 3}
      propertyPath: m_Textures0.Array.data[66].x
      value: 1.7294776
      objectReference: {fileID: 0}
    - target: {fileID: 6194825235304093876, guid: 4bd63747079a3477ab1fda6c3f72d557,
        type: 3}
      propertyPath: m_Textures0.Array.data[67].x
      value: 1.7294776
      objectReference: {fileID: 0}
    - target: {fileID: 6194825235304093876, guid: 4bd63747079a3477ab1fda6c3f72d557,
        type: 3}
      propertyPath: m_Textures0.Array.data[68].x
      value: 1.3435019
      objectReference: {fileID: 0}
    - target: {fileID: 6194825235304093876, guid: 4bd63747079a3477ab1fda6c3f72d557,
        type: 3}
      propertyPath: m_Textures0.Array.data[69].x
      value: 1.343502
      objectReference: {fileID: 0}
    - target: {fileID: 6194825235304093876, guid: 4bd63747079a3477ab1fda6c3f72d557,
        type: 3}
      propertyPath: m_Textures0.Array.data[70].x
      value: 1.2727913
      objectReference: {fileID: 0}
    - target: {fileID: 6194825235304093876, guid: 4bd63747079a3477ab1fda6c3f72d557,
        type: 3}
      propertyPath: m_Textures0.Array.data[71].x
      value: 1.2727914
      objectReference: {fileID: 0}
    - target: {fileID: 6194825235304093877, guid: 4bd63747079a3477ab1fda6c3f72d557,
        type: 3}
      propertyPath: m_Materials.Array.data[0]
      value: 
      objectReference: {fileID: 2100000, guid: 5e2dea80cc3224df284de6c6750072b4, type: 2}
    - target: {fileID: 6194825235413791197, guid: 4bd63747079a3477ab1fda6c3f72d557,
        type: 3}
      propertyPath: m_SelectedEdges.Array.size
      value: 0
      objectReference: {fileID: 0}
    - target: {fileID: 6194825235413791197, guid: 4bd63747079a3477ab1fda6c3f72d557,
        type: 3}
      propertyPath: m_SelectedFaces.Array.size
      value: 0
      objectReference: {fileID: 0}
    - target: {fileID: 6194825235413791197, guid: 4bd63747079a3477ab1fda6c3f72d557,
        type: 3}
      propertyPath: m_Tangents.Array.data[97].x
      value: -0.49269393
      objectReference: {fileID: 0}
    - target: {fileID: 6194825235413791197, guid: 4bd63747079a3477ab1fda6c3f72d557,
        type: 3}
      propertyPath: m_Tangents.Array.data[98].x
      value: -0.49269393
      objectReference: {fileID: 0}
    - target: {fileID: 6194825235413791197, guid: 4bd63747079a3477ab1fda6c3f72d557,
        type: 3}
      propertyPath: m_SelectedVertices.Array.size
      value: 0
      objectReference: {fileID: 0}
    - target: {fileID: 6194825235413791197, guid: 4bd63747079a3477ab1fda6c3f72d557,
        type: 3}
      propertyPath: m_Textures0.Array.data[100].y
      value: -0.14780629
      objectReference: {fileID: 0}
    - target: {fileID: 6194825235413791197, guid: 4bd63747079a3477ab1fda6c3f72d557,
        type: 3}
      propertyPath: m_Textures0.Array.data[101].y
      value: -0.14780629
      objectReference: {fileID: 0}
    - target: {fileID: 6194825235413791197, guid: 4bd63747079a3477ab1fda6c3f72d557,
        type: 3}
      propertyPath: m_Textures0.Array.data[102].y
      value: -0.032890566
      objectReference: {fileID: 0}
    - target: {fileID: 6194825235413791197, guid: 4bd63747079a3477ab1fda6c3f72d557,
        type: 3}
      propertyPath: m_Textures0.Array.data[103].y
      value: -0.032890566
      objectReference: {fileID: 0}
    - target: {fileID: 6194825235413791197, guid: 4bd63747079a3477ab1fda6c3f72d557,
        type: 3}
      propertyPath: m_Textures0.Array.data[132].y
      value: -1.7190564
      objectReference: {fileID: 0}
    - target: {fileID: 6194825235413791197, guid: 4bd63747079a3477ab1fda6c3f72d557,
        type: 3}
      propertyPath: m_Textures0.Array.data[133].y
      value: -1.7190564
      objectReference: {fileID: 0}
    - target: {fileID: 6194825235413791197, guid: 4bd63747079a3477ab1fda6c3f72d557,
        type: 3}
      propertyPath: m_Textures0.Array.data[134].y
      value: -1.3372449
      objectReference: {fileID: 0}
    - target: {fileID: 6194825235413791197, guid: 4bd63747079a3477ab1fda6c3f72d557,
        type: 3}
      propertyPath: m_Textures0.Array.data[135].y
      value: -1.3372449
      objectReference: {fileID: 0}
    - target: {fileID: 6194825235413791198, guid: 4bd63747079a3477ab1fda6c3f72d557,
        type: 3}
      propertyPath: m_Materials.Array.data[0]
      value: 
      objectReference: {fileID: 2100000, guid: 5e2dea80cc3224df284de6c6750072b4, type: 2}
    - target: {fileID: 6194825235413791198, guid: 4bd63747079a3477ab1fda6c3f72d557,
        type: 3}
      propertyPath: m_Materials.Array.data[1]
      value: 
      objectReference: {fileID: 2100000, guid: 0cadfaafb47424573849c1927ba2bf87, type: 2}
    - target: {fileID: 6194825235476258391, guid: 4bd63747079a3477ab1fda6c3f72d557,
        type: 3}
      propertyPath: m_RootOrder
      value: 0
      objectReference: {fileID: 0}
    - target: {fileID: 6194825235476258391, guid: 4bd63747079a3477ab1fda6c3f72d557,
        type: 3}
      propertyPath: m_LocalPosition.x
      value: -0.89536285
      objectReference: {fileID: 0}
    - target: {fileID: 6194825235476258391, guid: 4bd63747079a3477ab1fda6c3f72d557,
        type: 3}
      propertyPath: m_LocalPosition.y
      value: 0.01612854
      objectReference: {fileID: 0}
    - target: {fileID: 6194825235476258391, guid: 4bd63747079a3477ab1fda6c3f72d557,
        type: 3}
      propertyPath: m_LocalPosition.z
      value: -2.9866104
      objectReference: {fileID: 0}
    - target: {fileID: 6194825235476258391, guid: 4bd63747079a3477ab1fda6c3f72d557,
        type: 3}
      propertyPath: m_LocalRotation.w
      value: 0.7071068
      objectReference: {fileID: 0}
    - target: {fileID: 6194825235476258391, guid: 4bd63747079a3477ab1fda6c3f72d557,
        type: 3}
      propertyPath: m_LocalRotation.x
      value: -0
      objectReference: {fileID: 0}
    - target: {fileID: 6194825235476258391, guid: 4bd63747079a3477ab1fda6c3f72d557,
        type: 3}
      propertyPath: m_LocalRotation.y
      value: -0.7071068
      objectReference: {fileID: 0}
    - target: {fileID: 6194825235476258391, guid: 4bd63747079a3477ab1fda6c3f72d557,
        type: 3}
      propertyPath: m_LocalRotation.z
      value: -0
      objectReference: {fileID: 0}
    - target: {fileID: 6194825235476258391, guid: 4bd63747079a3477ab1fda6c3f72d557,
        type: 3}
      propertyPath: m_LocalEulerAnglesHint.x
      value: 0
      objectReference: {fileID: 0}
    - target: {fileID: 6194825235476258391, guid: 4bd63747079a3477ab1fda6c3f72d557,
        type: 3}
      propertyPath: m_LocalEulerAnglesHint.y
      value: -90
      objectReference: {fileID: 0}
    - target: {fileID: 6194825235476258391, guid: 4bd63747079a3477ab1fda6c3f72d557,
        type: 3}
      propertyPath: m_LocalEulerAnglesHint.z
      value: 0
      objectReference: {fileID: 0}
    - target: {fileID: 6194825235476258396, guid: 4bd63747079a3477ab1fda6c3f72d557,
        type: 3}
      propertyPath: rigid
      value: 
      objectReference: {fileID: 5829033374383168008}
    - target: {fileID: 6194825235476258396, guid: 4bd63747079a3477ab1fda6c3f72d557,
        type: 3}
      propertyPath: entityTime
      value: 
      objectReference: {fileID: 2636249011134792091}
    - target: {fileID: 6194825235476258408, guid: 4bd63747079a3477ab1fda6c3f72d557,
        type: 3}
      propertyPath: m_Name
      value: Sled (Physics) (Variant 3)
      objectReference: {fileID: 0}
    - target: {fileID: 6194825235476258409, guid: 4bd63747079a3477ab1fda6c3f72d557,
        type: 3}
      propertyPath: m_Mass
      value: 75
      objectReference: {fileID: 0}
    - target: {fileID: 6194825235476258411, guid: 4bd63747079a3477ab1fda6c3f72d557,
        type: 3}
      propertyPath: m_Material
      value: 
      objectReference: {fileID: 13400000, guid: b0bc80f413bec432eacd6e4f829d827d,
        type: 2}
    - target: {fileID: 6194825235655192693, guid: 4bd63747079a3477ab1fda6c3f72d557,
        type: 3}
      propertyPath: m_Tangents.Array.data[52].x
      value: 0.7071068
      objectReference: {fileID: 0}
    - target: {fileID: 6194825235655192693, guid: 4bd63747079a3477ab1fda6c3f72d557,
        type: 3}
      propertyPath: m_Tangents.Array.data[52].y
      value: 0.70710677
      objectReference: {fileID: 0}
    - target: {fileID: 6194825235655192693, guid: 4bd63747079a3477ab1fda6c3f72d557,
        type: 3}
      propertyPath: m_Tangents.Array.data[52].z
      value: -1.6296941e-14
      objectReference: {fileID: 0}
    - target: {fileID: 6194825235655192693, guid: 4bd63747079a3477ab1fda6c3f72d557,
        type: 3}
      propertyPath: m_Tangents.Array.data[53].x
      value: 0.7071068
      objectReference: {fileID: 0}
    - target: {fileID: 6194825235655192693, guid: 4bd63747079a3477ab1fda6c3f72d557,
        type: 3}
      propertyPath: m_Tangents.Array.data[53].y
      value: 0.70710677
      objectReference: {fileID: 0}
    - target: {fileID: 6194825235655192693, guid: 4bd63747079a3477ab1fda6c3f72d557,
        type: 3}
      propertyPath: m_Tangents.Array.data[53].z
      value: 3.1123785e-14
      objectReference: {fileID: 0}
    - target: {fileID: 6194825235655192693, guid: 4bd63747079a3477ab1fda6c3f72d557,
        type: 3}
      propertyPath: m_Tangents.Array.data[54].x
      value: 0.7071068
      objectReference: {fileID: 0}
    - target: {fileID: 6194825235655192693, guid: 4bd63747079a3477ab1fda6c3f72d557,
        type: 3}
      propertyPath: m_Tangents.Array.data[54].y
      value: 0.70710677
      objectReference: {fileID: 0}
    - target: {fileID: 6194825235655192693, guid: 4bd63747079a3477ab1fda6c3f72d557,
        type: 3}
      propertyPath: m_Tangents.Array.data[54].z
      value: 3.1123785e-14
      objectReference: {fileID: 0}
    - target: {fileID: 6194825235655192693, guid: 4bd63747079a3477ab1fda6c3f72d557,
        type: 3}
      propertyPath: m_Tangents.Array.data[55].z
      value: 0
      objectReference: {fileID: 0}
    - target: {fileID: 6194825235655192693, guid: 4bd63747079a3477ab1fda6c3f72d557,
        type: 3}
      propertyPath: m_Tangents.Array.data[64].x
      value: 0.7071064
      objectReference: {fileID: 0}
    - target: {fileID: 6194825235655192693, guid: 4bd63747079a3477ab1fda6c3f72d557,
        type: 3}
      propertyPath: m_Tangents.Array.data[64].z
      value: 0.70710725
      objectReference: {fileID: 0}
    - target: {fileID: 6194825235655192693, guid: 4bd63747079a3477ab1fda6c3f72d557,
        type: 3}
      propertyPath: m_Tangents.Array.data[65].x
      value: 0.7071064
      objectReference: {fileID: 0}
    - target: {fileID: 6194825235655192693, guid: 4bd63747079a3477ab1fda6c3f72d557,
        type: 3}
      propertyPath: m_Tangents.Array.data[65].z
      value: 0.70710725
      objectReference: {fileID: 0}
    - target: {fileID: 6194825235655192693, guid: 4bd63747079a3477ab1fda6c3f72d557,
        type: 3}
      propertyPath: m_Tangents.Array.data[66].x
      value: 0.7071064
      objectReference: {fileID: 0}
    - target: {fileID: 6194825235655192693, guid: 4bd63747079a3477ab1fda6c3f72d557,
        type: 3}
      propertyPath: m_Tangents.Array.data[66].z
      value: 0.70710725
      objectReference: {fileID: 0}
    - target: {fileID: 6194825235655192693, guid: 4bd63747079a3477ab1fda6c3f72d557,
        type: 3}
      propertyPath: m_Tangents.Array.data[67].x
      value: 0.7071064
      objectReference: {fileID: 0}
    - target: {fileID: 6194825235655192693, guid: 4bd63747079a3477ab1fda6c3f72d557,
        type: 3}
      propertyPath: m_Tangents.Array.data[67].z
      value: 0.70710725
      objectReference: {fileID: 0}
    - target: {fileID: 6194825235655192693, guid: 4bd63747079a3477ab1fda6c3f72d557,
        type: 3}
      propertyPath: m_Textures0.Array.data[44].x
      value: -1.0223714
      objectReference: {fileID: 0}
    - target: {fileID: 6194825235655192693, guid: 4bd63747079a3477ab1fda6c3f72d557,
        type: 3}
      propertyPath: m_Textures0.Array.data[45].x
      value: -1.0223714
      objectReference: {fileID: 0}
    - target: {fileID: 6194825235655192693, guid: 4bd63747079a3477ab1fda6c3f72d557,
        type: 3}
      propertyPath: m_Textures0.Array.data[46].x
      value: -1.0930821
      objectReference: {fileID: 0}
    - target: {fileID: 6194825235655192693, guid: 4bd63747079a3477ab1fda6c3f72d557,
        type: 3}
      propertyPath: m_Textures0.Array.data[47].x
      value: -1.0930821
      objectReference: {fileID: 0}
    - target: {fileID: 6194825235655192693, guid: 4bd63747079a3477ab1fda6c3f72d557,
        type: 3}
      propertyPath: m_Textures0.Array.data[48].x
      value: 0.14142135
      objectReference: {fileID: 0}
    - target: {fileID: 6194825235655192693, guid: 4bd63747079a3477ab1fda6c3f72d557,
        type: 3}
      propertyPath: m_Textures0.Array.data[49].x
      value: 0.14142135
      objectReference: {fileID: 0}
    - target: {fileID: 6194825235655192693, guid: 4bd63747079a3477ab1fda6c3f72d557,
        type: 3}
      propertyPath: m_Textures0.Array.data[50].x
      value: 0.21213204
      objectReference: {fileID: 0}
    - target: {fileID: 6194825235655192693, guid: 4bd63747079a3477ab1fda6c3f72d557,
        type: 3}
      propertyPath: m_Textures0.Array.data[51].x
      value: 0.21213204
      objectReference: {fileID: 0}
    - target: {fileID: 6194825235655192693, guid: 4bd63747079a3477ab1fda6c3f72d557,
        type: 3}
      propertyPath: m_Textures0.Array.data[52].x
      value: -0.6363959
      objectReference: {fileID: 0}
    - target: {fileID: 6194825235655192693, guid: 4bd63747079a3477ab1fda6c3f72d557,
        type: 3}
      propertyPath: m_Textures0.Array.data[53].x
      value: -0.63639575
      objectReference: {fileID: 0}
    - target: {fileID: 6194825235655192693, guid: 4bd63747079a3477ab1fda6c3f72d557,
        type: 3}
      propertyPath: m_Textures0.Array.data[60].x
      value: -0.9192377
      objectReference: {fileID: 0}
    - target: {fileID: 6194825235655192693, guid: 4bd63747079a3477ab1fda6c3f72d557,
        type: 3}
      propertyPath: m_Textures0.Array.data[61].x
      value: -0.9192377
      objectReference: {fileID: 0}
    - target: {fileID: 6194825235655192693, guid: 4bd63747079a3477ab1fda6c3f72d557,
        type: 3}
      propertyPath: m_Textures0.Array.data[62].x
      value: -0.848527
      objectReference: {fileID: 0}
    - target: {fileID: 6194825235655192693, guid: 4bd63747079a3477ab1fda6c3f72d557,
        type: 3}
      propertyPath: m_Textures0.Array.data[63].x
      value: -0.848527
      objectReference: {fileID: 0}
    - target: {fileID: 6194825235655192693, guid: 4bd63747079a3477ab1fda6c3f72d557,
        type: 3}
      propertyPath: m_Textures0.Array.data[64].x
      value: 1.8001882
      objectReference: {fileID: 0}
    - target: {fileID: 6194825235655192693, guid: 4bd63747079a3477ab1fda6c3f72d557,
        type: 3}
      propertyPath: m_Textures0.Array.data[65].x
      value: 1.8001882
      objectReference: {fileID: 0}
    - target: {fileID: 6194825235655192693, guid: 4bd63747079a3477ab1fda6c3f72d557,
        type: 3}
      propertyPath: m_Textures0.Array.data[66].x
      value: 1.7294776
      objectReference: {fileID: 0}
    - target: {fileID: 6194825235655192693, guid: 4bd63747079a3477ab1fda6c3f72d557,
        type: 3}
      propertyPath: m_Textures0.Array.data[67].x
      value: 1.7294776
      objectReference: {fileID: 0}
    - target: {fileID: 6194825235655192693, guid: 4bd63747079a3477ab1fda6c3f72d557,
        type: 3}
      propertyPath: m_Textures0.Array.data[68].x
      value: 1.3435019
      objectReference: {fileID: 0}
    - target: {fileID: 6194825235655192693, guid: 4bd63747079a3477ab1fda6c3f72d557,
        type: 3}
      propertyPath: m_Textures0.Array.data[69].x
      value: 1.343502
      objectReference: {fileID: 0}
    - target: {fileID: 6194825235655192693, guid: 4bd63747079a3477ab1fda6c3f72d557,
        type: 3}
      propertyPath: m_Textures0.Array.data[70].x
      value: 1.2727913
      objectReference: {fileID: 0}
    - target: {fileID: 6194825235655192693, guid: 4bd63747079a3477ab1fda6c3f72d557,
        type: 3}
      propertyPath: m_Textures0.Array.data[71].x
      value: 1.2727914
      objectReference: {fileID: 0}
    - target: {fileID: 6194825235655192694, guid: 4bd63747079a3477ab1fda6c3f72d557,
        type: 3}
      propertyPath: m_Materials.Array.data[0]
      value: 
      objectReference: {fileID: 2100000, guid: 5e2dea80cc3224df284de6c6750072b4, type: 2}
    - target: {fileID: 6194825235785493784, guid: 4bd63747079a3477ab1fda6c3f72d557,
        type: 3}
      propertyPath: m_SelectedEdges.Array.size
      value: 0
      objectReference: {fileID: 0}
    - target: {fileID: 6194825235785493784, guid: 4bd63747079a3477ab1fda6c3f72d557,
        type: 3}
      propertyPath: m_SelectedFaces.Array.size
      value: 0
      objectReference: {fileID: 0}
    - target: {fileID: 6194825235785493784, guid: 4bd63747079a3477ab1fda6c3f72d557,
        type: 3}
      propertyPath: m_Tangents.Array.data[52].x
      value: 0.7071068
      objectReference: {fileID: 0}
    - target: {fileID: 6194825235785493784, guid: 4bd63747079a3477ab1fda6c3f72d557,
        type: 3}
      propertyPath: m_Tangents.Array.data[52].y
      value: 0.70710677
      objectReference: {fileID: 0}
    - target: {fileID: 6194825235785493784, guid: 4bd63747079a3477ab1fda6c3f72d557,
        type: 3}
      propertyPath: m_Tangents.Array.data[52].z
      value: -1.6296941e-14
      objectReference: {fileID: 0}
    - target: {fileID: 6194825235785493784, guid: 4bd63747079a3477ab1fda6c3f72d557,
        type: 3}
      propertyPath: m_Tangents.Array.data[53].x
      value: 0.7071068
      objectReference: {fileID: 0}
    - target: {fileID: 6194825235785493784, guid: 4bd63747079a3477ab1fda6c3f72d557,
        type: 3}
      propertyPath: m_Tangents.Array.data[53].y
      value: 0.70710677
      objectReference: {fileID: 0}
    - target: {fileID: 6194825235785493784, guid: 4bd63747079a3477ab1fda6c3f72d557,
        type: 3}
      propertyPath: m_Tangents.Array.data[53].z
      value: 3.1123785e-14
      objectReference: {fileID: 0}
    - target: {fileID: 6194825235785493784, guid: 4bd63747079a3477ab1fda6c3f72d557,
        type: 3}
      propertyPath: m_Tangents.Array.data[54].x
      value: 0.7071068
      objectReference: {fileID: 0}
    - target: {fileID: 6194825235785493784, guid: 4bd63747079a3477ab1fda6c3f72d557,
        type: 3}
      propertyPath: m_Tangents.Array.data[54].y
      value: 0.70710677
      objectReference: {fileID: 0}
    - target: {fileID: 6194825235785493784, guid: 4bd63747079a3477ab1fda6c3f72d557,
        type: 3}
      propertyPath: m_Tangents.Array.data[54].z
      value: 3.1123785e-14
      objectReference: {fileID: 0}
    - target: {fileID: 6194825235785493784, guid: 4bd63747079a3477ab1fda6c3f72d557,
        type: 3}
      propertyPath: m_Tangents.Array.data[55].z
      value: 0
      objectReference: {fileID: 0}
    - target: {fileID: 6194825235785493784, guid: 4bd63747079a3477ab1fda6c3f72d557,
        type: 3}
      propertyPath: m_Tangents.Array.data[64].x
      value: 0.7071064
      objectReference: {fileID: 0}
    - target: {fileID: 6194825235785493784, guid: 4bd63747079a3477ab1fda6c3f72d557,
        type: 3}
      propertyPath: m_Tangents.Array.data[64].z
      value: 0.70710725
      objectReference: {fileID: 0}
    - target: {fileID: 6194825235785493784, guid: 4bd63747079a3477ab1fda6c3f72d557,
        type: 3}
      propertyPath: m_Tangents.Array.data[65].x
      value: 0.7071064
      objectReference: {fileID: 0}
    - target: {fileID: 6194825235785493784, guid: 4bd63747079a3477ab1fda6c3f72d557,
        type: 3}
      propertyPath: m_Tangents.Array.data[65].z
      value: 0.70710725
      objectReference: {fileID: 0}
    - target: {fileID: 6194825235785493784, guid: 4bd63747079a3477ab1fda6c3f72d557,
        type: 3}
      propertyPath: m_Tangents.Array.data[66].x
      value: 0.7071064
      objectReference: {fileID: 0}
    - target: {fileID: 6194825235785493784, guid: 4bd63747079a3477ab1fda6c3f72d557,
        type: 3}
      propertyPath: m_Tangents.Array.data[66].z
      value: 0.70710725
      objectReference: {fileID: 0}
    - target: {fileID: 6194825235785493784, guid: 4bd63747079a3477ab1fda6c3f72d557,
        type: 3}
      propertyPath: m_Tangents.Array.data[67].x
      value: 0.7071064
      objectReference: {fileID: 0}
    - target: {fileID: 6194825235785493784, guid: 4bd63747079a3477ab1fda6c3f72d557,
        type: 3}
      propertyPath: m_Tangents.Array.data[67].z
      value: 0.70710725
      objectReference: {fileID: 0}
    - target: {fileID: 6194825235785493784, guid: 4bd63747079a3477ab1fda6c3f72d557,
        type: 3}
      propertyPath: m_Textures0.Array.data[44].x
      value: -1.0223714
      objectReference: {fileID: 0}
    - target: {fileID: 6194825235785493784, guid: 4bd63747079a3477ab1fda6c3f72d557,
        type: 3}
      propertyPath: m_Textures0.Array.data[45].x
      value: -1.0223714
      objectReference: {fileID: 0}
    - target: {fileID: 6194825235785493784, guid: 4bd63747079a3477ab1fda6c3f72d557,
        type: 3}
      propertyPath: m_Textures0.Array.data[46].x
      value: -1.0930821
      objectReference: {fileID: 0}
    - target: {fileID: 6194825235785493784, guid: 4bd63747079a3477ab1fda6c3f72d557,
        type: 3}
      propertyPath: m_Textures0.Array.data[47].x
      value: -1.0930821
      objectReference: {fileID: 0}
    - target: {fileID: 6194825235785493784, guid: 4bd63747079a3477ab1fda6c3f72d557,
        type: 3}
      propertyPath: m_Textures0.Array.data[48].x
      value: 0.14142135
      objectReference: {fileID: 0}
    - target: {fileID: 6194825235785493784, guid: 4bd63747079a3477ab1fda6c3f72d557,
        type: 3}
      propertyPath: m_Textures0.Array.data[49].x
      value: 0.14142135
      objectReference: {fileID: 0}
    - target: {fileID: 6194825235785493784, guid: 4bd63747079a3477ab1fda6c3f72d557,
        type: 3}
      propertyPath: m_Textures0.Array.data[50].x
      value: 0.21213204
      objectReference: {fileID: 0}
    - target: {fileID: 6194825235785493784, guid: 4bd63747079a3477ab1fda6c3f72d557,
        type: 3}
      propertyPath: m_Textures0.Array.data[51].x
      value: 0.21213204
      objectReference: {fileID: 0}
    - target: {fileID: 6194825235785493784, guid: 4bd63747079a3477ab1fda6c3f72d557,
        type: 3}
      propertyPath: m_Textures0.Array.data[52].x
      value: -0.6363959
      objectReference: {fileID: 0}
    - target: {fileID: 6194825235785493784, guid: 4bd63747079a3477ab1fda6c3f72d557,
        type: 3}
      propertyPath: m_Textures0.Array.data[53].x
      value: -0.63639575
      objectReference: {fileID: 0}
    - target: {fileID: 6194825235785493784, guid: 4bd63747079a3477ab1fda6c3f72d557,
        type: 3}
      propertyPath: m_Textures0.Array.data[60].x
      value: -0.9192377
      objectReference: {fileID: 0}
    - target: {fileID: 6194825235785493784, guid: 4bd63747079a3477ab1fda6c3f72d557,
        type: 3}
      propertyPath: m_Textures0.Array.data[61].x
      value: -0.9192377
      objectReference: {fileID: 0}
    - target: {fileID: 6194825235785493784, guid: 4bd63747079a3477ab1fda6c3f72d557,
        type: 3}
      propertyPath: m_Textures0.Array.data[62].x
      value: -0.848527
      objectReference: {fileID: 0}
    - target: {fileID: 6194825235785493784, guid: 4bd63747079a3477ab1fda6c3f72d557,
        type: 3}
      propertyPath: m_Textures0.Array.data[63].x
      value: -0.848527
      objectReference: {fileID: 0}
    - target: {fileID: 6194825235785493784, guid: 4bd63747079a3477ab1fda6c3f72d557,
        type: 3}
      propertyPath: m_Textures0.Array.data[64].x
      value: 1.8001882
      objectReference: {fileID: 0}
    - target: {fileID: 6194825235785493784, guid: 4bd63747079a3477ab1fda6c3f72d557,
        type: 3}
      propertyPath: m_Textures0.Array.data[65].x
      value: 1.8001882
      objectReference: {fileID: 0}
    - target: {fileID: 6194825235785493784, guid: 4bd63747079a3477ab1fda6c3f72d557,
        type: 3}
      propertyPath: m_Textures0.Array.data[66].x
      value: 1.7294776
      objectReference: {fileID: 0}
    - target: {fileID: 6194825235785493784, guid: 4bd63747079a3477ab1fda6c3f72d557,
        type: 3}
      propertyPath: m_Textures0.Array.data[67].x
      value: 1.7294776
      objectReference: {fileID: 0}
    - target: {fileID: 6194825235785493784, guid: 4bd63747079a3477ab1fda6c3f72d557,
        type: 3}
      propertyPath: m_Textures0.Array.data[68].x
      value: 1.3435019
      objectReference: {fileID: 0}
    - target: {fileID: 6194825235785493784, guid: 4bd63747079a3477ab1fda6c3f72d557,
        type: 3}
      propertyPath: m_Textures0.Array.data[69].x
      value: 1.343502
      objectReference: {fileID: 0}
    - target: {fileID: 6194825235785493784, guid: 4bd63747079a3477ab1fda6c3f72d557,
        type: 3}
      propertyPath: m_Textures0.Array.data[70].x
      value: 1.2727913
      objectReference: {fileID: 0}
    - target: {fileID: 6194825235785493784, guid: 4bd63747079a3477ab1fda6c3f72d557,
        type: 3}
      propertyPath: m_Textures0.Array.data[71].x
      value: 1.2727914
      objectReference: {fileID: 0}
    - target: {fileID: 6194825235785493784, guid: 4bd63747079a3477ab1fda6c3f72d557,
        type: 3}
      propertyPath: m_SelectedVertices.Array.size
      value: 0
      objectReference: {fileID: 0}
    - target: {fileID: 6194825235785493785, guid: 4bd63747079a3477ab1fda6c3f72d557,
        type: 3}
      propertyPath: m_Materials.Array.data[0]
      value: 
      objectReference: {fileID: 2100000, guid: 5e2dea80cc3224df284de6c6750072b4, type: 2}
    m_RemovedComponents:
    - {fileID: 2166331755995427121, guid: 4bd63747079a3477ab1fda6c3f72d557, type: 3}
    - {fileID: 1684036325065212921, guid: 4bd63747079a3477ab1fda6c3f72d557, type: 3}
  m_SourcePrefab: {fileID: 100100000, guid: 4bd63747079a3477ab1fda6c3f72d557, type: 3}
--- !u!54 &5829033374383168008 stripped
Rigidbody:
  m_CorrespondingSourceObject: {fileID: 6194825235476258409, guid: 4bd63747079a3477ab1fda6c3f72d557,
    type: 3}
  m_PrefabInstance: {fileID: 368330084222846049}
  m_PrefabAsset: {fileID: 0}
--- !u!114 &2636249011134792091 stripped
MonoBehaviour:
  m_CorrespondingSourceObject: {fileID: 2416538268869543418, guid: 4bd63747079a3477ab1fda6c3f72d557,
    type: 3}
  m_PrefabInstance: {fileID: 368330084222846049}
  m_PrefabAsset: {fileID: 0}
  m_GameObject: {fileID: 0}
  m_Enabled: 1
  m_EditorHideFlags: 0
  m_Script: {fileID: 11500000, guid: 32d283f7ca1351d44b57f85ae3e5fcdd, type: 3}
  m_Name: 
  m_EditorClassIdentifier: 
