%YAML 1.1
%TAG !u! tag:unity3d.com,2011:
--- !u!1001 &6973540133585498067
PrefabInstance:
  m_ObjectHideFlags: 0
  serializedVersion: 2
  m_Modification:
    m_TransformParent: {fileID: 0}
    m_Modifications:
    - target: {fileID: 185501749195018965, guid: 476cf961fc3eaa243ad4db30a3b87fa1,
        type: 3}
      propertyPath: m_Tangents.Array.data[38].x
      value: 0.00000012157314
      objectReference: {fileID: 0}
    - target: {fileID: 185501749195018965, guid: 476cf961fc3eaa243ad4db30a3b87fa1,
        type: 3}
      propertyPath: m_Tangents.Array.data[38].y
      value: 0
      objectReference: {fileID: 0}
    - target: {fileID: 185501749195018965, guid: 476cf961fc3eaa243ad4db30a3b87fa1,
        type: 3}
      propertyPath: m_Tangents.Array.data[43].x
      value: -0.00000010862157
      objectReference: {fileID: 0}
    - target: {fileID: 185501749195018965, guid: 476cf961fc3eaa243ad4db30a3b87fa1,
        type: 3}
      propertyPath: m_Tangents.Array.data[43].y
      value: -3.699659e-16
      objectReference: {fileID: 0}
    - target: {fileID: 185501749195018965, guid: 476cf961fc3eaa243ad4db30a3b87fa1,
        type: 3}
      propertyPath: m_Tangents.Array.data[44].x
      value: -0.00000010862157
      objectReference: {fileID: 0}
    - target: {fileID: 185501749195018965, guid: 476cf961fc3eaa243ad4db30a3b87fa1,
        type: 3}
      propertyPath: m_Tangents.Array.data[44].y
      value: -3.699659e-16
      objectReference: {fileID: 0}
    - target: {fileID: 185501749195018965, guid: 476cf961fc3eaa243ad4db30a3b87fa1,
        type: 3}
      propertyPath: m_Tangents.Array.data[46].y
      value: 0
      objectReference: {fileID: 0}
    - target: {fileID: 185501749195018965, guid: 476cf961fc3eaa243ad4db30a3b87fa1,
        type: 3}
      propertyPath: m_Tangents.Array.data[46].z
      value: -0.00000012157298
      objectReference: {fileID: 0}
    - target: {fileID: 185501749195018965, guid: 476cf961fc3eaa243ad4db30a3b87fa1,
        type: 3}
      propertyPath: m_Tangents.Array.data[47].y
      value: 3.699659e-16
      objectReference: {fileID: 0}
    - target: {fileID: 185501749195018965, guid: 476cf961fc3eaa243ad4db30a3b87fa1,
        type: 3}
      propertyPath: m_Tangents.Array.data[48].y
      value: 3.699659e-16
      objectReference: {fileID: 0}
    - target: {fileID: 185501749195018965, guid: 476cf961fc3eaa243ad4db30a3b87fa1,
        type: 3}
      propertyPath: m_Tangents.Array.data[115].y
      value: 0.0000001891952
      objectReference: {fileID: 0}
    - target: {fileID: 185501749195018965, guid: 476cf961fc3eaa243ad4db30a3b87fa1,
        type: 3}
      propertyPath: m_Tangents.Array.data[115].z
      value: -0.00000027248876
      objectReference: {fileID: 0}
    - target: {fileID: 185501749195018965, guid: 476cf961fc3eaa243ad4db30a3b87fa1,
        type: 3}
      propertyPath: m_Tangents.Array.data[116].y
      value: 0.0000001891952
      objectReference: {fileID: 0}
    - target: {fileID: 185501749195018965, guid: 476cf961fc3eaa243ad4db30a3b87fa1,
        type: 3}
      propertyPath: m_Tangents.Array.data[116].z
      value: -0.00000027248876
      objectReference: {fileID: 0}
    - target: {fileID: 185501749195018965, guid: 476cf961fc3eaa243ad4db30a3b87fa1,
        type: 3}
      propertyPath: m_Tangents.Array.data[117].y
      value: 0.0000003783904
      objectReference: {fileID: 0}
    - target: {fileID: 185501749195018965, guid: 476cf961fc3eaa243ad4db30a3b87fa1,
        type: 3}
      propertyPath: m_Tangents.Array.data[117].z
      value: -0.00000054497747
      objectReference: {fileID: 0}
    - target: {fileID: 185501749195018965, guid: 476cf961fc3eaa243ad4db30a3b87fa1,
        type: 3}
      propertyPath: m_Tangents.Array.data[127].y
      value: -0.00000006306493
      objectReference: {fileID: 0}
    - target: {fileID: 185501749195018965, guid: 476cf961fc3eaa243ad4db30a3b87fa1,
        type: 3}
      propertyPath: m_Tangents.Array.data[128].y
      value: -0.00000006306493
      objectReference: {fileID: 0}
    - target: {fileID: 185501749195018965, guid: 476cf961fc3eaa243ad4db30a3b87fa1,
        type: 3}
      propertyPath: m_Tangents.Array.data[135].y
      value: -0.000000033870343
      objectReference: {fileID: 0}
    - target: {fileID: 185501749195018965, guid: 476cf961fc3eaa243ad4db30a3b87fa1,
        type: 3}
      propertyPath: m_Tangents.Array.data[135].z
      value: -0.000000012390766
      objectReference: {fileID: 0}
    - target: {fileID: 185501749195018965, guid: 476cf961fc3eaa243ad4db30a3b87fa1,
        type: 3}
      propertyPath: m_Tangents.Array.data[136].y
      value: -0.000000033870343
      objectReference: {fileID: 0}
    - target: {fileID: 185501749195018965, guid: 476cf961fc3eaa243ad4db30a3b87fa1,
        type: 3}
      propertyPath: m_Tangents.Array.data[136].z
      value: -0.000000012390766
      objectReference: {fileID: 0}
    - target: {fileID: 185501749195018965, guid: 476cf961fc3eaa243ad4db30a3b87fa1,
        type: 3}
      propertyPath: m_Tangents.Array.data[158].y
      value: 0.000000033550595
      objectReference: {fileID: 0}
    - target: {fileID: 185501749195018965, guid: 476cf961fc3eaa243ad4db30a3b87fa1,
        type: 3}
      propertyPath: m_Tangents.Array.data[158].z
      value: -0.7071073
      objectReference: {fileID: 0}
    - target: {fileID: 185501749195018965, guid: 476cf961fc3eaa243ad4db30a3b87fa1,
        type: 3}
      propertyPath: m_Tangents.Array.data[159].y
      value: 0.000000033550595
      objectReference: {fileID: 0}
    - target: {fileID: 185501749195018965, guid: 476cf961fc3eaa243ad4db30a3b87fa1,
        type: 3}
      propertyPath: m_Tangents.Array.data[159].z
      value: -0.7071073
      objectReference: {fileID: 0}
    - target: {fileID: 185501749195018965, guid: 476cf961fc3eaa243ad4db30a3b87fa1,
        type: 3}
      propertyPath: m_Tangents.Array.data[160].y
      value: 0.000000033550595
      objectReference: {fileID: 0}
    - target: {fileID: 185501749195018965, guid: 476cf961fc3eaa243ad4db30a3b87fa1,
        type: 3}
      propertyPath: m_Tangents.Array.data[160].z
      value: -0.7071073
      objectReference: {fileID: 0}
    - target: {fileID: 185501749195018965, guid: 476cf961fc3eaa243ad4db30a3b87fa1,
        type: 3}
      propertyPath: m_Tangents.Array.data[167].z
      value: 0.000000027590334
      objectReference: {fileID: 0}
    - target: {fileID: 185501749195018965, guid: 476cf961fc3eaa243ad4db30a3b87fa1,
        type: 3}
      propertyPath: m_Tangents.Array.data[168].z
      value: 0.000000027590334
      objectReference: {fileID: 0}
    - target: {fileID: 185501749195018965, guid: 476cf961fc3eaa243ad4db30a3b87fa1,
        type: 3}
      propertyPath: m_Tangents.Array.data[169].z
      value: 0.000000027590334
      objectReference: {fileID: 0}
    - target: {fileID: 185501749195018965, guid: 476cf961fc3eaa243ad4db30a3b87fa1,
        type: 3}
      propertyPath: m_Textures0.Array.data[110].y
      value: -0.17552976
      objectReference: {fileID: 0}
    - target: {fileID: 185501749195018965, guid: 476cf961fc3eaa243ad4db30a3b87fa1,
        type: 3}
      propertyPath: m_Textures0.Array.data[111].y
      value: -0.17552976
      objectReference: {fileID: 0}
    - target: {fileID: 185501749195018965, guid: 476cf961fc3eaa243ad4db30a3b87fa1,
        type: 3}
      propertyPath: m_Textures0.Array.data[112].y
      value: -0.2053601
      objectReference: {fileID: 0}
    - target: {fileID: 185501749195018965, guid: 476cf961fc3eaa243ad4db30a3b87fa1,
        type: 3}
      propertyPath: m_Textures0.Array.data[113].y
      value: -0.20536007
      objectReference: {fileID: 0}
    - target: {fileID: 185501749195018965, guid: 476cf961fc3eaa243ad4db30a3b87fa1,
        type: 3}
      propertyPath: m_Textures0.Array.data[114].y
      value: -0.12292268
      objectReference: {fileID: 0}
    - target: {fileID: 185501749195018965, guid: 476cf961fc3eaa243ad4db30a3b87fa1,
        type: 3}
      propertyPath: m_Textures0.Array.data[115].y
      value: -0.12292268
      objectReference: {fileID: 0}
    - target: {fileID: 185501749195018965, guid: 476cf961fc3eaa243ad4db30a3b87fa1,
        type: 3}
      propertyPath: m_Textures0.Array.data[116].y
      value: -0.15142712
      objectReference: {fileID: 0}
    - target: {fileID: 185501749195018965, guid: 476cf961fc3eaa243ad4db30a3b87fa1,
        type: 3}
      propertyPath: m_Textures0.Array.data[122].y
      value: -0.17552994
      objectReference: {fileID: 0}
    - target: {fileID: 185501749195018965, guid: 476cf961fc3eaa243ad4db30a3b87fa1,
        type: 3}
      propertyPath: m_Textures0.Array.data[123].y
      value: -0.17552994
      objectReference: {fileID: 0}
    - target: {fileID: 185501749195018965, guid: 476cf961fc3eaa243ad4db30a3b87fa1,
        type: 3}
      propertyPath: m_Textures0.Array.data[124].y
      value: -0.20536031
      objectReference: {fileID: 0}
    - target: {fileID: 185501749195018965, guid: 476cf961fc3eaa243ad4db30a3b87fa1,
        type: 3}
      propertyPath: m_Textures0.Array.data[125].y
      value: -0.2053603
      objectReference: {fileID: 0}
    - target: {fileID: 185501749195018965, guid: 476cf961fc3eaa243ad4db30a3b87fa1,
        type: 3}
      propertyPath: m_Textures0.Array.data[142].y
      value: -0.17553027
      objectReference: {fileID: 0}
    - target: {fileID: 185501749195018965, guid: 476cf961fc3eaa243ad4db30a3b87fa1,
        type: 3}
      propertyPath: m_Textures0.Array.data[143].y
      value: -0.17553027
      objectReference: {fileID: 0}
    - target: {fileID: 185501749195018965, guid: 476cf961fc3eaa243ad4db30a3b87fa1,
        type: 3}
      propertyPath: m_Textures0.Array.data[144].y
      value: -0.2053607
      objectReference: {fileID: 0}
    - target: {fileID: 185501749195018965, guid: 476cf961fc3eaa243ad4db30a3b87fa1,
        type: 3}
      propertyPath: m_Textures0.Array.data[145].y
      value: -0.20536062
      objectReference: {fileID: 0}
    - target: {fileID: 185501749195018965, guid: 476cf961fc3eaa243ad4db30a3b87fa1,
        type: 3}
      propertyPath: m_Textures0.Array.data[158].x
      value: 0.007905785
      objectReference: {fileID: 0}
    - target: {fileID: 185501749195018965, guid: 476cf961fc3eaa243ad4db30a3b87fa1,
        type: 3}
      propertyPath: m_Textures0.Array.data[159].x
      value: 0.017677648
      objectReference: {fileID: 0}
    - target: {fileID: 185501749195018965, guid: 476cf961fc3eaa243ad4db30a3b87fa1,
        type: 3}
      propertyPath: m_Textures0.Array.data[160].x
      value: -0.01767771
      objectReference: {fileID: 0}
    - target: {fileID: 194618011876945976, guid: 476cf961fc3eaa243ad4db30a3b87fa1,
        type: 3}
      propertyPath: m_Name
      value: Laser Projectile Emitter - Knockback
      objectReference: {fileID: 0}
    - target: {fileID: 194618011876945976, guid: 476cf961fc3eaa243ad4db30a3b87fa1,
        type: 3}
      propertyPath: m_IsActive
      value: 1
      objectReference: {fileID: 0}
    - target: {fileID: 363334087186144408, guid: 476cf961fc3eaa243ad4db30a3b87fa1,
        type: 3}
      propertyPath: m_Color.b
      value: 1
      objectReference: {fileID: 0}
    - target: {fileID: 363334087186144408, guid: 476cf961fc3eaa243ad4db30a3b87fa1,
        type: 3}
      propertyPath: m_Color.g
      value: 0.7216372
      objectReference: {fileID: 0}
    - target: {fileID: 363334087186144408, guid: 476cf961fc3eaa243ad4db30a3b87fa1,
        type: 3}
      propertyPath: m_Color.r
      value: 0.41176474
      objectReference: {fileID: 0}
    - target: {fileID: 1572817131258110283, guid: 476cf961fc3eaa243ad4db30a3b87fa1,
        type: 3}
      propertyPath: m_IsActive
      value: 1
      objectReference: {fileID: 0}
    - target: {fileID: 1572817131258110287, guid: 476cf961fc3eaa243ad4db30a3b87fa1,
        type: 3}
      propertyPath: m_Enabled
      value: 1
      objectReference: {fileID: 0}
    - target: {fileID: 1572817131258110287, guid: 476cf961fc3eaa243ad4db30a3b87fa1,
        type: 3}
      propertyPath: startupDuration
      value: 0.2
      objectReference: {fileID: 0}
    - target: {fileID: 1572817131258110287, guid: 476cf961fc3eaa243ad4db30a3b87fa1,
        type: 3}
      propertyPath: projectilePrefab
      value: 
      objectReference: {fileID: 5533149618546495600, guid: 0e0445f6cca7e4a44951a866fd980695,
        type: 3}
    - target: {fileID: 1572817131707008232, guid: 476cf961fc3eaa243ad4db30a3b87fa1,
        type: 3}
      propertyPath: m_RootOrder
      value: 0
      objectReference: {fileID: 0}
    - target: {fileID: 1572817131707008232, guid: 476cf961fc3eaa243ad4db30a3b87fa1,
        type: 3}
      propertyPath: m_LocalPosition.x
      value: 29.92
      objectReference: {fileID: 0}
    - target: {fileID: 1572817131707008232, guid: 476cf961fc3eaa243ad4db30a3b87fa1,
        type: 3}
      propertyPath: m_LocalPosition.y
      value: 0.4
      objectReference: {fileID: 0}
    - target: {fileID: 1572817131707008232, guid: 476cf961fc3eaa243ad4db30a3b87fa1,
        type: 3}
      propertyPath: m_LocalPosition.z
      value: -4.85
      objectReference: {fileID: 0}
    - target: {fileID: 1572817131707008232, guid: 476cf961fc3eaa243ad4db30a3b87fa1,
        type: 3}
      propertyPath: m_LocalRotation.w
      value: 0.7071068
      objectReference: {fileID: 0}
    - target: {fileID: 1572817131707008232, guid: 476cf961fc3eaa243ad4db30a3b87fa1,
        type: 3}
      propertyPath: m_LocalRotation.x
      value: 0
      objectReference: {fileID: 0}
    - target: {fileID: 1572817131707008232, guid: 476cf961fc3eaa243ad4db30a3b87fa1,
        type: 3}
      propertyPath: m_LocalRotation.y
      value: -0.7071068
      objectReference: {fileID: 0}
    - target: {fileID: 1572817131707008232, guid: 476cf961fc3eaa243ad4db30a3b87fa1,
        type: 3}
      propertyPath: m_LocalRotation.z
      value: 0
      objectReference: {fileID: 0}
    - target: {fileID: 1572817131707008232, guid: 476cf961fc3eaa243ad4db30a3b87fa1,
        type: 3}
      propertyPath: m_LocalEulerAnglesHint.x
      value: 0
      objectReference: {fileID: 0}
    - target: {fileID: 1572817131707008232, guid: 476cf961fc3eaa243ad4db30a3b87fa1,
        type: 3}
      propertyPath: m_LocalEulerAnglesHint.y
      value: -90
      objectReference: {fileID: 0}
    - target: {fileID: 1572817131707008232, guid: 476cf961fc3eaa243ad4db30a3b87fa1,
        type: 3}
      propertyPath: m_LocalEulerAnglesHint.z
      value: 0
      objectReference: {fileID: 0}
    - target: {fileID: 2823139345661002378, guid: 476cf961fc3eaa243ad4db30a3b87fa1,
        type: 3}
      propertyPath: drawDebug
      value: 1
      objectReference: {fileID: 0}
    - target: {fileID: 3496400635230697304, guid: 476cf961fc3eaa243ad4db30a3b87fa1,
        type: 3}
      propertyPath: m_Materials.Array.data[0]
      value: 
      objectReference: {fileID: 2100000, guid: 2feecb06133b3420694002da56c5857e, type: 2}
    - target: {fileID: 3496400635230697304, guid: 476cf961fc3eaa243ad4db30a3b87fa1,
        type: 3}
      propertyPath: m_Materials.Array.data[2]
      value: 
      objectReference: {fileID: 2100000, guid: c42e74d685659421e92abc6c79741b3f, type: 2}
    - target: {fileID: 5965215527631012793, guid: 476cf961fc3eaa243ad4db30a3b87fa1,
        type: 3}
      propertyPath: m_IsActive
      value: 0
      objectReference: {fileID: 0}
    - target: {fileID: 6389446328617382835, guid: 476cf961fc3eaa243ad4db30a3b87fa1,
        type: 3}
      propertyPath: m_Materials.Array.data[0]
      value: 
      objectReference: {fileID: 2100000, guid: bfbfcacebcffd4ffe8c92d0acdb841cb, type: 2}
    - target: {fileID: 7571250114921489184, guid: 476cf961fc3eaa243ad4db30a3b87fa1,
        type: 3}
      propertyPath: m_Tangents.Array.data[38].x
      value: -0.0000002749754
      objectReference: {fileID: 0}
    - target: {fileID: 7571250114921489184, guid: 476cf961fc3eaa243ad4db30a3b87fa1,
        type: 3}
      propertyPath: m_Tangents.Array.data[38].y
      value: 0
      objectReference: {fileID: 0}
    - target: {fileID: 7571250114921489184, guid: 476cf961fc3eaa243ad4db30a3b87fa1,
        type: 3}
      propertyPath: m_Tangents.Array.data[39].x
      value: -0.00000017185963
      objectReference: {fileID: 0}
    - target: {fileID: 7571250114921489184, guid: 476cf961fc3eaa243ad4db30a3b87fa1,
        type: 3}
      propertyPath: m_Tangents.Array.data[39].y
      value: 6.3553123e-15
      objectReference: {fileID: 0}
    - target: {fileID: 7571250114921489184, guid: 476cf961fc3eaa243ad4db30a3b87fa1,
        type: 3}
      propertyPath: m_Tangents.Array.data[40].x
      value: -0.00000017185963
      objectReference: {fileID: 0}
    - target: {fileID: 7571250114921489184, guid: 476cf961fc3eaa243ad4db30a3b87fa1,
        type: 3}
      propertyPath: m_Tangents.Array.data[40].y
      value: 6.3553123e-15
      objectReference: {fileID: 0}
    - target: {fileID: 7571250114921489184, guid: 476cf961fc3eaa243ad4db30a3b87fa1,
        type: 3}
      propertyPath: m_Tangents.Array.data[54].y
      value: 6.355296e-15
      objectReference: {fileID: 0}
    - target: {fileID: 7571250114921489184, guid: 476cf961fc3eaa243ad4db30a3b87fa1,
        type: 3}
      propertyPath: m_Tangents.Array.data[66].x
      value: -0.27853966
      objectReference: {fileID: 0}
    - target: {fileID: 7571250114921489184, guid: 476cf961fc3eaa243ad4db30a3b87fa1,
        type: 3}
      propertyPath: m_Tangents.Array.data[66].y
      value: 0.000000030981486
      objectReference: {fileID: 0}
    - target: {fileID: 7571250114921489184, guid: 476cf961fc3eaa243ad4db30a3b87fa1,
        type: 3}
      propertyPath: m_Tangents.Array.data[70].y
      value: -7.341279e-15
      objectReference: {fileID: 0}
    - target: {fileID: 7571250114921489184, guid: 476cf961fc3eaa243ad4db30a3b87fa1,
        type: 3}
      propertyPath: m_Tangents.Array.data[71].y
      value: -7.341277e-15
      objectReference: {fileID: 0}
    - target: {fileID: 7571250114921489184, guid: 476cf961fc3eaa243ad4db30a3b87fa1,
        type: 3}
      propertyPath: m_Tangents.Array.data[72].y
      value: -7.341277e-15
      objectReference: {fileID: 0}
    - target: {fileID: 7571250114921489184, guid: 476cf961fc3eaa243ad4db30a3b87fa1,
        type: 3}
      propertyPath: m_Tangents.Array.data[90].y
      value: 0
      objectReference: {fileID: 0}
    - target: {fileID: 7571250114921489184, guid: 476cf961fc3eaa243ad4db30a3b87fa1,
        type: 3}
      propertyPath: m_Tangents.Array.data[91].x
      value: 0.00000006373473
      objectReference: {fileID: 0}
    - target: {fileID: 7571250114921489184, guid: 476cf961fc3eaa243ad4db30a3b87fa1,
        type: 3}
      propertyPath: m_Tangents.Array.data[91].y
      value: -0.00000003939026
      objectReference: {fileID: 0}
    - target: {fileID: 7571250114921489184, guid: 476cf961fc3eaa243ad4db30a3b87fa1,
        type: 3}
      propertyPath: m_Tangents.Array.data[92].x
      value: 0.00000006373473
      objectReference: {fileID: 0}
    - target: {fileID: 7571250114921489184, guid: 476cf961fc3eaa243ad4db30a3b87fa1,
        type: 3}
      propertyPath: m_Tangents.Array.data[92].y
      value: -0.00000003939026
      objectReference: {fileID: 0}
    - target: {fileID: 7571250114921489184, guid: 476cf961fc3eaa243ad4db30a3b87fa1,
        type: 3}
      propertyPath: m_Tangents.Array.data[93].x
      value: 0.000000039390205
      objectReference: {fileID: 0}
    - target: {fileID: 7571250114921489184, guid: 476cf961fc3eaa243ad4db30a3b87fa1,
        type: 3}
      propertyPath: m_Tangents.Array.data[93].y
      value: -0.00000007878052
      objectReference: {fileID: 0}
    - target: {fileID: 7571250114921489184, guid: 476cf961fc3eaa243ad4db30a3b87fa1,
        type: 3}
      propertyPath: m_Textures0.Array.data[55].y
      value: -0.4352509
      objectReference: {fileID: 0}
    - target: {fileID: 7571250114921489184, guid: 476cf961fc3eaa243ad4db30a3b87fa1,
        type: 3}
      propertyPath: m_Textures0.Array.data[57].y
      value: -0.4352509
      objectReference: {fileID: 0}
    - target: {fileID: 7571250114921489184, guid: 476cf961fc3eaa243ad4db30a3b87fa1,
        type: 3}
      propertyPath: m_Textures0.Array.data[70].y
      value: -0.12482316
      objectReference: {fileID: 0}
    - target: {fileID: 7571250114921489184, guid: 476cf961fc3eaa243ad4db30a3b87fa1,
        type: 3}
      propertyPath: m_Textures0.Array.data[71].y
      value: -0.12482316
      objectReference: {fileID: 0}
    - target: {fileID: 7571250114921489184, guid: 476cf961fc3eaa243ad4db30a3b87fa1,
        type: 3}
      propertyPath: m_Textures0.Array.data[72].y
      value: 0.13773629
      objectReference: {fileID: 0}
    - target: {fileID: 7571250114921489184, guid: 476cf961fc3eaa243ad4db30a3b87fa1,
        type: 3}
      propertyPath: m_Textures0.Array.data[73].y
      value: 0.13773628
      objectReference: {fileID: 0}
    - target: {fileID: 7571250114921489184, guid: 476cf961fc3eaa243ad4db30a3b87fa1,
        type: 3}
      propertyPath: m_Textures0.Array.data[90].y
      value: 0.05378121
      objectReference: {fileID: 0}
    - target: {fileID: 7571250114921489184, guid: 476cf961fc3eaa243ad4db30a3b87fa1,
        type: 3}
      propertyPath: m_Textures0.Array.data[91].y
      value: -0.11522022
      objectReference: {fileID: 0}
    - target: {fileID: 7571250114921489184, guid: 476cf961fc3eaa243ad4db30a3b87fa1,
        type: 3}
      propertyPath: m_Textures0.Array.data[92].y
      value: 0.05378121
      objectReference: {fileID: 0}
    - target: {fileID: 7571250114921489184, guid: 476cf961fc3eaa243ad4db30a3b87fa1,
        type: 3}
      propertyPath: m_Textures0.Array.data[93].y
      value: -0.11522023
      objectReference: {fileID: 0}
    - target: {fileID: 7593813336700720384, guid: 476cf961fc3eaa243ad4db30a3b87fa1,
        type: 3}
      propertyPath: m_IsActive
      value: 0
      objectReference: {fileID: 0}
    - target: {fileID: 8129735255193702293, guid: 476cf961fc3eaa243ad4db30a3b87fa1,
        type: 3}
      propertyPath: m_Materials.Array.data[1]
      value: 
      objectReference: {fileID: 2100000, guid: c42e74d685659421e92abc6c79741b3f, type: 2}
    m_RemovedComponents: []
  m_SourcePrefab: {fileID: 100100000, guid: 476cf961fc3eaa243ad4db30a3b87fa1, type: 3}
