%YAML 1.1
%TAG !u! tag:unity3d.com,2011:
--- !u!54 &3782456368526085997
Rigidbody:
  m_ObjectHideFlags: 0
  m_CorrespondingSourceObject: {fileID: 0}
  m_PrefabInstance: {fileID: 0}
  m_PrefabAsset: {fileID: 0}
  m_GameObject: {fileID: 1367469187946600604}
  serializedVersion: 2
  m_Mass: 20
  m_Drag: 0
  m_AngularDrag: 0.05
  m_UseGravity: 1
  m_IsKinematic: 1
  m_Interpolate: 0
  m_Constraints: 0
  m_CollisionDetection: 0
--- !u!114 &5611026291312850522
MonoBehaviour:
  m_ObjectHideFlags: 0
  m_CorrespondingSourceObject: {fileID: 0}
  m_PrefabInstance: {fileID: 0}
  m_PrefabAsset: {fileID: 0}
  m_GameObject: {fileID: 1367469187946600604}
  m_Enabled: 1
  m_EditorHideFlags: 0
  m_Script: {fileID: 11500000, guid: 12f8eb40a11f1794db8ee363e22d45e5, type: 3}
  m_Name: 
  m_EditorClassIdentifier: 
  types: 00000000
--- !u!1001 &4168926230250610922
PrefabInstance:
  m_ObjectHideFlags: 0
  serializedVersion: 2
  m_Modification:
    m_TransformParent: {fileID: 0}
    m_Modifications:
    - target: {fileID: 3107828623327639670, guid: b0e789c9396da40e8835943ff94d4877,
        type: 3}
      propertyPath: m_Name
      value: Blast AOE - Lethal (Block Breaker)
      objectReference: {fileID: 0}
    - target: {fileID: 4869098721384457396, guid: b0e789c9396da40e8835943ff94d4877,
        type: 3}
      propertyPath: m_RootOrder
      value: 0
      objectReference: {fileID: 0}
    - target: {fileID: 4869098721384457396, guid: b0e789c9396da40e8835943ff94d4877,
        type: 3}
      propertyPath: m_LocalPosition.x
      value: 17.356148
      objectReference: {fileID: 0}
    - target: {fileID: 4869098721384457396, guid: b0e789c9396da40e8835943ff94d4877,
        type: 3}
      propertyPath: m_LocalPosition.y
      value: 0.19999999
      objectReference: {fileID: 0}
    - target: {fileID: 4869098721384457396, guid: b0e789c9396da40e8835943ff94d4877,
        type: 3}
      propertyPath: m_LocalPosition.z
      value: -4.3717117
      objectReference: {fileID: 0}
    - target: {fileID: 4869098721384457396, guid: b0e789c9396da40e8835943ff94d4877,
        type: 3}
      propertyPath: m_LocalRotation.w
      value: 1
      objectReference: {fileID: 0}
    - target: {fileID: 4869098721384457396, guid: b0e789c9396da40e8835943ff94d4877,
        type: 3}
      propertyPath: m_LocalRotation.x
      value: 0
      objectReference: {fileID: 0}
    - target: {fileID: 4869098721384457396, guid: b0e789c9396da40e8835943ff94d4877,
        type: 3}
      propertyPath: m_LocalRotation.y
      value: 0
      objectReference: {fileID: 0}
    - target: {fileID: 4869098721384457396, guid: b0e789c9396da40e8835943ff94d4877,
        type: 3}
      propertyPath: m_LocalRotation.z
      value: 0
      objectReference: {fileID: 0}
    - target: {fileID: 4869098721384457396, guid: b0e789c9396da40e8835943ff94d4877,
        type: 3}
      propertyPath: m_LocalEulerAnglesHint.x
      value: 0
      objectReference: {fileID: 0}
    - target: {fileID: 4869098721384457396, guid: b0e789c9396da40e8835943ff94d4877,
        type: 3}
      propertyPath: m_LocalEulerAnglesHint.y
      value: 0
      objectReference: {fileID: 0}
    - target: {fileID: 4869098721384457396, guid: b0e789c9396da40e8835943ff94d4877,
        type: 3}
      propertyPath: m_LocalEulerAnglesHint.z
      value: 0
      objectReference: {fileID: 0}
    m_RemovedComponents: []
  m_SourcePrefab: {fileID: 100100000, guid: b0e789c9396da40e8835943ff94d4877, type: 3}
--- !u!1 &1367469187946600604 stripped
GameObject:
  m_CorrespondingSourceObject: {fileID: 3107828623327639670, guid: b0e789c9396da40e8835943ff94d4877,
    type: 3}
  m_PrefabInstance: {fileID: 4168926230250610922}
  m_PrefabAsset: {fileID: 0}
