%YAML 1.1
%TAG !u! tag:unity3d.com,2011:
--- !u!1001 &8809926423601274676
PrefabInstance:
  m_ObjectHideFlags: 0
  serializedVersion: 2
  m_Modification:
    m_TransformParent: {fileID: 0}
    m_Modifications:
    - target: {fileID: 1995112424698188691, guid: d88d0e6e5ac3f4f42ab95660f739eccc,
        type: 3}
      propertyPath: m_CastShadows
      value: 0
      objectReference: {fileID: 0}
    - target: {fileID: 1995112424729633592, guid: d88d0e6e5ac3f4f42ab95660f739eccc,
        type: 3}
      propertyPath: m_CastShadows
      value: 0
      objectReference: {fileID: 0}
    - target: {fileID: 1995112424733898058, guid: d88d0e6e5ac3f4f42ab95660f739eccc,
        type: 3}
      propertyPath: m_CastShadows
      value: 0
      objectReference: {fileID: 0}
    - target: {fileID: 1995112424739830367, guid: d88d0e6e5ac3f4f42ab95660f739eccc,
        type: 3}
      propertyPath: m_ConnectedAnchor.x
      value: -0.27624968
      objectReference: {fileID: 0}
    - target: {fileID: 1995112424739830367, guid: d88d0e6e5ac3f4f42ab95660f739eccc,
        type: 3}
      propertyPath: m_ConnectedAnchor.z
      value: -0.57324845
      objectReference: {fileID: 0}
    - target: {fileID: 1995112424896787432, guid: d88d0e6e5ac3f4f42ab95660f739eccc,
        type: 3}
      propertyPath: m_ConnectedAnchor.y
      value: 2.5127525
      objectReference: {fileID: 0}
    - target: {fileID: 1995112424939223399, guid: d88d0e6e5ac3f4f42ab95660f739eccc,
        type: 3}
      propertyPath: m_CastShadows
      value: 0
      objectReference: {fileID: 0}
    - target: {fileID: 1995112424990544333, guid: d88d0e6e5ac3f4f42ab95660f739eccc,
        type: 3}
      propertyPath: m_ConnectedAnchor.z
      value: -0.447999
      objectReference: {fileID: 0}
    - target: {fileID: 1995112425031577147, guid: d88d0e6e5ac3f4f42ab95660f739eccc,
        type: 3}
      propertyPath: m_ConnectedAnchor.x
      value: -0.27624968
      objectReference: {fileID: 0}
    - target: {fileID: 1995112425031577147, guid: d88d0e6e5ac3f4f42ab95660f739eccc,
        type: 3}
      propertyPath: m_ConnectedAnchor.z
      value: -0.41324812
      objectReference: {fileID: 0}
    - target: {fileID: 1995112425052993010, guid: d88d0e6e5ac3f4f42ab95660f739eccc,
        type: 3}
      propertyPath: m_ConnectedAnchor.x
      value: -0.21624923
      objectReference: {fileID: 0}
    - target: {fileID: 1995112425052993010, guid: d88d0e6e5ac3f4f42ab95660f739eccc,
        type: 3}
      propertyPath: m_ConnectedAnchor.y
      value: -0.020996064
      objectReference: {fileID: 0}
    - target: {fileID: 1995112425063654593, guid: d88d0e6e5ac3f4f42ab95660f739eccc,
        type: 3}
      propertyPath: m_ConnectedAnchor.z
      value: -0.44775057
      objectReference: {fileID: 0}
    - target: {fileID: 1995112425261945459, guid: d88d0e6e5ac3f4f42ab95660f739eccc,
        type: 3}
      propertyPath: m_CastShadows
      value: 0
      objectReference: {fileID: 0}
    - target: {fileID: 1995112425281076337, guid: d88d0e6e5ac3f4f42ab95660f739eccc,
        type: 3}
      propertyPath: m_CastShadows
      value: 0
      objectReference: {fileID: 0}
    - target: {fileID: 1995112425357111870, guid: d88d0e6e5ac3f4f42ab95660f739eccc,
        type: 3}
      propertyPath: m_CastShadows
      value: 0
      objectReference: {fileID: 0}
    - target: {fileID: 1995112425417425228, guid: d88d0e6e5ac3f4f42ab95660f739eccc,
        type: 3}
      propertyPath: m_RootOrder
      value: 0
      objectReference: {fileID: 0}
    - target: {fileID: 1995112425417425228, guid: d88d0e6e5ac3f4f42ab95660f739eccc,
        type: 3}
      propertyPath: m_LocalPosition.x
      value: -1.47
      objectReference: {fileID: 0}
    - target: {fileID: 1995112425417425228, guid: d88d0e6e5ac3f4f42ab95660f739eccc,
        type: 3}
      propertyPath: m_LocalPosition.y
      value: 6.2610016
      objectReference: {fileID: 0}
    - target: {fileID: 1995112425417425228, guid: d88d0e6e5ac3f4f42ab95660f739eccc,
        type: 3}
      propertyPath: m_LocalPosition.z
      value: 14.830002
      objectReference: {fileID: 0}
    - target: {fileID: 1995112425417425228, guid: d88d0e6e5ac3f4f42ab95660f739eccc,
        type: 3}
      propertyPath: m_LocalRotation.w
      value: 1
      objectReference: {fileID: 0}
    - target: {fileID: 1995112425417425228, guid: d88d0e6e5ac3f4f42ab95660f739eccc,
        type: 3}
      propertyPath: m_LocalRotation.x
      value: -0
      objectReference: {fileID: 0}
    - target: {fileID: 1995112425417425228, guid: d88d0e6e5ac3f4f42ab95660f739eccc,
        type: 3}
      propertyPath: m_LocalRotation.y
      value: -0
      objectReference: {fileID: 0}
    - target: {fileID: 1995112425417425228, guid: d88d0e6e5ac3f4f42ab95660f739eccc,
        type: 3}
      propertyPath: m_LocalRotation.z
      value: -0
      objectReference: {fileID: 0}
    - target: {fileID: 1995112425417425228, guid: d88d0e6e5ac3f4f42ab95660f739eccc,
        type: 3}
      propertyPath: m_LocalEulerAnglesHint.x
      value: 0
      objectReference: {fileID: 0}
    - target: {fileID: 1995112425417425228, guid: d88d0e6e5ac3f4f42ab95660f739eccc,
        type: 3}
      propertyPath: m_LocalEulerAnglesHint.y
      value: 0
      objectReference: {fileID: 0}
    - target: {fileID: 1995112425417425228, guid: d88d0e6e5ac3f4f42ab95660f739eccc,
        type: 3}
      propertyPath: m_LocalEulerAnglesHint.z
      value: 0
      objectReference: {fileID: 0}
    - target: {fileID: 1995112425417425231, guid: d88d0e6e5ac3f4f42ab95660f739eccc,
        type: 3}
      propertyPath: m_Name
      value: Lantern (Purple) Variant
      objectReference: {fileID: 0}
    - target: {fileID: 1995112425417425231, guid: d88d0e6e5ac3f4f42ab95660f739eccc,
        type: 3}
      propertyPath: m_IsActive
      value: 1
      objectReference: {fileID: 0}
    - target: {fileID: 1995112425426303379, guid: d88d0e6e5ac3f4f42ab95660f739eccc,
        type: 3}
      propertyPath: m_CastShadows
      value: 0
      objectReference: {fileID: 0}
    - target: {fileID: 1995112425538238431, guid: d88d0e6e5ac3f4f42ab95660f739eccc,
        type: 3}
      propertyPath: m_CastShadows
      value: 0
      objectReference: {fileID: 0}
    - target: {fileID: 1995112425553556550, guid: d88d0e6e5ac3f4f42ab95660f739eccc,
        type: 3}
      propertyPath: m_ConnectedAnchor.x
      value: -0.27624965
      objectReference: {fileID: 0}
    - target: {fileID: 1995112425554463126, guid: d88d0e6e5ac3f4f42ab95660f739eccc,
        type: 3}
      propertyPath: m_CastShadows
      value: 0
      objectReference: {fileID: 0}
    - target: {fileID: 1995112425712532468, guid: d88d0e6e5ac3f4f42ab95660f739eccc,
        type: 3}
      propertyPath: m_CastShadows
      value: 0
      objectReference: {fileID: 0}
    - target: {fileID: 1995112425725305465, guid: d88d0e6e5ac3f4f42ab95660f739eccc,
        type: 3}
      propertyPath: m_CastShadows
      value: 0
      objectReference: {fileID: 0}
    - target: {fileID: 1995112425779087428, guid: d88d0e6e5ac3f4f42ab95660f739eccc,
        type: 3}
      propertyPath: m_CastShadows
      value: 0
      objectReference: {fileID: 0}
    - target: {fileID: 1995112425827105640, guid: d88d0e6e5ac3f4f42ab95660f739eccc,
        type: 3}
      propertyPath: m_CastShadows
      value: 0
      objectReference: {fileID: 0}
    - target: {fileID: 1995112425832432816, guid: d88d0e6e5ac3f4f42ab95660f739eccc,
        type: 3}
      propertyPath: m_CastShadows
      value: 0
      objectReference: {fileID: 0}
    - target: {fileID: 1995112426033222047, guid: d88d0e6e5ac3f4f42ab95660f739eccc,
        type: 3}
      propertyPath: m_CastShadows
      value: 0
      objectReference: {fileID: 0}
    - target: {fileID: 1995112426053215898, guid: d88d0e6e5ac3f4f42ab95660f739eccc,
        type: 3}
      propertyPath: m_ConnectedAnchor.z
      value: -0.3977518
      objectReference: {fileID: 0}
    - target: {fileID: 1995112426083968114, guid: d88d0e6e5ac3f4f42ab95660f739eccc,
        type: 3}
      propertyPath: m_CastShadows
      value: 0
      objectReference: {fileID: 0}
    - target: {fileID: 1995112426102133021, guid: d88d0e6e5ac3f4f42ab95660f739eccc,
        type: 3}
      propertyPath: m_CastShadows
      value: 0
      objectReference: {fileID: 0}
    - target: {fileID: 1995112426157849371, guid: d88d0e6e5ac3f4f42ab95660f739eccc,
        type: 3}
      propertyPath: m_CastShadows
      value: 0
      objectReference: {fileID: 0}
    - target: {fileID: 1995112426258396995, guid: d88d0e6e5ac3f4f42ab95660f739eccc,
        type: 3}
      propertyPath: m_Range
      value: 40
      objectReference: {fileID: 0}
    - target: {fileID: 1995112426258396995, guid: d88d0e6e5ac3f4f42ab95660f739eccc,
        type: 3}
      propertyPath: m_Color.b
      value: 0.3654863
      objectReference: {fileID: 0}
    - target: {fileID: 1995112426258396995, guid: d88d0e6e5ac3f4f42ab95660f739eccc,
        type: 3}
      propertyPath: m_Color.g
      value: 0.23949803
      objectReference: {fileID: 0}
    - target: {fileID: 1995112426258396995, guid: d88d0e6e5ac3f4f42ab95660f739eccc,
        type: 3}
      propertyPath: m_Color.r
      value: 0.735849
      objectReference: {fileID: 0}
    - target: {fileID: 1995112426258396995, guid: d88d0e6e5ac3f4f42ab95660f739eccc,
        type: 3}
      propertyPath: m_Intensity
      value: 1
      objectReference: {fileID: 0}
    - target: {fileID: 1995112426323736259, guid: d88d0e6e5ac3f4f42ab95660f739eccc,
        type: 3}
      propertyPath: m_CastShadows
      value: 0
      objectReference: {fileID: 0}
    - target: {fileID: 1995112426373452585, guid: d88d0e6e5ac3f4f42ab95660f739eccc,
        type: 3}
      propertyPath: m_CastShadows
      value: 0
      objectReference: {fileID: 0}
    - target: {fileID: 1995112426393255995, guid: d88d0e6e5ac3f4f42ab95660f739eccc,
        type: 3}
      propertyPath: m_CastShadows
      value: 0
      objectReference: {fileID: 0}
    - target: {fileID: 1995112426416677583, guid: d88d0e6e5ac3f4f42ab95660f739eccc,
        type: 3}
      propertyPath: m_CastShadows
      value: 0
      objectReference: {fileID: 0}
    - target: {fileID: 1995112426612236788, guid: d88d0e6e5ac3f4f42ab95660f739eccc,
        type: 3}
      propertyPath: m_CastShadows
      value: 0
      objectReference: {fileID: 0}
    - target: {fileID: 1995112426701097961, guid: d88d0e6e5ac3f4f42ab95660f739eccc,
        type: 3}
      propertyPath: m_CastShadows
      value: 0
      objectReference: {fileID: 0}
    - target: {fileID: 1995112426752138548, guid: d88d0e6e5ac3f4f42ab95660f739eccc,
        type: 3}
      propertyPath: m_CastShadows
      value: 0
      objectReference: {fileID: 0}
    - target: {fileID: 1995112426819886039, guid: d88d0e6e5ac3f4f42ab95660f739eccc,
        type: 3}
      propertyPath: m_CastShadows
      value: 0
      objectReference: {fileID: 0}
    m_RemovedComponents: []
  m_SourcePrefab: {fileID: 100100000, guid: d88d0e6e5ac3f4f42ab95660f739eccc, type: 3}
