# ProBuilder 4.1.1
# https://unity3d.com/unity/features/worldbuilding/probuilder
# 12/6/2019 12:05:58 PM

mtllib ./Ice_Breaking_Mesh_3.mtl
o Ice Breaking Mesh 3

g Ice Breaking Mesh 3
v -5.412568 0.7790244 5.9365
v -5.591172 0.6446517 5.155921
v -6.654664 0.7910464 5.217117
v -7.020349 0.7838233 6.057323
v -6.153138 0.7622054 6.625785
v -6.12436 1.797348 5.687995
v -6.139024 1.787178 5.665149
v -6.175973 1.789162 5.722614
v -6.219522 1.767849 5.665267
v -6.240251 1.772589 5.690044
v -6.986428 1.075194 5.928745
v -6.699182 1.046145 5.295215
v -6.023316 1.232256 6.41962
v -5.576562 1.317833 5.295085
v -5.258676 0.7263148 5.320121
v -5.161149 0.7388651 5.720932
v -5.250703 0.7891867 5.39611
v -5.139016 0.7981608 5.626083
v -5.372033 1.413918 5.762798

vt 0.6854493 0.02977099
vt 0.5127702 -0.7556768
vt -0.5560201 -0.6906648
vt -0.9210587 0.1480447
vt -0.05371884 0.7166863
vt -0.08175147 -0.08975891
vt -0.06522679 -0.1134715
vt -0.0295937 -0.05516017
vt 0.01754794 -0.1136149
vt 0.0367498 -0.08754934
vt 0.52847 -0.3808609
vt -0.3878658 -0.3736203
vt 0.3970486 -0.08878549
vt -0.298485 -0.1184709
vt 0.3343756 -0.7103838
vt -0.702484 -0.6860347
vt 0.3325579 -0.180948
vt -0.7432394 -0.3690997
vt 0.5642812 -0.6096299
vt -0.5000436 -0.7626125
vt 0.6100253 -0.3430519
vt -0.5124567 -0.07795954
vt 0.3556527 -0.6432602
vt -0.0568467 -0.6305325
vt 0.2799868 -0.5794998
vt 0.02985353 -0.5794457
vt 0.4585019 -0.5122713
vt -0.5532051 -0.5292973
vt 0.606257 0.1304368
vt -0.3178783 -0.05515492
vt 0.436024 -0.6133997
vt -0.2591887 -0.6507323
vt -0.1087915 0.2828678
vt -0.1401906 0.2839496
vt -0.05351391 0.4277858
vt 0.8418118 -0.1979965
vt -0.2259073 -0.4607784
vt -0.1628633 -0.4992141
vt 0.5256094 -0.5013942
vt -0.5849302 -0.183918
vt 0.1053019 0.3419393
vt 0.02565436 0.3645178
vt -0.3959238 -0.4372443
vt -0.5298072 0.06464655
vt 0.3223392 -0.04013781
vt 0.3143063 -0.01306755
vt -0.5704557 -0.3590235
vt -0.04708999 0.4249884
vt 0.2725377 -0.4483109
vt 0.3165091 -0.4038897
vt 0.3780155 -0.8123819
vt 0.5777016 -0.02537235
vt 0.7197417 -0.6468292
vt 0.8179439 -0.2499352
vt -0.1117505 -0.029297
vt -0.02572734 -0.7114652
vt -0.4417183 -0.5650007
vt -0.3947507 -0.6367943
vt 0.4674493 -0.5126199
vt 0.613326 0.1305171
vt 0.7985674 -0.5533006
vt 0.8782215 -0.4858199
vt -0.223378 -0.09781657
vt 0.2853577 -0.2027317
vt -0.2137268 -0.7701643
vt 0.04169828 -0.7827716

vn 0.1477675 -0.9797852 0.1348545
vn 0.006507613 -0.9851387 0.0812754
vn -0.07487962 -0.9951326 0.006284964
vn -0.01500696 -0.999773 -0.01512641
vn -0.0006639101 -0.9900168 0.04914146
vn -0.296771 0.9285762 -0.2228747
vn -0.2633281 0.942424 -0.2018492
vn -0.2115555 0.9469051 -0.225641
vn -0.1689477 0.9560695 -0.2270241
vn -0.1080103 0.9558672 -0.2732245
vn -0.9144874 -0.06944086 -0.3986111
vn -0.9126583 -0.05121057 -0.4050375
vn -0.9108291 -0.03298029 -0.411464
vn -0.4786779 0.460165 0.7477404
vn -0.4728321 0.4310518 0.7676878
vn -0.4669863 0.4019386 0.7876351
vn -0.01509666 0.2902951 -0.9568181
vn -0.03219635 0.2467601 -0.9673542
vn -0.04929605 0.203225 -0.9778903
vn 0.9568997 0.1663651 -0.2380455
vn 0.8033382 -0.2685202 -0.263081
vn 0.6497766 -0.7034055 -0.2881166
vn 0.6711287 0.1554669 0.7248561
vn 0.6791765 0.1397996 0.7203085
vn 0.6872243 0.1241321 0.7157611
vn -0.6974348 0.6281273 -0.3450229
vn -0.6117958 0.6330582 -0.4536383
vn -0.5261567 0.6379891 -0.5622535
vn -0.4237657 0.6601024 0.6202318
vn -0.4427327 0.6732183 0.591087
vn -0.4616997 0.686334 0.5619422
vn -0.1253024 0.5173467 -0.8465528
vn 0.4447204 0.8189399 -0.3627136
vn 0.4299698 0.7603521 -0.4708046
vn 0.4152191 0.7017642 -0.5788956
vn 0.3366891 0.7671378 0.5460221
vn 0.2969181 0.7743998 0.5571238
vn 0.2571471 0.7816618 0.5682256
vn 0.1766998 -0.9759618 0.1275763
vn 0.03379739 -0.9841603 0.09259865
vn -0.109105 -0.9923588 0.05762101
vn 0.5220824 0.1617834 -0.8374104
vn 0.3261179 0.4594751 -0.7387671
vn 0.1301535 0.7571668 -0.6401238
vn 0.6571323 0.1595971 0.7366858
vn 0.7753269 0.2079315 0.552698
vn 0.8935215 0.2562658 0.3687101
vn 0.805962 0.4015635 -0.4349393
vn 0.8077265 0.4111356 -0.4222435
vn 0.809491 0.4207076 -0.4095477

usemtl Ice_Small
f 5/5/5 2/2/2 1/1/1
f 3/3/3 2/2/2 5/5/5
f 4/4/4 3/3/3 5/5/5
f 8/8/8 9/9/9 10/10/10
f 8/8/8 7/7/7 9/9/9
f 6/6/6 7/7/7 8/8/8
f 12/14/13 3/12/12 4/11/11
f 4/11/11 11/13/12 12/14/13
f 11/18/16 4/16/15 5/15/14
f 5/15/14 13/17/15 11/18/16
f 14/22/19 2/20/18 3/19/17
f 3/19/17 12/21/18 14/22/19
f 18/26/22 16/24/21 15/23/20
f 15/23/20 17/25/21 18/26/22
f 13/30/25 5/28/24 1/27/23
f 1/27/23 19/29/24 13/30/25
f 9/34/28 12/32/27 11/31/26
f 11/31/26 10/33/27 9/34/28
f 10/38/31 11/36/30 13/35/29
f 13/35/29 8/37/30 10/38/31
f 7/42/32 14/40/32 12/39/32
f 12/39/32 9/41/32 7/42/32
f 6/46/35 19/44/34 14/43/33
f 14/43/33 7/45/34 6/46/35
f 8/50/38 13/48/37 19/47/36
f 19/47/36 6/49/37 8/50/38
f 16/54/41 1/52/40 2/51/39
f 2/51/39 15/53/40 16/54/41
f 15/58/44 2/56/43 14/55/42
f 14/55/42 17/57/43 15/58/44
f 18/62/47 19/60/46 1/59/45
f 1/59/45 16/61/46 18/62/47
f 17/66/50 14/64/49 19/63/48
f 19/63/48 18/65/49 17/66/50

