%YAML 1.1
%TAG !u! tag:unity3d.com,2011:
--- !u!1001 &8679511316346169621
PrefabInstance:
  m_ObjectHideFlags: 0
  serializedVersion: 2
  m_Modification:
    m_TransformParent: {fileID: 0}
    m_Modifications:
    - target: {fileID: 370970274963257646, guid: e00aab7d4b7ef4cb0aa0e529284b7483,
        type: 3}
      propertyPath: m_StaticEditorFlags
      value: 16
      objectReference: {fileID: 0}
    - target: {fileID: 643856480490473822, guid: e00aab7d4b7ef4cb0aa0e529284b7483,
        type: 3}
      propertyPath: m_StaticEditorFlags
      value: 16
      objectReference: {fileID: 0}
    - target: {fileID: 916961125884233659, guid: e00aab7d4b7ef4cb0aa0e529284b7483,
        type: 3}
      propertyPath: m_StaticEditorFlags
      value: 16
      objectReference: {fileID: 0}
    - target: {fileID: 988942640818452008, guid: e00aab7d4b7ef4cb0aa0e529284b7483,
        type: 3}
      propertyPath: m_StaticEditorFlags
      value: 16
      objectReference: {fileID: 0}
    - target: {fileID: 1250776075560395682, guid: e00aab7d4b7ef4cb0aa0e529284b7483,
        type: 3}
      propertyPath: m_Name
      value: Hookshot Claw (Flying) (Blue Switch Area Variant)
      objectReference: {fileID: 0}
    - target: {fileID: 1250776075560395682, guid: e00aab7d4b7ef4cb0aa0e529284b7483,
        type: 3}
      propertyPath: m_StaticEditorFlags
      value: 16
      objectReference: {fileID: 0}
    - target: {fileID: 1250776075560395685, guid: e00aab7d4b7ef4cb0aa0e529284b7483,
        type: 3}
      propertyPath: m_RootOrder
      value: 0
      objectReference: {fileID: 0}
    - target: {fileID: 1250776075560395685, guid: e00aab7d4b7ef4cb0aa0e529284b7483,
        type: 3}
      propertyPath: m_LocalPosition.x
      value: 0
      objectReference: {fileID: 0}
    - target: {fileID: 1250776075560395685, guid: e00aab7d4b7ef4cb0aa0e529284b7483,
        type: 3}
      propertyPath: m_LocalPosition.y
      value: 0
      objectReference: {fileID: 0}
    - target: {fileID: 1250776075560395685, guid: e00aab7d4b7ef4cb0aa0e529284b7483,
        type: 3}
      propertyPath: m_LocalPosition.z
      value: 0
      objectReference: {fileID: 0}
    - target: {fileID: 1250776075560395685, guid: e00aab7d4b7ef4cb0aa0e529284b7483,
        type: 3}
      propertyPath: m_LocalRotation.w
      value: 0.7071068
      objectReference: {fileID: 0}
    - target: {fileID: 1250776075560395685, guid: e00aab7d4b7ef4cb0aa0e529284b7483,
        type: 3}
      propertyPath: m_LocalRotation.x
      value: 0.7071068
      objectReference: {fileID: 0}
    - target: {fileID: 1250776075560395685, guid: e00aab7d4b7ef4cb0aa0e529284b7483,
        type: 3}
      propertyPath: m_LocalRotation.y
      value: 0
      objectReference: {fileID: 0}
    - target: {fileID: 1250776075560395685, guid: e00aab7d4b7ef4cb0aa0e529284b7483,
        type: 3}
      propertyPath: m_LocalRotation.z
      value: 0
      objectReference: {fileID: 0}
    - target: {fileID: 1250776075560395685, guid: e00aab7d4b7ef4cb0aa0e529284b7483,
        type: 3}
      propertyPath: m_LocalEulerAnglesHint.x
      value: 90
      objectReference: {fileID: 0}
    - target: {fileID: 1250776075560395685, guid: e00aab7d4b7ef4cb0aa0e529284b7483,
        type: 3}
      propertyPath: m_LocalEulerAnglesHint.y
      value: 0
      objectReference: {fileID: 0}
    - target: {fileID: 1250776075560395685, guid: e00aab7d4b7ef4cb0aa0e529284b7483,
        type: 3}
      propertyPath: m_LocalEulerAnglesHint.z
      value: 0
      objectReference: {fileID: 0}
    - target: {fileID: 1397429391719586323, guid: e00aab7d4b7ef4cb0aa0e529284b7483,
        type: 3}
      propertyPath: m_StaticEditorFlags
      value: 16
      objectReference: {fileID: 0}
    - target: {fileID: 1402001661790826087, guid: e00aab7d4b7ef4cb0aa0e529284b7483,
        type: 3}
      propertyPath: m_StaticEditorFlags
      value: 16
      objectReference: {fileID: 0}
    - target: {fileID: 2460037416608410218, guid: e00aab7d4b7ef4cb0aa0e529284b7483,
        type: 3}
      propertyPath: m_StaticEditorFlags
      value: 16
      objectReference: {fileID: 0}
    - target: {fileID: 2547269976946708272, guid: e00aab7d4b7ef4cb0aa0e529284b7483,
        type: 3}
      propertyPath: m_StaticEditorFlags
      value: 16
      objectReference: {fileID: 0}
    - target: {fileID: 3530648021987778238, guid: e00aab7d4b7ef4cb0aa0e529284b7483,
        type: 3}
      propertyPath: m_StaticEditorFlags
      value: 16
      objectReference: {fileID: 0}
    - target: {fileID: 3643342154792999144, guid: e00aab7d4b7ef4cb0aa0e529284b7483,
        type: 3}
      propertyPath: m_Materials.Array.data[0]
      value: 
      objectReference: {fileID: 2100000, guid: 3bcdeb31648b54c8abbe8f5a9f739207, type: 2}
    - target: {fileID: 3974784048074684647, guid: e00aab7d4b7ef4cb0aa0e529284b7483,
        type: 3}
      propertyPath: m_StaticEditorFlags
      value: 16
      objectReference: {fileID: 0}
    - target: {fileID: 3977811376460308712, guid: e00aab7d4b7ef4cb0aa0e529284b7483,
        type: 3}
      propertyPath: m_StaticEditorFlags
      value: 16
      objectReference: {fileID: 0}
    - target: {fileID: 4044624569637252233, guid: e00aab7d4b7ef4cb0aa0e529284b7483,
        type: 3}
      propertyPath: m_Materials.Array.data[1]
      value: 
      objectReference: {fileID: 2100000, guid: 3bcdeb31648b54c8abbe8f5a9f739207, type: 2}
    - target: {fileID: 4044624569637252233, guid: e00aab7d4b7ef4cb0aa0e529284b7483,
        type: 3}
      propertyPath: m_Materials.Array.data[2]
      value: 
      objectReference: {fileID: 2100000, guid: 3bcdeb31648b54c8abbe8f5a9f739207, type: 2}
    - target: {fileID: 4044624569637252233, guid: e00aab7d4b7ef4cb0aa0e529284b7483,
        type: 3}
      propertyPath: m_Materials.Array.data[3]
      value: 
      objectReference: {fileID: 2100000, guid: 3bcdeb31648b54c8abbe8f5a9f739207, type: 2}
    - target: {fileID: 5066576984478038437, guid: e00aab7d4b7ef4cb0aa0e529284b7483,
        type: 3}
      propertyPath: m_StaticEditorFlags
      value: 16
      objectReference: {fileID: 0}
    - target: {fileID: 5495052082239320890, guid: e00aab7d4b7ef4cb0aa0e529284b7483,
        type: 3}
      propertyPath: m_StaticEditorFlags
      value: 16
      objectReference: {fileID: 0}
    - target: {fileID: 6589886494197373572, guid: e00aab7d4b7ef4cb0aa0e529284b7483,
        type: 3}
      propertyPath: m_StaticEditorFlags
      value: 16
      objectReference: {fileID: 0}
    - target: {fileID: 6600515340073677096, guid: e00aab7d4b7ef4cb0aa0e529284b7483,
        type: 3}
      propertyPath: m_StaticEditorFlags
      value: 16
      objectReference: {fileID: 0}
    - target: {fileID: 6708422137479930286, guid: e00aab7d4b7ef4cb0aa0e529284b7483,
        type: 3}
      propertyPath: m_Materials.Array.data[0]
      value: 
      objectReference: {fileID: 2100000, guid: 3bcdeb31648b54c8abbe8f5a9f739207, type: 2}
    - target: {fileID: 7996034692058672666, guid: e00aab7d4b7ef4cb0aa0e529284b7483,
        type: 3}
      propertyPath: m_StaticEditorFlags
      value: 16
      objectReference: {fileID: 0}
    - target: {fileID: 8668679368585173287, guid: e00aab7d4b7ef4cb0aa0e529284b7483,
        type: 3}
      propertyPath: m_StaticEditorFlags
      value: 16
      objectReference: {fileID: 0}
    - target: {fileID: 8741592399119209887, guid: e00aab7d4b7ef4cb0aa0e529284b7483,
        type: 3}
      propertyPath: m_StaticEditorFlags
      value: 16
      objectReference: {fileID: 0}
    - target: {fileID: 9099718046551781297, guid: e00aab7d4b7ef4cb0aa0e529284b7483,
        type: 3}
      propertyPath: m_StaticEditorFlags
      value: 16
      objectReference: {fileID: 0}
    m_RemovedComponents:
    - {fileID: 4200184595090848788, guid: e00aab7d4b7ef4cb0aa0e529284b7483, type: 3}
  m_SourcePrefab: {fileID: 100100000, guid: e00aab7d4b7ef4cb0aa0e529284b7483, type: 3}
