%YAML 1.1
%TAG !u! tag:unity3d.com,2011:
--- !u!1001 &93886730500766847
PrefabInstance:
  m_ObjectHideFlags: 0
  serializedVersion: 2
  m_Modification:
    m_TransformParent: {fileID: 0}
    m_Modifications:
    - target: {fileID: 1984951261483410, guid: 0078d53751cbb4317a9c8d6e5a07bfaa, type: 3}
      propertyPath: path
      value: 
      objectReference: {fileID: 0}
    - target: {fileID: 1984951261483410, guid: 0078d53751cbb4317a9c8d6e5a07bfaa, type: 3}
      propertyPath: speed
      value: 4
      objectReference: {fileID: 0}
    - target: {fileID: 1984951261483411, guid: 0078d53751cbb4317a9c8d6e5a07bfaa, type: 3}
      propertyPath: m_RootOrder
      value: 0
      objectReference: {fileID: 0}
    - target: {fileID: 1984951261483411, guid: 0078d53751cbb4317a9c8d6e5a07bfaa, type: 3}
      propertyPath: m_LocalPosition.x
      value: -0.6999984
      objectReference: {fileID: 0}
    - target: {fileID: 1984951261483411, guid: 0078d53751cbb4317a9c8d6e5a07bfaa, type: 3}
      propertyPath: m_LocalPosition.y
      value: -0.6699991
      objectReference: {fileID: 0}
    - target: {fileID: 1984951261483411, guid: 0078d53751cbb4317a9c8d6e5a07bfaa, type: 3}
      propertyPath: m_LocalPosition.z
      value: 0.23999405
      objectReference: {fileID: 0}
    - target: {fileID: 1984951261483411, guid: 0078d53751cbb4317a9c8d6e5a07bfaa, type: 3}
      propertyPath: m_LocalRotation.w
      value: 1
      objectReference: {fileID: 0}
    - target: {fileID: 1984951261483411, guid: 0078d53751cbb4317a9c8d6e5a07bfaa, type: 3}
      propertyPath: m_LocalRotation.x
      value: -0
      objectReference: {fileID: 0}
    - target: {fileID: 1984951261483411, guid: 0078d53751cbb4317a9c8d6e5a07bfaa, type: 3}
      propertyPath: m_LocalRotation.y
      value: -0
      objectReference: {fileID: 0}
    - target: {fileID: 1984951261483411, guid: 0078d53751cbb4317a9c8d6e5a07bfaa, type: 3}
      propertyPath: m_LocalRotation.z
      value: -0
      objectReference: {fileID: 0}
    - target: {fileID: 1984951261483411, guid: 0078d53751cbb4317a9c8d6e5a07bfaa, type: 3}
      propertyPath: m_LocalEulerAnglesHint.x
      value: 0
      objectReference: {fileID: 0}
    - target: {fileID: 1984951261483411, guid: 0078d53751cbb4317a9c8d6e5a07bfaa, type: 3}
      propertyPath: m_LocalEulerAnglesHint.y
      value: 0
      objectReference: {fileID: 0}
    - target: {fileID: 1984951261483411, guid: 0078d53751cbb4317a9c8d6e5a07bfaa, type: 3}
      propertyPath: m_LocalEulerAnglesHint.z
      value: 0
      objectReference: {fileID: 0}
    - target: {fileID: 1984951261483421, guid: 0078d53751cbb4317a9c8d6e5a07bfaa, type: 3}
      propertyPath: m_Materials.Array.data[0]
      value: 
      objectReference: {fileID: 2100000, guid: 3bcdeb31648b54c8abbe8f5a9f739207, type: 2}
    - target: {fileID: 1984951261483423, guid: 0078d53751cbb4317a9c8d6e5a07bfaa, type: 3}
      propertyPath: m_Name
      value: Spikes_Pathed_Ball (Blue Switch Area Variant)
      objectReference: {fileID: 0}
    - target: {fileID: 1984951261483423, guid: 0078d53751cbb4317a9c8d6e5a07bfaa, type: 3}
      propertyPath: m_StaticEditorFlags
      value: 16
      objectReference: {fileID: 0}
    - target: {fileID: 381118960630616330, guid: 0078d53751cbb4317a9c8d6e5a07bfaa,
        type: 3}
      propertyPath: m_StaticEditorFlags
      value: 16
      objectReference: {fileID: 0}
    - target: {fileID: 395267943726914633, guid: 0078d53751cbb4317a9c8d6e5a07bfaa,
        type: 3}
      propertyPath: m_StaticEditorFlags
      value: 16
      objectReference: {fileID: 0}
    - target: {fileID: 543666984034942301, guid: 0078d53751cbb4317a9c8d6e5a07bfaa,
        type: 3}
      propertyPath: m_StaticEditorFlags
      value: 16
      objectReference: {fileID: 0}
    - target: {fileID: 1530236403239161338, guid: 0078d53751cbb4317a9c8d6e5a07bfaa,
        type: 3}
      propertyPath: m_StaticEditorFlags
      value: 16
      objectReference: {fileID: 0}
    - target: {fileID: 1573785723969099890, guid: 0078d53751cbb4317a9c8d6e5a07bfaa,
        type: 3}
      propertyPath: m_StaticEditorFlags
      value: 16
      objectReference: {fileID: 0}
    - target: {fileID: 1726064395588915829, guid: 0078d53751cbb4317a9c8d6e5a07bfaa,
        type: 3}
      propertyPath: m_StaticEditorFlags
      value: 16
      objectReference: {fileID: 0}
    - target: {fileID: 2328807904526228590, guid: 0078d53751cbb4317a9c8d6e5a07bfaa,
        type: 3}
      propertyPath: m_StaticEditorFlags
      value: 16
      objectReference: {fileID: 0}
    - target: {fileID: 2655091887548553233, guid: 0078d53751cbb4317a9c8d6e5a07bfaa,
        type: 3}
      propertyPath: m_StaticEditorFlags
      value: 16
      objectReference: {fileID: 0}
    - target: {fileID: 2740976318608914615, guid: 0078d53751cbb4317a9c8d6e5a07bfaa,
        type: 3}
      propertyPath: m_StaticEditorFlags
      value: 16
      objectReference: {fileID: 0}
    - target: {fileID: 2915902750694355093, guid: 0078d53751cbb4317a9c8d6e5a07bfaa,
        type: 3}
      propertyPath: m_StaticEditorFlags
      value: 16
      objectReference: {fileID: 0}
    - target: {fileID: 4774641154870200385, guid: 0078d53751cbb4317a9c8d6e5a07bfaa,
        type: 3}
      propertyPath: m_StaticEditorFlags
      value: 16
      objectReference: {fileID: 0}
    - target: {fileID: 4847637297363954756, guid: 0078d53751cbb4317a9c8d6e5a07bfaa,
        type: 3}
      propertyPath: m_StaticEditorFlags
      value: 16
      objectReference: {fileID: 0}
    - target: {fileID: 6110965187839592629, guid: 0078d53751cbb4317a9c8d6e5a07bfaa,
        type: 3}
      propertyPath: m_StaticEditorFlags
      value: 16
      objectReference: {fileID: 0}
    - target: {fileID: 6212653831418123998, guid: 0078d53751cbb4317a9c8d6e5a07bfaa,
        type: 3}
      propertyPath: m_StaticEditorFlags
      value: 16
      objectReference: {fileID: 0}
    - target: {fileID: 6396579006617508419, guid: 0078d53751cbb4317a9c8d6e5a07bfaa,
        type: 3}
      propertyPath: m_StaticEditorFlags
      value: 16
      objectReference: {fileID: 0}
    - target: {fileID: 7855910533694721292, guid: 0078d53751cbb4317a9c8d6e5a07bfaa,
        type: 3}
      propertyPath: m_StaticEditorFlags
      value: 16
      objectReference: {fileID: 0}
    - target: {fileID: 8115278908908347307, guid: 0078d53751cbb4317a9c8d6e5a07bfaa,
        type: 3}
      propertyPath: m_StaticEditorFlags
      value: 16
      objectReference: {fileID: 0}
    - target: {fileID: 8531037909038792857, guid: 0078d53751cbb4317a9c8d6e5a07bfaa,
        type: 3}
      propertyPath: m_StaticEditorFlags
      value: 16
      objectReference: {fileID: 0}
    - target: {fileID: 8532319593456132906, guid: 0078d53751cbb4317a9c8d6e5a07bfaa,
        type: 3}
      propertyPath: m_StaticEditorFlags
      value: 16
      objectReference: {fileID: 0}
    - target: {fileID: 8584520535290289360, guid: 0078d53751cbb4317a9c8d6e5a07bfaa,
        type: 3}
      propertyPath: m_StaticEditorFlags
      value: 16
      objectReference: {fileID: 0}
    - target: {fileID: 8914843058076973296, guid: 0078d53751cbb4317a9c8d6e5a07bfaa,
        type: 3}
      propertyPath: m_StaticEditorFlags
      value: 16
      objectReference: {fileID: 0}
    - target: {fileID: 8970550434546128378, guid: 0078d53751cbb4317a9c8d6e5a07bfaa,
        type: 3}
      propertyPath: m_StaticEditorFlags
      value: 16
      objectReference: {fileID: 0}
    - target: {fileID: 9121011960572522213, guid: 0078d53751cbb4317a9c8d6e5a07bfaa,
        type: 3}
      propertyPath: m_StaticEditorFlags
      value: 16
      objectReference: {fileID: 0}
    m_RemovedComponents: []
  m_SourcePrefab: {fileID: 100100000, guid: 0078d53751cbb4317a9c8d6e5a07bfaa, type: 3}
