%YAML 1.1
%TAG !u! tag:unity3d.com,2011:
--- !u!1001 &3514103177013852964
PrefabInstance:
  m_ObjectHideFlags: 0
  serializedVersion: 2
  m_Modification:
    m_TransformParent: {fileID: 0}
    m_Modifications:
    - target: {fileID: 343127161, guid: 20126d64d2a3e6a48886fbe4f89dc724, type: 3}
      propertyPath: m_StaticEditorFlags
      value: 16
      objectReference: {fileID: 0}
    - target: {fileID: 158513052829805358, guid: 20126d64d2a3e6a48886fbe4f89dc724,
        type: 3}
      propertyPath: m_StaticEditorFlags
      value: 16
      objectReference: {fileID: 0}
    - target: {fileID: 235765699088751622, guid: 20126d64d2a3e6a48886fbe4f89dc724,
        type: 3}
      propertyPath: m_StaticEditorFlags
      value: 16
      objectReference: {fileID: 0}
    - target: {fileID: 293825491926432330, guid: 20126d64d2a3e6a48886fbe4f89dc724,
        type: 3}
      propertyPath: m_StaticEditorFlags
      value: 16
      objectReference: {fileID: 0}
    - target: {fileID: 294598403111727140, guid: 20126d64d2a3e6a48886fbe4f89dc724,
        type: 3}
      propertyPath: m_Materials.Array.data[0]
      value: 
      objectReference: {fileID: 2100000, guid: 5846c99428d7b48b3ac0b258cc72ad26, type: 2}
    - target: {fileID: 294598403111727140, guid: 20126d64d2a3e6a48886fbe4f89dc724,
        type: 3}
      propertyPath: m_Materials.Array.data[1]
      value: 
      objectReference: {fileID: 2100000, guid: 5846c99428d7b48b3ac0b258cc72ad26, type: 2}
    - target: {fileID: 438779462009135465, guid: 20126d64d2a3e6a48886fbe4f89dc724,
        type: 3}
      propertyPath: m_StaticEditorFlags
      value: 16
      objectReference: {fileID: 0}
    - target: {fileID: 816288111685968372, guid: 20126d64d2a3e6a48886fbe4f89dc724,
        type: 3}
      propertyPath: m_Name
      value: Tracking Projectile Emitter (Green Switch Area Variant)
      objectReference: {fileID: 0}
    - target: {fileID: 816288111685968372, guid: 20126d64d2a3e6a48886fbe4f89dc724,
        type: 3}
      propertyPath: m_StaticEditorFlags
      value: 16
      objectReference: {fileID: 0}
    - target: {fileID: 2032426780823007367, guid: 20126d64d2a3e6a48886fbe4f89dc724,
        type: 3}
      propertyPath: m_StaticEditorFlags
      value: 16
      objectReference: {fileID: 0}
    - target: {fileID: 2032426781305230628, guid: 20126d64d2a3e6a48886fbe4f89dc724,
        type: 3}
      propertyPath: m_RootOrder
      value: 0
      objectReference: {fileID: 0}
    - target: {fileID: 2032426781305230628, guid: 20126d64d2a3e6a48886fbe4f89dc724,
        type: 3}
      propertyPath: m_LocalPosition.x
      value: 0
      objectReference: {fileID: 0}
    - target: {fileID: 2032426781305230628, guid: 20126d64d2a3e6a48886fbe4f89dc724,
        type: 3}
      propertyPath: m_LocalPosition.y
      value: 0
      objectReference: {fileID: 0}
    - target: {fileID: 2032426781305230628, guid: 20126d64d2a3e6a48886fbe4f89dc724,
        type: 3}
      propertyPath: m_LocalPosition.z
      value: 0
      objectReference: {fileID: 0}
    - target: {fileID: 2032426781305230628, guid: 20126d64d2a3e6a48886fbe4f89dc724,
        type: 3}
      propertyPath: m_LocalRotation.w
      value: 0.7071068
      objectReference: {fileID: 0}
    - target: {fileID: 2032426781305230628, guid: 20126d64d2a3e6a48886fbe4f89dc724,
        type: 3}
      propertyPath: m_LocalRotation.x
      value: 0
      objectReference: {fileID: 0}
    - target: {fileID: 2032426781305230628, guid: 20126d64d2a3e6a48886fbe4f89dc724,
        type: 3}
      propertyPath: m_LocalRotation.y
      value: 0.7071068
      objectReference: {fileID: 0}
    - target: {fileID: 2032426781305230628, guid: 20126d64d2a3e6a48886fbe4f89dc724,
        type: 3}
      propertyPath: m_LocalRotation.z
      value: 0
      objectReference: {fileID: 0}
    - target: {fileID: 2032426781305230628, guid: 20126d64d2a3e6a48886fbe4f89dc724,
        type: 3}
      propertyPath: m_LocalEulerAnglesHint.x
      value: 0
      objectReference: {fileID: 0}
    - target: {fileID: 2032426781305230628, guid: 20126d64d2a3e6a48886fbe4f89dc724,
        type: 3}
      propertyPath: m_LocalEulerAnglesHint.y
      value: 90
      objectReference: {fileID: 0}
    - target: {fileID: 2032426781305230628, guid: 20126d64d2a3e6a48886fbe4f89dc724,
        type: 3}
      propertyPath: m_LocalEulerAnglesHint.z
      value: 0
      objectReference: {fileID: 0}
    - target: {fileID: 2032426781305230629, guid: 20126d64d2a3e6a48886fbe4f89dc724,
        type: 3}
      propertyPath: m_StaticEditorFlags
      value: 16
      objectReference: {fileID: 0}
    - target: {fileID: 2480884490639968463, guid: 20126d64d2a3e6a48886fbe4f89dc724,
        type: 3}
      propertyPath: m_StaticEditorFlags
      value: 16
      objectReference: {fileID: 0}
    - target: {fileID: 2989488051336172462, guid: 20126d64d2a3e6a48886fbe4f89dc724,
        type: 3}
      propertyPath: m_StaticEditorFlags
      value: 16
      objectReference: {fileID: 0}
    - target: {fileID: 3162751574544525800, guid: 20126d64d2a3e6a48886fbe4f89dc724,
        type: 3}
      propertyPath: m_StaticEditorFlags
      value: 16
      objectReference: {fileID: 0}
    - target: {fileID: 3495864982240655244, guid: 20126d64d2a3e6a48886fbe4f89dc724,
        type: 3}
      propertyPath: m_StaticEditorFlags
      value: 16
      objectReference: {fileID: 0}
    - target: {fileID: 3498843395753555817, guid: 20126d64d2a3e6a48886fbe4f89dc724,
        type: 3}
      propertyPath: m_StaticEditorFlags
      value: 16
      objectReference: {fileID: 0}
    - target: {fileID: 3809435329202996975, guid: 20126d64d2a3e6a48886fbe4f89dc724,
        type: 3}
      propertyPath: m_StaticEditorFlags
      value: 16
      objectReference: {fileID: 0}
    - target: {fileID: 4395645208117801769, guid: 20126d64d2a3e6a48886fbe4f89dc724,
        type: 3}
      propertyPath: m_StaticEditorFlags
      value: 16
      objectReference: {fileID: 0}
    - target: {fileID: 4572618961068709547, guid: 20126d64d2a3e6a48886fbe4f89dc724,
        type: 3}
      propertyPath: m_Materials.Array.data[0]
      value: 
      objectReference: {fileID: 2100000, guid: 5846c99428d7b48b3ac0b258cc72ad26, type: 2}
    - target: {fileID: 4572618961068709547, guid: 20126d64d2a3e6a48886fbe4f89dc724,
        type: 3}
      propertyPath: m_Materials.Array.data[1]
      value: 
      objectReference: {fileID: 2100000, guid: 5846c99428d7b48b3ac0b258cc72ad26, type: 2}
    - target: {fileID: 4572618961068709547, guid: 20126d64d2a3e6a48886fbe4f89dc724,
        type: 3}
      propertyPath: m_Materials.Array.data[3]
      value: 
      objectReference: {fileID: 2100000, guid: 5846c99428d7b48b3ac0b258cc72ad26, type: 2}
    - target: {fileID: 4660370577456650943, guid: 20126d64d2a3e6a48886fbe4f89dc724,
        type: 3}
      propertyPath: m_StaticEditorFlags
      value: 16
      objectReference: {fileID: 0}
    - target: {fileID: 4844895758205747310, guid: 20126d64d2a3e6a48886fbe4f89dc724,
        type: 3}
      propertyPath: m_StaticEditorFlags
      value: 16
      objectReference: {fileID: 0}
    - target: {fileID: 4867877038676450958, guid: 20126d64d2a3e6a48886fbe4f89dc724,
        type: 3}
      propertyPath: m_StaticEditorFlags
      value: 16
      objectReference: {fileID: 0}
    - target: {fileID: 5125624917212654701, guid: 20126d64d2a3e6a48886fbe4f89dc724,
        type: 3}
      propertyPath: m_StaticEditorFlags
      value: 16
      objectReference: {fileID: 0}
    - target: {fileID: 5203544448917605537, guid: 20126d64d2a3e6a48886fbe4f89dc724,
        type: 3}
      propertyPath: m_StaticEditorFlags
      value: 16
      objectReference: {fileID: 0}
    - target: {fileID: 5522667149026751740, guid: 20126d64d2a3e6a48886fbe4f89dc724,
        type: 3}
      propertyPath: m_StaticEditorFlags
      value: 16
      objectReference: {fileID: 0}
    - target: {fileID: 5563129102159589179, guid: 20126d64d2a3e6a48886fbe4f89dc724,
        type: 3}
      propertyPath: m_StaticEditorFlags
      value: 16
      objectReference: {fileID: 0}
    - target: {fileID: 5622068653117978582, guid: 20126d64d2a3e6a48886fbe4f89dc724,
        type: 3}
      propertyPath: m_StaticEditorFlags
      value: 16
      objectReference: {fileID: 0}
    - target: {fileID: 5678097987778078953, guid: 20126d64d2a3e6a48886fbe4f89dc724,
        type: 3}
      propertyPath: m_StaticEditorFlags
      value: 16
      objectReference: {fileID: 0}
    - target: {fileID: 6050055115546823065, guid: 20126d64d2a3e6a48886fbe4f89dc724,
        type: 3}
      propertyPath: m_Tangents.Array.data[24].y
      value: 0.000000022740238
      objectReference: {fileID: 0}
    - target: {fileID: 6050055115546823065, guid: 20126d64d2a3e6a48886fbe4f89dc724,
        type: 3}
      propertyPath: m_Tangents.Array.data[25].y
      value: 0.000000011370117
      objectReference: {fileID: 0}
    - target: {fileID: 6050055115546823065, guid: 20126d64d2a3e6a48886fbe4f89dc724,
        type: 3}
      propertyPath: m_Tangents.Array.data[26].y
      value: 0.000000011370117
      objectReference: {fileID: 0}
    - target: {fileID: 6050055115546823065, guid: 20126d64d2a3e6a48886fbe4f89dc724,
        type: 3}
      propertyPath: m_Tangents.Array.data[56].y
      value: 0.051350974
      objectReference: {fileID: 0}
    - target: {fileID: 6050055115546823065, guid: 20126d64d2a3e6a48886fbe4f89dc724,
        type: 3}
      propertyPath: m_Tangents.Array.data[57].y
      value: 0.05135097
      objectReference: {fileID: 0}
    - target: {fileID: 6050055115546823065, guid: 20126d64d2a3e6a48886fbe4f89dc724,
        type: 3}
      propertyPath: m_Tangents.Array.data[58].y
      value: 0.05135097
      objectReference: {fileID: 0}
    - target: {fileID: 6050055115546823065, guid: 20126d64d2a3e6a48886fbe4f89dc724,
        type: 3}
      propertyPath: m_Tangents.Array.data[59].x
      value: 0.99868065
      objectReference: {fileID: 0}
    - target: {fileID: 6050055115546823065, guid: 20126d64d2a3e6a48886fbe4f89dc724,
        type: 3}
      propertyPath: m_Tangents.Array.data[59].y
      value: 0.051350966
      objectReference: {fileID: 0}
    - target: {fileID: 6050055115546823065, guid: 20126d64d2a3e6a48886fbe4f89dc724,
        type: 3}
      propertyPath: m_Tangents.Array.data[61].y
      value: -0.05135097
      objectReference: {fileID: 0}
    - target: {fileID: 6050055115546823065, guid: 20126d64d2a3e6a48886fbe4f89dc724,
        type: 3}
      propertyPath: m_Tangents.Array.data[62].y
      value: -0.05135097
      objectReference: {fileID: 0}
    - target: {fileID: 6050055115546823065, guid: 20126d64d2a3e6a48886fbe4f89dc724,
        type: 3}
      propertyPath: m_Tangents.Array.data[88].x
      value: 0.7071067
      objectReference: {fileID: 0}
    - target: {fileID: 6050055115546823065, guid: 20126d64d2a3e6a48886fbe4f89dc724,
        type: 3}
      propertyPath: m_Tangents.Array.data[88].y
      value: 0.7071069
      objectReference: {fileID: 0}
    - target: {fileID: 6050055115546823065, guid: 20126d64d2a3e6a48886fbe4f89dc724,
        type: 3}
      propertyPath: m_Tangents.Array.data[92].x
      value: 0.7071068
      objectReference: {fileID: 0}
    - target: {fileID: 6050055115546823065, guid: 20126d64d2a3e6a48886fbe4f89dc724,
        type: 3}
      propertyPath: m_Tangents.Array.data[92].y
      value: -0.7071068
      objectReference: {fileID: 0}
    - target: {fileID: 6050055115546823065, guid: 20126d64d2a3e6a48886fbe4f89dc724,
        type: 3}
      propertyPath: m_Tangents.Array.data[116].x
      value: -0.7071068
      objectReference: {fileID: 0}
    - target: {fileID: 6050055115546823065, guid: 20126d64d2a3e6a48886fbe4f89dc724,
        type: 3}
      propertyPath: m_Tangents.Array.data[116].y
      value: 0.7071068
      objectReference: {fileID: 0}
    - target: {fileID: 6050055115546823065, guid: 20126d64d2a3e6a48886fbe4f89dc724,
        type: 3}
      propertyPath: m_Tangents.Array.data[117].x
      value: -0.7071068
      objectReference: {fileID: 0}
    - target: {fileID: 6050055115546823065, guid: 20126d64d2a3e6a48886fbe4f89dc724,
        type: 3}
      propertyPath: m_Tangents.Array.data[117].y
      value: 0.7071068
      objectReference: {fileID: 0}
    - target: {fileID: 6050055115546823065, guid: 20126d64d2a3e6a48886fbe4f89dc724,
        type: 3}
      propertyPath: m_Tangents.Array.data[118].x
      value: -0.7071068
      objectReference: {fileID: 0}
    - target: {fileID: 6050055115546823065, guid: 20126d64d2a3e6a48886fbe4f89dc724,
        type: 3}
      propertyPath: m_Tangents.Array.data[118].y
      value: 0.7071068
      objectReference: {fileID: 0}
    - target: {fileID: 6050055115546823065, guid: 20126d64d2a3e6a48886fbe4f89dc724,
        type: 3}
      propertyPath: m_Tangents.Array.data[119].x
      value: -0.7071068
      objectReference: {fileID: 0}
    - target: {fileID: 6050055115546823065, guid: 20126d64d2a3e6a48886fbe4f89dc724,
        type: 3}
      propertyPath: m_Tangents.Array.data[119].y
      value: 0.7071068
      objectReference: {fileID: 0}
    - target: {fileID: 6050055115546823065, guid: 20126d64d2a3e6a48886fbe4f89dc724,
        type: 3}
      propertyPath: m_Tangents.Array.data[146].x
      value: 0.70710665
      objectReference: {fileID: 0}
    - target: {fileID: 6050055115546823065, guid: 20126d64d2a3e6a48886fbe4f89dc724,
        type: 3}
      propertyPath: m_Tangents.Array.data[146].y
      value: 0
      objectReference: {fileID: 0}
    - target: {fileID: 6050055115546823065, guid: 20126d64d2a3e6a48886fbe4f89dc724,
        type: 3}
      propertyPath: m_Tangents.Array.data[147].x
      value: 0.70710665
      objectReference: {fileID: 0}
    - target: {fileID: 6050055115546823065, guid: 20126d64d2a3e6a48886fbe4f89dc724,
        type: 3}
      propertyPath: m_Tangents.Array.data[147].y
      value: 0
      objectReference: {fileID: 0}
    - target: {fileID: 6050055115546823065, guid: 20126d64d2a3e6a48886fbe4f89dc724,
        type: 3}
      propertyPath: m_Tangents.Array.data[148].x
      value: 0.70710665
      objectReference: {fileID: 0}
    - target: {fileID: 6050055115546823065, guid: 20126d64d2a3e6a48886fbe4f89dc724,
        type: 3}
      propertyPath: m_Tangents.Array.data[148].y
      value: 0
      objectReference: {fileID: 0}
    - target: {fileID: 6050055115546823065, guid: 20126d64d2a3e6a48886fbe4f89dc724,
        type: 3}
      propertyPath: m_Tangents.Array.data[149].y
      value: 0.00000018535495
      objectReference: {fileID: 0}
    - target: {fileID: 6050055115546823065, guid: 20126d64d2a3e6a48886fbe4f89dc724,
        type: 3}
      propertyPath: m_Tangents.Array.data[149].z
      value: 0.34663993
      objectReference: {fileID: 0}
    - target: {fileID: 6050055115546823065, guid: 20126d64d2a3e6a48886fbe4f89dc724,
        type: 3}
      propertyPath: m_Tangents.Array.data[150].y
      value: 0.00000018535495
      objectReference: {fileID: 0}
    - target: {fileID: 6050055115546823065, guid: 20126d64d2a3e6a48886fbe4f89dc724,
        type: 3}
      propertyPath: m_Tangents.Array.data[150].z
      value: 0.34663993
      objectReference: {fileID: 0}
    - target: {fileID: 6050055115546823065, guid: 20126d64d2a3e6a48886fbe4f89dc724,
        type: 3}
      propertyPath: m_Tangents.Array.data[151].y
      value: 0.00000018535495
      objectReference: {fileID: 0}
    - target: {fileID: 6050055115546823065, guid: 20126d64d2a3e6a48886fbe4f89dc724,
        type: 3}
      propertyPath: m_Tangents.Array.data[151].z
      value: 0.34663993
      objectReference: {fileID: 0}
    - target: {fileID: 6050055115546823065, guid: 20126d64d2a3e6a48886fbe4f89dc724,
        type: 3}
      propertyPath: m_Tangents.Array.data[161].y
      value: -0.0000005203691
      objectReference: {fileID: 0}
    - target: {fileID: 6050055115546823065, guid: 20126d64d2a3e6a48886fbe4f89dc724,
        type: 3}
      propertyPath: m_Tangents.Array.data[162].y
      value: -0.0000005203691
      objectReference: {fileID: 0}
    - target: {fileID: 6050055115546823065, guid: 20126d64d2a3e6a48886fbe4f89dc724,
        type: 3}
      propertyPath: m_Tangents.Array.data[163].y
      value: -0.0000005203691
      objectReference: {fileID: 0}
    - target: {fileID: 6050055115546823065, guid: 20126d64d2a3e6a48886fbe4f89dc724,
        type: 3}
      propertyPath: m_Textures0.Array.data[56].x
      value: -0.031192292
      objectReference: {fileID: 0}
    - target: {fileID: 6050055115546823065, guid: 20126d64d2a3e6a48886fbe4f89dc724,
        type: 3}
      propertyPath: m_Textures0.Array.data[57].x
      value: -0.031192292
      objectReference: {fileID: 0}
    - target: {fileID: 6050055115546823065, guid: 20126d64d2a3e6a48886fbe4f89dc724,
        type: 3}
      propertyPath: m_Textures0.Array.data[60].x
      value: 0.20453392
      objectReference: {fileID: 0}
    - target: {fileID: 6050055115546823065, guid: 20126d64d2a3e6a48886fbe4f89dc724,
        type: 3}
      propertyPath: m_Textures0.Array.data[61].x
      value: 0.20453392
      objectReference: {fileID: 0}
    - target: {fileID: 6050055115546823065, guid: 20126d64d2a3e6a48886fbe4f89dc724,
        type: 3}
      propertyPath: m_Textures0.Array.data[62].x
      value: 0.13578153
      objectReference: {fileID: 0}
    - target: {fileID: 6050055115546823065, guid: 20126d64d2a3e6a48886fbe4f89dc724,
        type: 3}
      propertyPath: m_Textures0.Array.data[63].x
      value: 0.13578153
      objectReference: {fileID: 0}
    - target: {fileID: 6050055115546823065, guid: 20126d64d2a3e6a48886fbe4f89dc724,
        type: 3}
      propertyPath: m_Textures0.Array.data[88].x
      value: 0.38934857
      objectReference: {fileID: 0}
    - target: {fileID: 6050055115546823065, guid: 20126d64d2a3e6a48886fbe4f89dc724,
        type: 3}
      propertyPath: m_Textures0.Array.data[89].x
      value: 0.38934857
      objectReference: {fileID: 0}
    - target: {fileID: 6050055115546823065, guid: 20126d64d2a3e6a48886fbe4f89dc724,
        type: 3}
      propertyPath: m_Textures0.Array.data[90].x
      value: 0.3539932
      objectReference: {fileID: 0}
    - target: {fileID: 6050055115546823065, guid: 20126d64d2a3e6a48886fbe4f89dc724,
        type: 3}
      propertyPath: m_Textures0.Array.data[91].x
      value: 0.3539932
      objectReference: {fileID: 0}
    - target: {fileID: 6050055115546823065, guid: 20126d64d2a3e6a48886fbe4f89dc724,
        type: 3}
      propertyPath: m_Textures0.Array.data[92].x
      value: -0.26661554
      objectReference: {fileID: 0}
    - target: {fileID: 6050055115546823065, guid: 20126d64d2a3e6a48886fbe4f89dc724,
        type: 3}
      propertyPath: m_Textures0.Array.data[93].x
      value: -0.26661554
      objectReference: {fileID: 0}
    - target: {fileID: 6050055115546823065, guid: 20126d64d2a3e6a48886fbe4f89dc724,
        type: 3}
      propertyPath: m_Textures0.Array.data[94].x
      value: -0.2312602
      objectReference: {fileID: 0}
    - target: {fileID: 6050055115546823065, guid: 20126d64d2a3e6a48886fbe4f89dc724,
        type: 3}
      propertyPath: m_Textures0.Array.data[95].x
      value: -0.2312602
      objectReference: {fileID: 0}
    - target: {fileID: 6050055115546823065, guid: 20126d64d2a3e6a48886fbe4f89dc724,
        type: 3}
      propertyPath: m_Textures0.Array.data[104].x
      value: -0.053646825
      objectReference: {fileID: 0}
    - target: {fileID: 6050055115546823065, guid: 20126d64d2a3e6a48886fbe4f89dc724,
        type: 3}
      propertyPath: m_Textures0.Array.data[105].x
      value: -0.053646825
      objectReference: {fileID: 0}
    - target: {fileID: 6050055115546823065, guid: 20126d64d2a3e6a48886fbe4f89dc724,
        type: 3}
      propertyPath: m_Textures0.Array.data[106].x
      value: -0.08900217
      objectReference: {fileID: 0}
    - target: {fileID: 6050055115546823065, guid: 20126d64d2a3e6a48886fbe4f89dc724,
        type: 3}
      propertyPath: m_Textures0.Array.data[107].x
      value: -0.08900217
      objectReference: {fileID: 0}
    - target: {fileID: 6050055115546823065, guid: 20126d64d2a3e6a48886fbe4f89dc724,
        type: 3}
      propertyPath: m_Textures0.Array.data[116].x
      value: -0.030585699
      objectReference: {fileID: 0}
    - target: {fileID: 6050055115546823065, guid: 20126d64d2a3e6a48886fbe4f89dc724,
        type: 3}
      propertyPath: m_Textures0.Array.data[117].x
      value: -0.030585699
      objectReference: {fileID: 0}
    - target: {fileID: 6050055115546823065, guid: 20126d64d2a3e6a48886fbe4f89dc724,
        type: 3}
      propertyPath: m_Textures0.Array.data[118].x
      value: -0.065941036
      objectReference: {fileID: 0}
    - target: {fileID: 6050055115546823065, guid: 20126d64d2a3e6a48886fbe4f89dc724,
        type: 3}
      propertyPath: m_Textures0.Array.data[119].x
      value: -0.065941036
      objectReference: {fileID: 0}
    - target: {fileID: 6050055115546823065, guid: 20126d64d2a3e6a48886fbe4f89dc724,
        type: 3}
      propertyPath: m_Textures0.Array.data[120].x
      value: -0.0382742
      objectReference: {fileID: 0}
    - target: {fileID: 6050055115546823065, guid: 20126d64d2a3e6a48886fbe4f89dc724,
        type: 3}
      propertyPath: m_Textures0.Array.data[121].x
      value: -0.0382742
      objectReference: {fileID: 0}
    - target: {fileID: 6050055115546823065, guid: 20126d64d2a3e6a48886fbe4f89dc724,
        type: 3}
      propertyPath: m_Textures0.Array.data[122].x
      value: -0.0029188641
      objectReference: {fileID: 0}
    - target: {fileID: 6050055115546823065, guid: 20126d64d2a3e6a48886fbe4f89dc724,
        type: 3}
      propertyPath: m_Textures0.Array.data[123].x
      value: -0.0029188641
      objectReference: {fileID: 0}
    - target: {fileID: 6050055115546823065, guid: 20126d64d2a3e6a48886fbe4f89dc724,
        type: 3}
      propertyPath: m_Textures0.Array.data[124].y
      value: 0.26644152
      objectReference: {fileID: 0}
    - target: {fileID: 6050055115546823065, guid: 20126d64d2a3e6a48886fbe4f89dc724,
        type: 3}
      propertyPath: m_Textures0.Array.data[125].y
      value: 0.26644152
      objectReference: {fileID: 0}
    - target: {fileID: 6050055115546823065, guid: 20126d64d2a3e6a48886fbe4f89dc724,
        type: 3}
      propertyPath: m_Textures0.Array.data[126].y
      value: 0.296301
      objectReference: {fileID: 0}
    - target: {fileID: 6050055115546823065, guid: 20126d64d2a3e6a48886fbe4f89dc724,
        type: 3}
      propertyPath: m_Textures0.Array.data[127].y
      value: 0.296301
      objectReference: {fileID: 0}
    - target: {fileID: 6050055115546823065, guid: 20126d64d2a3e6a48886fbe4f89dc724,
        type: 3}
      propertyPath: m_Textures0.Array.data[136].y
      value: 0.20934932
      objectReference: {fileID: 0}
    - target: {fileID: 6050055115546823065, guid: 20126d64d2a3e6a48886fbe4f89dc724,
        type: 3}
      propertyPath: m_Textures0.Array.data[137].y
      value: 0.20934932
      objectReference: {fileID: 0}
    - target: {fileID: 6050055115546823065, guid: 20126d64d2a3e6a48886fbe4f89dc724,
        type: 3}
      propertyPath: m_Textures0.Array.data[138].y
      value: 0.24241291
      objectReference: {fileID: 0}
    - target: {fileID: 6050055115546823065, guid: 20126d64d2a3e6a48886fbe4f89dc724,
        type: 3}
      propertyPath: m_Textures0.Array.data[139].y
      value: 0.24241298
      objectReference: {fileID: 0}
    - target: {fileID: 6050055115546823065, guid: 20126d64d2a3e6a48886fbe4f89dc724,
        type: 3}
      propertyPath: m_Textures0.Array.data[146].x
      value: 0.21173552
      objectReference: {fileID: 0}
    - target: {fileID: 6050055115546823065, guid: 20126d64d2a3e6a48886fbe4f89dc724,
        type: 3}
      propertyPath: m_Textures0.Array.data[147].x
      value: 0.19405785
      objectReference: {fileID: 0}
    - target: {fileID: 6050055115546823065, guid: 20126d64d2a3e6a48886fbe4f89dc724,
        type: 3}
      propertyPath: m_Textures0.Array.data[148].x
      value: 0.17638019
      objectReference: {fileID: 0}
    - target: {fileID: 6050055115546823065, guid: 20126d64d2a3e6a48886fbe4f89dc724,
        type: 3}
      propertyPath: m_Textures0.Array.data[152].y
      value: 0.26245368
      objectReference: {fileID: 0}
    - target: {fileID: 6050055115546823065, guid: 20126d64d2a3e6a48886fbe4f89dc724,
        type: 3}
      propertyPath: m_Textures0.Array.data[153].y
      value: 0.26245368
      objectReference: {fileID: 0}
    - target: {fileID: 6050055115546823065, guid: 20126d64d2a3e6a48886fbe4f89dc724,
        type: 3}
      propertyPath: m_Textures0.Array.data[154].y
      value: 0.2894527
      objectReference: {fileID: 0}
    - target: {fileID: 6050055115546823065, guid: 20126d64d2a3e6a48886fbe4f89dc724,
        type: 3}
      propertyPath: m_Textures0.Array.data[155].y
      value: -0.033632115
      objectReference: {fileID: 0}
    - target: {fileID: 6050055115546823065, guid: 20126d64d2a3e6a48886fbe4f89dc724,
        type: 3}
      propertyPath: m_Textures0.Array.data[157].y
      value: -0.033632115
      objectReference: {fileID: 0}
    - target: {fileID: 6050055115546823065, guid: 20126d64d2a3e6a48886fbe4f89dc724,
        type: 3}
      propertyPath: m_Textures0.Array.data[158].y
      value: 0.30717844
      objectReference: {fileID: 0}
    - target: {fileID: 6050055115546823065, guid: 20126d64d2a3e6a48886fbe4f89dc724,
        type: 3}
      propertyPath: m_Textures0.Array.data[159].y
      value: 0.30717844
      objectReference: {fileID: 0}
    - target: {fileID: 6050055115546823065, guid: 20126d64d2a3e6a48886fbe4f89dc724,
        type: 3}
      propertyPath: m_Textures0.Array.data[160].y
      value: 0.33417746
      objectReference: {fileID: 0}
    - target: {fileID: 6050055115546823065, guid: 20126d64d2a3e6a48886fbe4f89dc724,
        type: 3}
      propertyPath: m_Textures0.Array.data[162].y
      value: 0.23810199
      objectReference: {fileID: 0}
    - target: {fileID: 6050055115546823065, guid: 20126d64d2a3e6a48886fbe4f89dc724,
        type: 3}
      propertyPath: m_Textures0.Array.data[163].y
      value: 0.23936385
      objectReference: {fileID: 0}
    - target: {fileID: 6570706022030938741, guid: 20126d64d2a3e6a48886fbe4f89dc724,
        type: 3}
      propertyPath: m_StaticEditorFlags
      value: 16
      objectReference: {fileID: 0}
    - target: {fileID: 6849853131675995242, guid: 20126d64d2a3e6a48886fbe4f89dc724,
        type: 3}
      propertyPath: m_StaticEditorFlags
      value: 16
      objectReference: {fileID: 0}
    - target: {fileID: 6955177699275982028, guid: 20126d64d2a3e6a48886fbe4f89dc724,
        type: 3}
      propertyPath: m_StaticEditorFlags
      value: 16
      objectReference: {fileID: 0}
    - target: {fileID: 7307404415307098220, guid: 20126d64d2a3e6a48886fbe4f89dc724,
        type: 3}
      propertyPath: m_StaticEditorFlags
      value: 16
      objectReference: {fileID: 0}
    - target: {fileID: 7680149945747733729, guid: 20126d64d2a3e6a48886fbe4f89dc724,
        type: 3}
      propertyPath: m_Tangents.Array.data[92].x
      value: 0.3868455
      objectReference: {fileID: 0}
    - target: {fileID: 7680149945747733729, guid: 20126d64d2a3e6a48886fbe4f89dc724,
        type: 3}
      propertyPath: m_Tangents.Array.data[92].z
      value: -0.9221446
      objectReference: {fileID: 0}
    - target: {fileID: 7680149945747733729, guid: 20126d64d2a3e6a48886fbe4f89dc724,
        type: 3}
      propertyPath: m_Tangents.Array.data[93].z
      value: -0.92214453
      objectReference: {fileID: 0}
    - target: {fileID: 7680149945747733729, guid: 20126d64d2a3e6a48886fbe4f89dc724,
        type: 3}
      propertyPath: m_Tangents.Array.data[94].z
      value: -0.92214453
      objectReference: {fileID: 0}
    - target: {fileID: 7680149945747733729, guid: 20126d64d2a3e6a48886fbe4f89dc724,
        type: 3}
      propertyPath: m_Tangents.Array.data[95].x
      value: 0.38684544
      objectReference: {fileID: 0}
    - target: {fileID: 7680149945747733729, guid: 20126d64d2a3e6a48886fbe4f89dc724,
        type: 3}
      propertyPath: m_Tangents.Array.data[95].z
      value: -0.92214453
      objectReference: {fileID: 0}
    - target: {fileID: 7680149945747733729, guid: 20126d64d2a3e6a48886fbe4f89dc724,
        type: 3}
      propertyPath: m_Tangents.Array.data[193].z
      value: 0.20598158
      objectReference: {fileID: 0}
    - target: {fileID: 7680149945747733729, guid: 20126d64d2a3e6a48886fbe4f89dc724,
        type: 3}
      propertyPath: m_Tangents.Array.data[194].z
      value: 0.20598158
      objectReference: {fileID: 0}
    - target: {fileID: 7680149945747733729, guid: 20126d64d2a3e6a48886fbe4f89dc724,
        type: 3}
      propertyPath: m_Tangents.Array.data[212].x
      value: -0.97855586
      objectReference: {fileID: 0}
    - target: {fileID: 7680149945747733729, guid: 20126d64d2a3e6a48886fbe4f89dc724,
        type: 3}
      propertyPath: m_Tangents.Array.data[212].z
      value: 0.20598154
      objectReference: {fileID: 0}
    - target: {fileID: 7680149945747733729, guid: 20126d64d2a3e6a48886fbe4f89dc724,
        type: 3}
      propertyPath: m_Tangents.Array.data[213].x
      value: -0.97855586
      objectReference: {fileID: 0}
    - target: {fileID: 7680149945747733729, guid: 20126d64d2a3e6a48886fbe4f89dc724,
        type: 3}
      propertyPath: m_Tangents.Array.data[214].x
      value: -0.97855586
      objectReference: {fileID: 0}
    - target: {fileID: 7680149945747733729, guid: 20126d64d2a3e6a48886fbe4f89dc724,
        type: 3}
      propertyPath: m_Tangents.Array.data[215].x
      value: -0.97855586
      objectReference: {fileID: 0}
    - target: {fileID: 7680149945747733729, guid: 20126d64d2a3e6a48886fbe4f89dc724,
        type: 3}
      propertyPath: m_Tangents.Array.data[215].z
      value: 0.20598155
      objectReference: {fileID: 0}
    - target: {fileID: 7680149945747733729, guid: 20126d64d2a3e6a48886fbe4f89dc724,
        type: 3}
      propertyPath: m_Textures0.Array.data[92].x
      value: 0.12279386
      objectReference: {fileID: 0}
    - target: {fileID: 7680149945747733729, guid: 20126d64d2a3e6a48886fbe4f89dc724,
        type: 3}
      propertyPath: m_Textures0.Array.data[93].x
      value: 0.12279386
      objectReference: {fileID: 0}
    - target: {fileID: 7680149945747733729, guid: 20126d64d2a3e6a48886fbe4f89dc724,
        type: 3}
      propertyPath: m_Textures0.Array.data[94].x
      value: -0.055621862
      objectReference: {fileID: 0}
    - target: {fileID: 7680149945747733729, guid: 20126d64d2a3e6a48886fbe4f89dc724,
        type: 3}
      propertyPath: m_Textures0.Array.data[95].x
      value: -0.055621862
      objectReference: {fileID: 0}
    - target: {fileID: 7680149945747733729, guid: 20126d64d2a3e6a48886fbe4f89dc724,
        type: 3}
      propertyPath: m_Textures0.Array.data[212].x
      value: -0.063857265
      objectReference: {fileID: 0}
    - target: {fileID: 7680149945747733729, guid: 20126d64d2a3e6a48886fbe4f89dc724,
        type: 3}
      propertyPath: m_Textures0.Array.data[213].x
      value: -0.063857265
      objectReference: {fileID: 0}
    - target: {fileID: 7680149945747733729, guid: 20126d64d2a3e6a48886fbe4f89dc724,
        type: 3}
      propertyPath: m_Textures0.Array.data[214].x
      value: -0.016920917
      objectReference: {fileID: 0}
    - target: {fileID: 7680149945747733729, guid: 20126d64d2a3e6a48886fbe4f89dc724,
        type: 3}
      propertyPath: m_Textures0.Array.data[215].x
      value: -0.016920917
      objectReference: {fileID: 0}
    - target: {fileID: 7795672621598102132, guid: 20126d64d2a3e6a48886fbe4f89dc724,
        type: 3}
      propertyPath: m_StaticEditorFlags
      value: 16
      objectReference: {fileID: 0}
    - target: {fileID: 8142039678342709593, guid: 20126d64d2a3e6a48886fbe4f89dc724,
        type: 3}
      propertyPath: m_StaticEditorFlags
      value: 16
      objectReference: {fileID: 0}
    - target: {fileID: 8190696680168960802, guid: 20126d64d2a3e6a48886fbe4f89dc724,
        type: 3}
      propertyPath: m_StaticEditorFlags
      value: 16
      objectReference: {fileID: 0}
    - target: {fileID: 8648035513509036127, guid: 20126d64d2a3e6a48886fbe4f89dc724,
        type: 3}
      propertyPath: m_StaticEditorFlags
      value: 16
      objectReference: {fileID: 0}
    - target: {fileID: 8667359920208141781, guid: 20126d64d2a3e6a48886fbe4f89dc724,
        type: 3}
      propertyPath: m_StaticEditorFlags
      value: 16
      objectReference: {fileID: 0}
    m_RemovedComponents: []
  m_SourcePrefab: {fileID: 100100000, guid: 20126d64d2a3e6a48886fbe4f89dc724, type: 3}
