%YAML 1.1
%TAG !u! tag:unity3d.com,2011:
--- !u!21 &2100000
Material:
  serializedVersion: 6
  m_ObjectHideFlags: 0
  m_CorrespondingSourceObject: {fileID: 0}
  m_PrefabInstance: {fileID: 0}
  m_PrefabAsset: {fileID: 0}
  m_Name: Sprite3DPlayer
  m_Shader: {fileID: 4800000, guid: 5643a252a46e98247b17e211c968ebb5, type: 3}
  m_ShaderKeywords: ETC1_EXTERNAL_ALPHA
  m_LightmapFlags: 1
  m_EnableInstancingVariants: 0
  m_DoubleSidedGI: 0
  m_CustomRenderQueue: -1
  stringTagMap: {}
  disabledShaderPasses: []
  m_SavedProperties:
    serializedVersion: 3
    m_TexEnvs:
    - _AlphaTex:
        m_Texture: {fileID: 0}
        m_Scale: {x: 1, y: 1}
        m_Offset: {x: 0, y: 0}
    - _BlendTex:
        m_Texture: {fileID: 0}
        m_Scale: {x: 1, y: 1}
        m_Offset: {x: 0, y: 0}
    - _BumpMap:
        m_Texture: {fileID: 0}
        m_Scale: {x: 1, y: 1}
        m_Offset: {x: 0, y: 0}
    - _ChargeTex:
        m_Texture: {fileID: 2800000, guid: f6e1f5edc2578244588d373891d29e6a, type: 3}
        m_Scale: {x: 1, y: 1}
        m_Offset: {x: 0, y: 0}
    - _DampAccentTex:
        m_Texture: {fileID: 2800000, guid: 9733f0d7aec8848f08cae3c95b44d3ae, type: 3}
        m_Scale: {x: 1, y: 1}
        m_Offset: {x: 0, y: 0}
    - _DampAccentTexture:
        m_Texture: {fileID: 2800000, guid: 93092410bbc6f4ccba773578db5832d9, type: 3}
        m_Scale: {x: 1, y: 1}
        m_Offset: {x: 0, y: 0}
    - _DetailAlbedoMap:
        m_Texture: {fileID: 0}
        m_Scale: {x: 1, y: 1}
        m_Offset: {x: 0, y: 0}
    - _DetailMask:
        m_Texture: {fileID: 0}
        m_Scale: {x: 1, y: 1}
        m_Offset: {x: 0, y: 0}
    - _DetailNormalMap:
        m_Texture: {fileID: 0}
        m_Scale: {x: 1, y: 1}
        m_Offset: {x: 0, y: 0}
    - _DiffuseRamp:
        m_Texture: {fileID: 0}
        m_Scale: {x: 1, y: 1}
        m_Offset: {x: 0, y: 0}
    - _DitherTex:
        m_Texture: {fileID: 2800000, guid: 19a6897facbbd4d89958f78265712db5, type: 3}
        m_Scale: {x: 1, y: 1}
        m_Offset: {x: 0, y: 0}
    - _EmissionMap:
        m_Texture: {fileID: 0}
        m_Scale: {x: 1, y: 1}
        m_Offset: {x: 0, y: 0}
    - _MainTex:
        m_Texture: {fileID: 0}
        m_Scale: {x: 1, y: 1}
        m_Offset: {x: 0, y: 0}
    - _MetallicGlossMap:
        m_Texture: {fileID: 0}
        m_Scale: {x: 1, y: 1}
        m_Offset: {x: 0, y: 0}
    - _OcclusionMap:
        m_Texture: {fileID: 0}
        m_Scale: {x: 1, y: 1}
        m_Offset: {x: 0, y: 0}
    - _OutlineTex:
        m_Texture: {fileID: 2800000, guid: 2f65c79c02e7a47bf9d4116f5ec5e8e6, type: 3}
        m_Scale: {x: 1000, y: 500}
        m_Offset: {x: 0, y: 0}
    - _ParallaxMap:
        m_Texture: {fileID: 0}
        m_Scale: {x: 1, y: 1}
        m_Offset: {x: 0, y: 0}
    - _SpecGlossMap:
        m_Texture: {fileID: 0}
        m_Scale: {x: 1, y: 1}
        m_Offset: {x: 0, y: 0}
    - _SwapTex:
        m_Texture: {fileID: 2800000, guid: f6e1f5edc2578244588d373891d29e6a, type: 3}
        m_Scale: {x: 1, y: 1}
        m_Offset: {x: 0, y: 0}
    m_Floats:
    - PixelSnap: 0
    - _BlendAmount: 0
    - _Brightness: 1
    - _BumpScale: 1
    - _Cull: 0
    - _CustomRenderQueue: 0
    - _Cutoff: 0.034
    - _Cutoff2: 0
    - _DampAccentMag: 0.05
    - _DampAccentScale: 2
    - _DampDimming: 0.6
    - _DampHeight: 0.279
    - _DampSpriteOffsetY: 0
    - _DampSpriteScaleY: 1
    - _DetailNormalMapScale: 1
    - _DitherColorBuffer: 0.3
    - _DitherEmissionScale: 0.1
    - _DitherSCale: 10
    - _DitherScale: 50
    - _DitherStrength: 0
    - _DitheringScale: 16.12
    - _DstBlend: 10
    - _EmissionPower: 1
    - _EnableExternalAlpha: 0
    - _FlipNormal: 0
    - _GlossMapScale: 1
    - _Glossiness: 0
    - _GlossyReflections: 1
    - _HairChangeOffset: 1.1
    - _HairCharge: 0
    - _HairEmissionScale: 0.1
    - _Hue: 0
    - _Lighten: 1.25
    - _Metallic: 0
    - _Mode: 1
    - _OcclusionStrength: 1
    - _Outline: 0.005
    - _OutlineCutoff: 0.8
    - _OutlineEmissionScale: 0.5
    - _OutlineScale: 40
    - _Parallax: 0.02
    - _RenderQueue: 0
    - _RimPower: 2
    - _Saturation: 1
    - _ShadowAlphaCutoff: 0.1
    - _SmoothnessTextureChannel: 0
    - _SpecularHighlights: 1
    - _SrcBlend: 1
    - _UVSec: 0
    - _ZWrite: 1
    m_Colors:
    - _BlueMaskColor: {r: 0, g: 0, b: 1, a: 1}
    - _ChangedHairColor1: {r: 0.19215687, g: 0.4862745, b: 0.8862745, a: 1}
    - _ChangedHairColor2: {r: 0.1254902, g: 0.34901962, b: 0.654902, a: 1}
    - _Color: {r: 1, g: 1, b: 1, a: 1}
    - _ColorTint: {r: 1, g: 1, b: 1, a: 1}
    - _DampTint: {r: 0.5283019, g: 0.5283019, b: 0.5283019, a: 1}
    - _DitherColor: {r: 1, g: 0, b: 0.6859312, a: 1}
    - _Emission: {r: 0, g: 0, b: 0, a: 1}
    - _EmissionColor: {r: 0, g: 0, b: 0, a: 1}
    - _FixedNormal: {r: 0, g: 0, b: 1, a: 1}
    - _Flip: {r: 1, g: 1, b: 1, a: 1}
    - _GreenMaskColor: {r: 0, g: 0, b: 1, a: 1}
    - _HairColor1: {r: 0.7019608, g: 0.29411766, b: 0.29411766, a: 1}
    - _HairColor2: {r: 0.5568628, g: 0.20784314, b: 0.25490198, a: 1}
    - _OutlineColor: {r: 1, g: 0, b: 0.65179634, a: 0}
    - _OverlayColor: {r: 0, g: 0, b: 0, a: 0}
    - _RedMaskColor: {r: 0, g: 0, b: 1, a: 1}
    - _RendererColor: {r: 1, g: 1, b: 1, a: 1}
    - _RimColor: {r: 1, g: 1, b: 1, a: 1}
    - _SpecColor: {r: 0.2, g: 0.2, b: 0.2, a: 1}
