%YAML 1.1
%TAG !u! tag:unity3d.com,2011:
--- !u!54 &9199865640843572864
Rigidbody:
  m_ObjectHideFlags: 0
  m_CorrespondingSourceObject: {fileID: 0}
  m_PrefabInstance: {fileID: 0}
  m_PrefabAsset: {fileID: 0}
  m_GameObject: {fileID: 1761080228849420840}
  serializedVersion: 2
  m_Mass: 1
  m_Drag: 0
  m_AngularDrag: 0
  m_UseGravity: 0
  m_IsKinematic: 1
  m_Interpolate: 0
  m_Constraints: 0
  m_CollisionDetection: 0
--- !u!114 &3102372449041113224
MonoBehaviour:
  m_ObjectHideFlags: 0
  m_CorrespondingSourceObject: {fileID: 0}
  m_PrefabInstance: {fileID: 0}
  m_PrefabAsset: {fileID: 0}
  m_GameObject: {fileID: 1761080228849420840}
  m_Enabled: 1
  m_EditorHideFlags: 0
  m_Script: {fileID: 11500000, guid: 9bf9d4c4f0f8629478d9747008118de6, type: 3}
  m_Name: 
  m_EditorClassIdentifier: 
  Rigidbody: {fileID: 9199865640843572864}
--- !u!114 &3915225438727218678
MonoBehaviour:
  m_ObjectHideFlags: 0
  m_CorrespondingSourceObject: {fileID: 0}
  m_PrefabInstance: {fileID: 0}
  m_PrefabAsset: {fileID: 0}
  m_GameObject: {fileID: 1761080228849420840}
  m_Enabled: 1
  m_EditorHideFlags: 0
  m_Script: {fileID: 11500000, guid: 5d707231473129c4d913705d79a55301, type: 3}
  m_Name: 
  m_EditorClassIdentifier: 
  mover: {fileID: 3102372449041113224}
  distanceCheckScalar: 1
  optimizerScalar: 1
  path: {fileID: 0}
  speed: 2
  rotationType: 0
  turnAxis: {x: 0, y: 0, z: 0}
  turnSpeed: 2
  rotationTarget: {fileID: 0}
  rotationOffset: 0
  maxDistanceToGoal: 0.1
  overrideResetPath: 0
  startDelay: 0
  waitDelay: 0
  disableIfFinished: 0
  onFinished:
    m_PersistentCalls:
      m_Calls: []
  onNodeLeft:
    m_PersistentCalls:
      m_Calls: []
  onNodeReached:
    m_PersistentCalls:
      m_Calls: []
  onTargetNodesReached: []
  snapToPathOnStart: 0
--- !u!114 &4900081504063140008
MonoBehaviour:
  m_ObjectHideFlags: 0
  m_CorrespondingSourceObject: {fileID: 0}
  m_PrefabInstance: {fileID: 0}
  m_PrefabAsset: {fileID: 0}
  m_GameObject: {fileID: 1761080228849420840}
  m_Enabled: 1
  m_EditorHideFlags: 0
  m_Script: {fileID: 11500000, guid: 32d283f7ca1351d44b57f85ae3e5fcdd, type: 3}
  m_Name: 
  m_EditorClassIdentifier: 
  slowResistance: 1
  ignorePhysicsAspect: 0
  log: 0
--- !u!114 &7186698179306640427
MonoBehaviour:
  m_ObjectHideFlags: 0
  m_CorrespondingSourceObject: {fileID: 0}
  m_PrefabInstance: {fileID: 0}
  m_PrefabAsset: {fileID: 0}
  m_GameObject: {fileID: 1761080228849420840}
  m_Enabled: 1
  m_EditorHideFlags: 0
  m_Script: {fileID: 11500000, guid: eedfb07a52d9ad548956fa273fbdc07a, type: 3}
  m_Name: 
  m_EditorClassIdentifier: 
--- !u!1001 &660686734016457098
PrefabInstance:
  m_ObjectHideFlags: 0
  serializedVersion: 2
  m_Modification:
    m_TransformParent: {fileID: 0}
    m_Modifications:
    - target: {fileID: 1250776075560395682, guid: e00aab7d4b7ef4cb0aa0e529284b7483,
        type: 3}
      propertyPath: m_Name
      value: Hookshot Claw (Moving Variant) Variant
      objectReference: {fileID: 0}
    - target: {fileID: 1250776075560395685, guid: e00aab7d4b7ef4cb0aa0e529284b7483,
        type: 3}
      propertyPath: m_RootOrder
      value: 0
      objectReference: {fileID: 0}
    - target: {fileID: 1250776075560395685, guid: e00aab7d4b7ef4cb0aa0e529284b7483,
        type: 3}
      propertyPath: m_LocalPosition.x
      value: 13.25
      objectReference: {fileID: 0}
    - target: {fileID: 1250776075560395685, guid: e00aab7d4b7ef4cb0aa0e529284b7483,
        type: 3}
      propertyPath: m_LocalPosition.y
      value: 11.79
      objectReference: {fileID: 0}
    - target: {fileID: 1250776075560395685, guid: e00aab7d4b7ef4cb0aa0e529284b7483,
        type: 3}
      propertyPath: m_LocalPosition.z
      value: -0.49
      objectReference: {fileID: 0}
    - target: {fileID: 1250776075560395685, guid: e00aab7d4b7ef4cb0aa0e529284b7483,
        type: 3}
      propertyPath: m_LocalRotation.w
      value: 0.7071068
      objectReference: {fileID: 0}
    - target: {fileID: 1250776075560395685, guid: e00aab7d4b7ef4cb0aa0e529284b7483,
        type: 3}
      propertyPath: m_LocalRotation.x
      value: 0.7071068
      objectReference: {fileID: 0}
    - target: {fileID: 1250776075560395685, guid: e00aab7d4b7ef4cb0aa0e529284b7483,
        type: 3}
      propertyPath: m_LocalRotation.y
      value: -0
      objectReference: {fileID: 0}
    - target: {fileID: 1250776075560395685, guid: e00aab7d4b7ef4cb0aa0e529284b7483,
        type: 3}
      propertyPath: m_LocalRotation.z
      value: -0
      objectReference: {fileID: 0}
    - target: {fileID: 1250776075560395685, guid: e00aab7d4b7ef4cb0aa0e529284b7483,
        type: 3}
      propertyPath: m_LocalEulerAnglesHint.x
      value: 90
      objectReference: {fileID: 0}
    - target: {fileID: 1250776075560395685, guid: e00aab7d4b7ef4cb0aa0e529284b7483,
        type: 3}
      propertyPath: m_LocalEulerAnglesHint.y
      value: 0
      objectReference: {fileID: 0}
    - target: {fileID: 1250776075560395685, guid: e00aab7d4b7ef4cb0aa0e529284b7483,
        type: 3}
      propertyPath: m_LocalEulerAnglesHint.z
      value: 0
      objectReference: {fileID: 0}
    m_RemovedComponents:
    - {fileID: 4200184595090848788, guid: e00aab7d4b7ef4cb0aa0e529284b7483, type: 3}
  m_SourcePrefab: {fileID: 100100000, guid: e00aab7d4b7ef4cb0aa0e529284b7483, type: 3}
--- !u!1 &1761080228849420840 stripped
GameObject:
  m_CorrespondingSourceObject: {fileID: 1250776075560395682, guid: e00aab7d4b7ef4cb0aa0e529284b7483,
    type: 3}
  m_PrefabInstance: {fileID: 660686734016457098}
  m_PrefabAsset: {fileID: 0}
