%YAML 1.1
%TAG !u! tag:unity3d.com,2011:
--- !u!1001 &8362821502268450414
PrefabInstance:
  m_ObjectHideFlags: 0
  serializedVersion: 2
  m_Modification:
    m_TransformParent: {fileID: 0}
    m_Modifications:
    - target: {fileID: 4551589521709821813, guid: c3d031ff40ac7e44ab7e7c7c1188ec06,
        type: 3}
      propertyPath: validStates.Array.size
      value: 2
      objectReference: {fileID: 0}
    - target: {fileID: 4551589521709821813, guid: c3d031ff40ac7e44ab7e7c7c1188ec06,
        type: 3}
      propertyPath: validStates.Array.data[0]
      value: 0
      objectReference: {fileID: 0}
    - target: {fileID: 8000575774589320086, guid: c3d031ff40ac7e44ab7e7c7c1188ec06,
        type: 3}
      propertyPath: m_Name
      value: (2D lava) Proximity Ambience
      objectReference: {fileID: 0}
    - target: {fileID: 8000575774589320086, guid: c3d031ff40ac7e44ab7e7c7c1188ec06,
        type: 3}
      propertyPath: m_IsActive
      value: 1
      objectReference: {fileID: 0}
    - target: {fileID: 8000575774589320087, guid: c3d031ff40ac7e44ab7e7c7c1188ec06,
        type: 3}
      propertyPath: m_RootOrder
      value: 0
      objectReference: {fileID: 0}
    - target: {fileID: 8000575774589320087, guid: c3d031ff40ac7e44ab7e7c7c1188ec06,
        type: 3}
      propertyPath: m_LocalPosition.x
      value: 12.04
      objectReference: {fileID: 0}
    - target: {fileID: 8000575774589320087, guid: c3d031ff40ac7e44ab7e7c7c1188ec06,
        type: 3}
      propertyPath: m_LocalPosition.y
      value: 1.35
      objectReference: {fileID: 0}
    - target: {fileID: 8000575774589320087, guid: c3d031ff40ac7e44ab7e7c7c1188ec06,
        type: 3}
      propertyPath: m_LocalPosition.z
      value: -3.02
      objectReference: {fileID: 0}
    - target: {fileID: 8000575774589320087, guid: c3d031ff40ac7e44ab7e7c7c1188ec06,
        type: 3}
      propertyPath: m_LocalRotation.w
      value: 1
      objectReference: {fileID: 0}
    - target: {fileID: 8000575774589320087, guid: c3d031ff40ac7e44ab7e7c7c1188ec06,
        type: 3}
      propertyPath: m_LocalRotation.x
      value: -0
      objectReference: {fileID: 0}
    - target: {fileID: 8000575774589320087, guid: c3d031ff40ac7e44ab7e7c7c1188ec06,
        type: 3}
      propertyPath: m_LocalRotation.y
      value: -0
      objectReference: {fileID: 0}
    - target: {fileID: 8000575774589320087, guid: c3d031ff40ac7e44ab7e7c7c1188ec06,
        type: 3}
      propertyPath: m_LocalRotation.z
      value: -0
      objectReference: {fileID: 0}
    - target: {fileID: 8000575774589320087, guid: c3d031ff40ac7e44ab7e7c7c1188ec06,
        type: 3}
      propertyPath: m_LocalEulerAnglesHint.x
      value: 0
      objectReference: {fileID: 0}
    - target: {fileID: 8000575774589320087, guid: c3d031ff40ac7e44ab7e7c7c1188ec06,
        type: 3}
      propertyPath: m_LocalEulerAnglesHint.y
      value: 0
      objectReference: {fileID: 0}
    - target: {fileID: 8000575774589320087, guid: c3d031ff40ac7e44ab7e7c7c1188ec06,
        type: 3}
      propertyPath: m_LocalEulerAnglesHint.z
      value: 0
      objectReference: {fileID: 0}
    - target: {fileID: 8000575774589320106, guid: c3d031ff40ac7e44ab7e7c7c1188ec06,
        type: 3}
      propertyPath: m_Volume
      value: 0.7
      objectReference: {fileID: 0}
    - target: {fileID: 8000575774589320106, guid: c3d031ff40ac7e44ab7e7c7c1188ec06,
        type: 3}
      propertyPath: m_audioClip
      value: 
      objectReference: {fileID: 8300000, guid: f8a69616213674c9391bae8099400f36, type: 3}
    - target: {fileID: 8000575774589320106, guid: c3d031ff40ac7e44ab7e7c7c1188ec06,
        type: 3}
      propertyPath: panLevelCustomCurve.m_Curve.Array.data[0].value
      value: 0
      objectReference: {fileID: 0}
    m_RemovedComponents:
    - {fileID: 8000575774589320084, guid: c3d031ff40ac7e44ab7e7c7c1188ec06, type: 3}
    - {fileID: 2276761194061048735, guid: c3d031ff40ac7e44ab7e7c7c1188ec06, type: 3}
  m_SourcePrefab: {fileID: 100100000, guid: c3d031ff40ac7e44ab7e7c7c1188ec06, type: 3}
