%YAML 1.1
%TAG !u! tag:unity3d.com,2011:
--- !u!1001 &2092002921638449940
PrefabInstance:
  m_ObjectHideFlags: 0
  serializedVersion: 2
  m_Modification:
    m_TransformParent: {fileID: 0}
    m_Modifications:
    - target: {fileID: 2385673459128451376, guid: ebb769587b84d41f795a3890152ff649,
        type: 3}
      propertyPath: m_RootOrder
      value: 0
      objectReference: {fileID: 0}
    - target: {fileID: 2385673459128451376, guid: ebb769587b84d41f795a3890152ff649,
        type: 3}
      propertyPath: m_LocalScale.x
      value: 2
      objectReference: {fileID: 0}
    - target: {fileID: 2385673459128451376, guid: ebb769587b84d41f795a3890152ff649,
        type: 3}
      propertyPath: m_LocalScale.y
      value: 2
      objectReference: {fileID: 0}
    - target: {fileID: 2385673459128451376, guid: ebb769587b84d41f795a3890152ff649,
        type: 3}
      propertyPath: m_LocalScale.z
      value: 2
      objectReference: {fileID: 0}
    - target: {fileID: 2385673459128451376, guid: ebb769587b84d41f795a3890152ff649,
        type: 3}
      propertyPath: m_LocalPosition.x
      value: 0
      objectReference: {fileID: 0}
    - target: {fileID: 2385673459128451376, guid: ebb769587b84d41f795a3890152ff649,
        type: 3}
      propertyPath: m_LocalPosition.y
      value: 0
      objectReference: {fileID: 0}
    - target: {fileID: 2385673459128451376, guid: ebb769587b84d41f795a3890152ff649,
        type: 3}
      propertyPath: m_LocalPosition.z
      value: 0
      objectReference: {fileID: 0}
    - target: {fileID: 2385673459128451376, guid: ebb769587b84d41f795a3890152ff649,
        type: 3}
      propertyPath: m_LocalRotation.w
      value: 0.9707971
      objectReference: {fileID: 0}
    - target: {fileID: 2385673459128451376, guid: ebb769587b84d41f795a3890152ff649,
        type: 3}
      propertyPath: m_LocalRotation.x
      value: -0.23990196
      objectReference: {fileID: 0}
    - target: {fileID: 2385673459128451376, guid: ebb769587b84d41f795a3890152ff649,
        type: 3}
      propertyPath: m_LocalRotation.y
      value: -0
      objectReference: {fileID: 0}
    - target: {fileID: 2385673459128451376, guid: ebb769587b84d41f795a3890152ff649,
        type: 3}
      propertyPath: m_LocalRotation.z
      value: -0
      objectReference: {fileID: 0}
    - target: {fileID: 2385673459128451376, guid: ebb769587b84d41f795a3890152ff649,
        type: 3}
      propertyPath: m_LocalEulerAnglesHint.x
      value: -27.762001
      objectReference: {fileID: 0}
    - target: {fileID: 2385673459128451376, guid: ebb769587b84d41f795a3890152ff649,
        type: 3}
      propertyPath: m_LocalEulerAnglesHint.y
      value: 0
      objectReference: {fileID: 0}
    - target: {fileID: 2385673459128451376, guid: ebb769587b84d41f795a3890152ff649,
        type: 3}
      propertyPath: m_LocalEulerAnglesHint.z
      value: 0
      objectReference: {fileID: 0}
    - target: {fileID: 2385673459711583383, guid: ebb769587b84d41f795a3890152ff649,
        type: 3}
      propertyPath: size
      value: 1
      objectReference: {fileID: 0}
    - target: {fileID: 2385673459711583383, guid: ebb769587b84d41f795a3890152ff649,
        type: 3}
      propertyPath: rateOfFire
      value: 4
      objectReference: {fileID: 0}
    - target: {fileID: 2385673459711583383, guid: ebb769587b84d41f795a3890152ff649,
        type: 3}
      propertyPath: projectilePrefab
      value: 
      objectReference: {fileID: 2694682258944688370, guid: e167d3a1cc6534dc487b6b755ecc50ff,
        type: 3}
    - target: {fileID: 3925790370523723232, guid: ebb769587b84d41f795a3890152ff649,
        type: 3}
      propertyPath: m_Name
      value: Projectile Emitter - Simple - Black Bullet (Big Variant)
      objectReference: {fileID: 0}
    m_RemovedComponents: []
  m_SourcePrefab: {fileID: 100100000, guid: ebb769587b84d41f795a3890152ff649, type: 3}
