%YAML 1.1
%TAG !u! tag:unity3d.com,2011:
--- !u!54 &7915412144979504048
Rigidbody:
  m_ObjectHideFlags: 0
  m_CorrespondingSourceObject: {fileID: 0}
  m_PrefabInstance: {fileID: 0}
  m_PrefabAsset: {fileID: 0}
  m_GameObject: {fileID: 3232125841907979937}
  serializedVersion: 2
  m_Mass: 20
  m_Drag: 0
  m_AngularDrag: 0
  m_UseGravity: 0
  m_IsKinematic: 1
  m_Interpolate: 0
  m_Constraints: 0
  m_CollisionDetection: 0
--- !u!114 &5776422239987993879
MonoBehaviour:
  m_ObjectHideFlags: 0
  m_CorrespondingSourceObject: {fileID: 0}
  m_PrefabInstance: {fileID: 0}
  m_PrefabAsset: {fileID: 0}
  m_GameObject: {fileID: 3232125841907979937}
  m_Enabled: 1
  m_EditorHideFlags: 0
  m_Script: {fileID: 11500000, guid: 32d283f7ca1351d44b57f85ae3e5fcdd, type: 3}
  m_Name: 
  m_EditorClassIdentifier: 
  slowResistance: 1
  ignorePhysicsAspect: 0
  log: 0
--- !u!114 &7934631004178455588
MonoBehaviour:
  m_ObjectHideFlags: 0
  m_CorrespondingSourceObject: {fileID: 0}
  m_PrefabInstance: {fileID: 0}
  m_PrefabAsset: {fileID: 0}
  m_GameObject: {fileID: 3232125841907979937}
  m_Enabled: 1
  m_EditorHideFlags: 0
  m_Script: {fileID: 11500000, guid: 9bf9d4c4f0f8629478d9747008118de6, type: 3}
  m_Name: 
  m_EditorClassIdentifier: 
  Rigidbody: {fileID: 7915412144979504048}
--- !u!114 &9200190238514208104
MonoBehaviour:
  m_ObjectHideFlags: 0
  m_CorrespondingSourceObject: {fileID: 0}
  m_PrefabInstance: {fileID: 0}
  m_PrefabAsset: {fileID: 0}
  m_GameObject: {fileID: 3232125841907979937}
  m_Enabled: 1
  m_EditorHideFlags: 0
  m_Script: {fileID: 11500000, guid: 5d707231473129c4d913705d79a55301, type: 3}
  m_Name: 
  m_EditorClassIdentifier: 
  mover: {fileID: 7934631004178455588}
  distanceCheckScalar: 1
  optimizerScalar: 1
  path: {fileID: 0}
  speed: 2
  rotationType: 0
  turnAxis: {x: 0, y: 0, z: 0}
  turnSpeed: 0
  rotationTarget: {fileID: 0}
  rotationOffset: 0
  maxDistanceToGoal: 0.1
  overrideResetPath: 0
  startDelay: 0
  waitDelay: 0
  disableIfFinished: 0
  onFinished:
    m_PersistentCalls:
      m_Calls: []
  onNodeLeft:
    m_PersistentCalls:
      m_Calls: []
  onNodeReached:
    m_PersistentCalls:
      m_Calls: []
  onTargetNodesReached: []
  snapToPathOnStart: 0
--- !u!1001 &2402662339945914585
PrefabInstance:
  m_ObjectHideFlags: 0
  serializedVersion: 2
  m_Modification:
    m_TransformParent: {fileID: 0}
    m_Modifications:
    - target: {fileID: 976482870273406584, guid: 7cd3a9c9877b94416ae1e40710bed8db,
        type: 3}
      propertyPath: m_Name
      value: Jelly Platform (Bouncy) (Moving Variant)
      objectReference: {fileID: 0}
    - target: {fileID: 976482870273406587, guid: 7cd3a9c9877b94416ae1e40710bed8db,
        type: 3}
      propertyPath: m_RootOrder
      value: 0
      objectReference: {fileID: 0}
    - target: {fileID: 976482870273406587, guid: 7cd3a9c9877b94416ae1e40710bed8db,
        type: 3}
      propertyPath: m_LocalPosition.x
      value: 0
      objectReference: {fileID: 0}
    - target: {fileID: 976482870273406587, guid: 7cd3a9c9877b94416ae1e40710bed8db,
        type: 3}
      propertyPath: m_LocalPosition.y
      value: 0
      objectReference: {fileID: 0}
    - target: {fileID: 976482870273406587, guid: 7cd3a9c9877b94416ae1e40710bed8db,
        type: 3}
      propertyPath: m_LocalPosition.z
      value: 0
      objectReference: {fileID: 0}
    - target: {fileID: 976482870273406587, guid: 7cd3a9c9877b94416ae1e40710bed8db,
        type: 3}
      propertyPath: m_LocalRotation.w
      value: 1
      objectReference: {fileID: 0}
    - target: {fileID: 976482870273406587, guid: 7cd3a9c9877b94416ae1e40710bed8db,
        type: 3}
      propertyPath: m_LocalRotation.x
      value: 0
      objectReference: {fileID: 0}
    - target: {fileID: 976482870273406587, guid: 7cd3a9c9877b94416ae1e40710bed8db,
        type: 3}
      propertyPath: m_LocalRotation.y
      value: 0
      objectReference: {fileID: 0}
    - target: {fileID: 976482870273406587, guid: 7cd3a9c9877b94416ae1e40710bed8db,
        type: 3}
      propertyPath: m_LocalRotation.z
      value: 0
      objectReference: {fileID: 0}
    - target: {fileID: 976482870273406587, guid: 7cd3a9c9877b94416ae1e40710bed8db,
        type: 3}
      propertyPath: m_LocalEulerAnglesHint.x
      value: 0
      objectReference: {fileID: 0}
    - target: {fileID: 976482870273406587, guid: 7cd3a9c9877b94416ae1e40710bed8db,
        type: 3}
      propertyPath: m_LocalEulerAnglesHint.y
      value: 0
      objectReference: {fileID: 0}
    - target: {fileID: 976482870273406587, guid: 7cd3a9c9877b94416ae1e40710bed8db,
        type: 3}
      propertyPath: m_LocalEulerAnglesHint.z
      value: 0
      objectReference: {fileID: 0}
    - target: {fileID: 976482870572360980, guid: 7cd3a9c9877b94416ae1e40710bed8db,
        type: 3}
      propertyPath: m_Layer
      value: 17
      objectReference: {fileID: 0}
    - target: {fileID: 976482871050540372, guid: 7cd3a9c9877b94416ae1e40710bed8db,
        type: 3}
      propertyPath: m_SelectedEdges.Array.size
      value: 0
      objectReference: {fileID: 0}
    - target: {fileID: 976482871050540372, guid: 7cd3a9c9877b94416ae1e40710bed8db,
        type: 3}
      propertyPath: m_SelectedFaces.Array.size
      value: 0
      objectReference: {fileID: 0}
    - target: {fileID: 976482871050540372, guid: 7cd3a9c9877b94416ae1e40710bed8db,
        type: 3}
      propertyPath: m_SelectedVertices.Array.size
      value: 0
      objectReference: {fileID: 0}
    m_RemovedComponents: []
  m_SourcePrefab: {fileID: 100100000, guid: 7cd3a9c9877b94416ae1e40710bed8db, type: 3}
--- !u!1 &3232125841907979937 stripped
GameObject:
  m_CorrespondingSourceObject: {fileID: 976482870273406584, guid: 7cd3a9c9877b94416ae1e40710bed8db,
    type: 3}
  m_PrefabInstance: {fileID: 2402662339945914585}
  m_PrefabAsset: {fileID: 0}
