%YAML 1.1
%TAG !u! tag:unity3d.com,2011:
--- !u!1001 &1283433469366343354
PrefabInstance:
  m_ObjectHideFlags: 0
  serializedVersion: 2
  m_Modification:
    m_TransformParent: {fileID: 0}
    m_Modifications:
    - target: {fileID: 42534633235665203, guid: 667b6ca98f35547d2a50f6ab7ed50575,
        type: 3}
      propertyPath: m_Name
      value: Pusher 1 (Wall Slot) Apocadesert Variant
      objectReference: {fileID: 0}
    - target: {fileID: 42534633235665204, guid: 667b6ca98f35547d2a50f6ab7ed50575,
        type: 3}
      propertyPath: m_RootOrder
      value: 0
      objectReference: {fileID: 0}
    - target: {fileID: 42534633235665204, guid: 667b6ca98f35547d2a50f6ab7ed50575,
        type: 3}
      propertyPath: m_LocalPosition.x
      value: 0
      objectReference: {fileID: 0}
    - target: {fileID: 42534633235665204, guid: 667b6ca98f35547d2a50f6ab7ed50575,
        type: 3}
      propertyPath: m_LocalPosition.y
      value: 0
      objectReference: {fileID: 0}
    - target: {fileID: 42534633235665204, guid: 667b6ca98f35547d2a50f6ab7ed50575,
        type: 3}
      propertyPath: m_LocalPosition.z
      value: 0
      objectReference: {fileID: 0}
    - target: {fileID: 42534633235665204, guid: 667b6ca98f35547d2a50f6ab7ed50575,
        type: 3}
      propertyPath: m_LocalRotation.w
      value: 1
      objectReference: {fileID: 0}
    - target: {fileID: 42534633235665204, guid: 667b6ca98f35547d2a50f6ab7ed50575,
        type: 3}
      propertyPath: m_LocalRotation.x
      value: -0
      objectReference: {fileID: 0}
    - target: {fileID: 42534633235665204, guid: 667b6ca98f35547d2a50f6ab7ed50575,
        type: 3}
      propertyPath: m_LocalRotation.y
      value: -0
      objectReference: {fileID: 0}
    - target: {fileID: 42534633235665204, guid: 667b6ca98f35547d2a50f6ab7ed50575,
        type: 3}
      propertyPath: m_LocalRotation.z
      value: -0
      objectReference: {fileID: 0}
    - target: {fileID: 42534633235665204, guid: 667b6ca98f35547d2a50f6ab7ed50575,
        type: 3}
      propertyPath: m_LocalEulerAnglesHint.x
      value: 0
      objectReference: {fileID: 0}
    - target: {fileID: 42534633235665204, guid: 667b6ca98f35547d2a50f6ab7ed50575,
        type: 3}
      propertyPath: m_LocalEulerAnglesHint.y
      value: -67.7
      objectReference: {fileID: 0}
    - target: {fileID: 42534633235665204, guid: 667b6ca98f35547d2a50f6ab7ed50575,
        type: 3}
      propertyPath: m_LocalEulerAnglesHint.z
      value: 0
      objectReference: {fileID: 0}
    - target: {fileID: 42534633235665206, guid: 667b6ca98f35547d2a50f6ab7ed50575,
        type: 3}
      propertyPath: m_SelectedEdges.Array.size
      value: 4
      objectReference: {fileID: 0}
    - target: {fileID: 42534633235665206, guid: 667b6ca98f35547d2a50f6ab7ed50575,
        type: 3}
      propertyPath: m_SelectedFaces.Array.size
      value: 1
      objectReference: {fileID: 0}
    - target: {fileID: 42534633235665206, guid: 667b6ca98f35547d2a50f6ab7ed50575,
        type: 3}
      propertyPath: m_SelectedFaces.Array.data[0]
      value: 4
      objectReference: {fileID: 0}
    - target: {fileID: 42534633235665206, guid: 667b6ca98f35547d2a50f6ab7ed50575,
        type: 3}
      propertyPath: m_SelectedFaces.Array.data[1]
      value: 1
      objectReference: {fileID: 0}
    - target: {fileID: 42534633235665206, guid: 667b6ca98f35547d2a50f6ab7ed50575,
        type: 3}
      propertyPath: m_SelectedFaces.Array.data[2]
      value: 2
      objectReference: {fileID: 0}
    - target: {fileID: 42534633235665206, guid: 667b6ca98f35547d2a50f6ab7ed50575,
        type: 3}
      propertyPath: m_SelectedFaces.Array.data[3]
      value: 3
      objectReference: {fileID: 0}
    - target: {fileID: 42534633235665206, guid: 667b6ca98f35547d2a50f6ab7ed50575,
        type: 3}
      propertyPath: m_SelectedFaces.Array.data[4]
      value: 4
      objectReference: {fileID: 0}
    - target: {fileID: 42534633235665206, guid: 667b6ca98f35547d2a50f6ab7ed50575,
        type: 3}
      propertyPath: m_SelectedFaces.Array.data[5]
      value: 5
      objectReference: {fileID: 0}
    - target: {fileID: 42534633235665206, guid: 667b6ca98f35547d2a50f6ab7ed50575,
        type: 3}
      propertyPath: m_SelectedFaces.Array.data[6]
      value: 6
      objectReference: {fileID: 0}
    - target: {fileID: 42534633235665206, guid: 667b6ca98f35547d2a50f6ab7ed50575,
        type: 3}
      propertyPath: m_SelectedFaces.Array.data[7]
      value: 7
      objectReference: {fileID: 0}
    - target: {fileID: 42534633235665206, guid: 667b6ca98f35547d2a50f6ab7ed50575,
        type: 3}
      propertyPath: m_SelectedFaces.Array.data[8]
      value: 8
      objectReference: {fileID: 0}
    - target: {fileID: 42534633235665206, guid: 667b6ca98f35547d2a50f6ab7ed50575,
        type: 3}
      propertyPath: m_SelectedFaces.Array.data[9]
      value: 9
      objectReference: {fileID: 0}
    - target: {fileID: 42534633235665206, guid: 667b6ca98f35547d2a50f6ab7ed50575,
        type: 3}
      propertyPath: m_SelectedVertices.Array.size
      value: 4
      objectReference: {fileID: 0}
    - target: {fileID: 42534633235665206, guid: 667b6ca98f35547d2a50f6ab7ed50575,
        type: 3}
      propertyPath: m_SelectedFaces.Array.data[10]
      value: 10
      objectReference: {fileID: 0}
    - target: {fileID: 42534633235665206, guid: 667b6ca98f35547d2a50f6ab7ed50575,
        type: 3}
      propertyPath: m_SelectedFaces.Array.data[11]
      value: 11
      objectReference: {fileID: 0}
    - target: {fileID: 42534633235665206, guid: 667b6ca98f35547d2a50f6ab7ed50575,
        type: 3}
      propertyPath: m_SelectedFaces.Array.data[12]
      value: 12
      objectReference: {fileID: 0}
    - target: {fileID: 42534633235665206, guid: 667b6ca98f35547d2a50f6ab7ed50575,
        type: 3}
      propertyPath: m_SelectedFaces.Array.data[13]
      value: 13
      objectReference: {fileID: 0}
    - target: {fileID: 42534633235665206, guid: 667b6ca98f35547d2a50f6ab7ed50575,
        type: 3}
      propertyPath: m_SelectedFaces.Array.data[14]
      value: 14
      objectReference: {fileID: 0}
    - target: {fileID: 42534633235665206, guid: 667b6ca98f35547d2a50f6ab7ed50575,
        type: 3}
      propertyPath: m_SelectedFaces.Array.data[15]
      value: 15
      objectReference: {fileID: 0}
    - target: {fileID: 42534633235665206, guid: 667b6ca98f35547d2a50f6ab7ed50575,
        type: 3}
      propertyPath: m_SelectedFaces.Array.data[16]
      value: 16
      objectReference: {fileID: 0}
    - target: {fileID: 42534633235665206, guid: 667b6ca98f35547d2a50f6ab7ed50575,
        type: 3}
      propertyPath: m_SelectedFaces.Array.data[17]
      value: 17
      objectReference: {fileID: 0}
    - target: {fileID: 42534633235665206, guid: 667b6ca98f35547d2a50f6ab7ed50575,
        type: 3}
      propertyPath: m_SelectedEdges.Array.data[0].a
      value: 16
      objectReference: {fileID: 0}
    - target: {fileID: 42534633235665206, guid: 667b6ca98f35547d2a50f6ab7ed50575,
        type: 3}
      propertyPath: m_SelectedEdges.Array.data[0].b
      value: 17
      objectReference: {fileID: 0}
    - target: {fileID: 42534633235665206, guid: 667b6ca98f35547d2a50f6ab7ed50575,
        type: 3}
      propertyPath: m_SelectedEdges.Array.data[1].a
      value: 18
      objectReference: {fileID: 0}
    - target: {fileID: 42534633235665206, guid: 667b6ca98f35547d2a50f6ab7ed50575,
        type: 3}
      propertyPath: m_SelectedEdges.Array.data[1].b
      value: 16
      objectReference: {fileID: 0}
    - target: {fileID: 42534633235665206, guid: 667b6ca98f35547d2a50f6ab7ed50575,
        type: 3}
      propertyPath: m_SelectedEdges.Array.data[2].a
      value: 17
      objectReference: {fileID: 0}
    - target: {fileID: 42534633235665206, guid: 667b6ca98f35547d2a50f6ab7ed50575,
        type: 3}
      propertyPath: m_SelectedEdges.Array.data[2].b
      value: 19
      objectReference: {fileID: 0}
    - target: {fileID: 42534633235665206, guid: 667b6ca98f35547d2a50f6ab7ed50575,
        type: 3}
      propertyPath: m_SelectedEdges.Array.data[3].a
      value: 19
      objectReference: {fileID: 0}
    - target: {fileID: 42534633235665206, guid: 667b6ca98f35547d2a50f6ab7ed50575,
        type: 3}
      propertyPath: m_SelectedEdges.Array.data[3].b
      value: 18
      objectReference: {fileID: 0}
    - target: {fileID: 42534633235665206, guid: 667b6ca98f35547d2a50f6ab7ed50575,
        type: 3}
      propertyPath: m_SelectedEdges.Array.data[4].a
      value: 4
      objectReference: {fileID: 0}
    - target: {fileID: 42534633235665206, guid: 667b6ca98f35547d2a50f6ab7ed50575,
        type: 3}
      propertyPath: m_SelectedEdges.Array.data[4].b
      value: 5
      objectReference: {fileID: 0}
    - target: {fileID: 42534633235665206, guid: 667b6ca98f35547d2a50f6ab7ed50575,
        type: 3}
      propertyPath: m_SelectedEdges.Array.data[5].a
      value: 6
      objectReference: {fileID: 0}
    - target: {fileID: 42534633235665206, guid: 667b6ca98f35547d2a50f6ab7ed50575,
        type: 3}
      propertyPath: m_SelectedEdges.Array.data[5].b
      value: 4
      objectReference: {fileID: 0}
    - target: {fileID: 42534633235665206, guid: 667b6ca98f35547d2a50f6ab7ed50575,
        type: 3}
      propertyPath: m_SelectedEdges.Array.data[6].a
      value: 5
      objectReference: {fileID: 0}
    - target: {fileID: 42534633235665206, guid: 667b6ca98f35547d2a50f6ab7ed50575,
        type: 3}
      propertyPath: m_SelectedEdges.Array.data[6].b
      value: 7
      objectReference: {fileID: 0}
    - target: {fileID: 42534633235665206, guid: 667b6ca98f35547d2a50f6ab7ed50575,
        type: 3}
      propertyPath: m_SelectedEdges.Array.data[7].a
      value: 7
      objectReference: {fileID: 0}
    - target: {fileID: 42534633235665206, guid: 667b6ca98f35547d2a50f6ab7ed50575,
        type: 3}
      propertyPath: m_SelectedEdges.Array.data[7].b
      value: 6
      objectReference: {fileID: 0}
    - target: {fileID: 42534633235665206, guid: 667b6ca98f35547d2a50f6ab7ed50575,
        type: 3}
      propertyPath: m_SelectedEdges.Array.data[8].a
      value: 8
      objectReference: {fileID: 0}
    - target: {fileID: 42534633235665206, guid: 667b6ca98f35547d2a50f6ab7ed50575,
        type: 3}
      propertyPath: m_SelectedEdges.Array.data[8].b
      value: 9
      objectReference: {fileID: 0}
    - target: {fileID: 42534633235665206, guid: 667b6ca98f35547d2a50f6ab7ed50575,
        type: 3}
      propertyPath: m_SelectedEdges.Array.data[9].a
      value: 10
      objectReference: {fileID: 0}
    - target: {fileID: 42534633235665206, guid: 667b6ca98f35547d2a50f6ab7ed50575,
        type: 3}
      propertyPath: m_SelectedEdges.Array.data[9].b
      value: 8
      objectReference: {fileID: 0}
    - target: {fileID: 42534633235665206, guid: 667b6ca98f35547d2a50f6ab7ed50575,
        type: 3}
      propertyPath: m_SelectedEdges.Array.data[10].a
      value: 9
      objectReference: {fileID: 0}
    - target: {fileID: 42534633235665206, guid: 667b6ca98f35547d2a50f6ab7ed50575,
        type: 3}
      propertyPath: m_SelectedEdges.Array.data[10].b
      value: 11
      objectReference: {fileID: 0}
    - target: {fileID: 42534633235665206, guid: 667b6ca98f35547d2a50f6ab7ed50575,
        type: 3}
      propertyPath: m_SelectedEdges.Array.data[11].a
      value: 11
      objectReference: {fileID: 0}
    - target: {fileID: 42534633235665206, guid: 667b6ca98f35547d2a50f6ab7ed50575,
        type: 3}
      propertyPath: m_SelectedEdges.Array.data[11].b
      value: 10
      objectReference: {fileID: 0}
    - target: {fileID: 42534633235665206, guid: 667b6ca98f35547d2a50f6ab7ed50575,
        type: 3}
      propertyPath: m_SelectedEdges.Array.data[12].a
      value: 12
      objectReference: {fileID: 0}
    - target: {fileID: 42534633235665206, guid: 667b6ca98f35547d2a50f6ab7ed50575,
        type: 3}
      propertyPath: m_SelectedEdges.Array.data[12].b
      value: 13
      objectReference: {fileID: 0}
    - target: {fileID: 42534633235665206, guid: 667b6ca98f35547d2a50f6ab7ed50575,
        type: 3}
      propertyPath: m_SelectedEdges.Array.data[13].a
      value: 14
      objectReference: {fileID: 0}
    - target: {fileID: 42534633235665206, guid: 667b6ca98f35547d2a50f6ab7ed50575,
        type: 3}
      propertyPath: m_SelectedEdges.Array.data[13].b
      value: 12
      objectReference: {fileID: 0}
    - target: {fileID: 42534633235665206, guid: 667b6ca98f35547d2a50f6ab7ed50575,
        type: 3}
      propertyPath: m_SelectedEdges.Array.data[14].a
      value: 13
      objectReference: {fileID: 0}
    - target: {fileID: 42534633235665206, guid: 667b6ca98f35547d2a50f6ab7ed50575,
        type: 3}
      propertyPath: m_SelectedEdges.Array.data[14].b
      value: 15
      objectReference: {fileID: 0}
    - target: {fileID: 42534633235665206, guid: 667b6ca98f35547d2a50f6ab7ed50575,
        type: 3}
      propertyPath: m_SelectedEdges.Array.data[15].a
      value: 15
      objectReference: {fileID: 0}
    - target: {fileID: 42534633235665206, guid: 667b6ca98f35547d2a50f6ab7ed50575,
        type: 3}
      propertyPath: m_SelectedEdges.Array.data[15].b
      value: 14
      objectReference: {fileID: 0}
    - target: {fileID: 42534633235665206, guid: 667b6ca98f35547d2a50f6ab7ed50575,
        type: 3}
      propertyPath: m_SelectedEdges.Array.data[16].a
      value: 16
      objectReference: {fileID: 0}
    - target: {fileID: 42534633235665206, guid: 667b6ca98f35547d2a50f6ab7ed50575,
        type: 3}
      propertyPath: m_SelectedEdges.Array.data[16].b
      value: 17
      objectReference: {fileID: 0}
    - target: {fileID: 42534633235665206, guid: 667b6ca98f35547d2a50f6ab7ed50575,
        type: 3}
      propertyPath: m_SelectedEdges.Array.data[17].a
      value: 18
      objectReference: {fileID: 0}
    - target: {fileID: 42534633235665206, guid: 667b6ca98f35547d2a50f6ab7ed50575,
        type: 3}
      propertyPath: m_SelectedEdges.Array.data[17].b
      value: 16
      objectReference: {fileID: 0}
    - target: {fileID: 42534633235665206, guid: 667b6ca98f35547d2a50f6ab7ed50575,
        type: 3}
      propertyPath: m_SelectedEdges.Array.data[18].a
      value: 17
      objectReference: {fileID: 0}
    - target: {fileID: 42534633235665206, guid: 667b6ca98f35547d2a50f6ab7ed50575,
        type: 3}
      propertyPath: m_SelectedEdges.Array.data[18].b
      value: 19
      objectReference: {fileID: 0}
    - target: {fileID: 42534633235665206, guid: 667b6ca98f35547d2a50f6ab7ed50575,
        type: 3}
      propertyPath: m_SelectedEdges.Array.data[19].a
      value: 19
      objectReference: {fileID: 0}
    - target: {fileID: 42534633235665206, guid: 667b6ca98f35547d2a50f6ab7ed50575,
        type: 3}
      propertyPath: m_SelectedEdges.Array.data[19].b
      value: 18
      objectReference: {fileID: 0}
    - target: {fileID: 42534633235665206, guid: 667b6ca98f35547d2a50f6ab7ed50575,
        type: 3}
      propertyPath: m_SelectedEdges.Array.data[20].a
      value: 20
      objectReference: {fileID: 0}
    - target: {fileID: 42534633235665206, guid: 667b6ca98f35547d2a50f6ab7ed50575,
        type: 3}
      propertyPath: m_SelectedEdges.Array.data[20].b
      value: 21
      objectReference: {fileID: 0}
    - target: {fileID: 42534633235665206, guid: 667b6ca98f35547d2a50f6ab7ed50575,
        type: 3}
      propertyPath: m_SelectedEdges.Array.data[21].a
      value: 22
      objectReference: {fileID: 0}
    - target: {fileID: 42534633235665206, guid: 667b6ca98f35547d2a50f6ab7ed50575,
        type: 3}
      propertyPath: m_SelectedEdges.Array.data[21].b
      value: 20
      objectReference: {fileID: 0}
    - target: {fileID: 42534633235665206, guid: 667b6ca98f35547d2a50f6ab7ed50575,
        type: 3}
      propertyPath: m_SelectedEdges.Array.data[22].a
      value: 21
      objectReference: {fileID: 0}
    - target: {fileID: 42534633235665206, guid: 667b6ca98f35547d2a50f6ab7ed50575,
        type: 3}
      propertyPath: m_SelectedEdges.Array.data[22].b
      value: 23
      objectReference: {fileID: 0}
    - target: {fileID: 42534633235665206, guid: 667b6ca98f35547d2a50f6ab7ed50575,
        type: 3}
      propertyPath: m_SelectedEdges.Array.data[23].a
      value: 23
      objectReference: {fileID: 0}
    - target: {fileID: 42534633235665206, guid: 667b6ca98f35547d2a50f6ab7ed50575,
        type: 3}
      propertyPath: m_SelectedEdges.Array.data[23].b
      value: 22
      objectReference: {fileID: 0}
    - target: {fileID: 42534633235665206, guid: 667b6ca98f35547d2a50f6ab7ed50575,
        type: 3}
      propertyPath: m_SelectedEdges.Array.data[24].a
      value: 24
      objectReference: {fileID: 0}
    - target: {fileID: 42534633235665206, guid: 667b6ca98f35547d2a50f6ab7ed50575,
        type: 3}
      propertyPath: m_SelectedEdges.Array.data[24].b
      value: 25
      objectReference: {fileID: 0}
    - target: {fileID: 42534633235665206, guid: 667b6ca98f35547d2a50f6ab7ed50575,
        type: 3}
      propertyPath: m_SelectedEdges.Array.data[25].a
      value: 26
      objectReference: {fileID: 0}
    - target: {fileID: 42534633235665206, guid: 667b6ca98f35547d2a50f6ab7ed50575,
        type: 3}
      propertyPath: m_SelectedEdges.Array.data[25].b
      value: 24
      objectReference: {fileID: 0}
    - target: {fileID: 42534633235665206, guid: 667b6ca98f35547d2a50f6ab7ed50575,
        type: 3}
      propertyPath: m_SelectedEdges.Array.data[26].a
      value: 25
      objectReference: {fileID: 0}
    - target: {fileID: 42534633235665206, guid: 667b6ca98f35547d2a50f6ab7ed50575,
        type: 3}
      propertyPath: m_SelectedEdges.Array.data[26].b
      value: 27
      objectReference: {fileID: 0}
    - target: {fileID: 42534633235665206, guid: 667b6ca98f35547d2a50f6ab7ed50575,
        type: 3}
      propertyPath: m_SelectedEdges.Array.data[27].a
      value: 27
      objectReference: {fileID: 0}
    - target: {fileID: 42534633235665206, guid: 667b6ca98f35547d2a50f6ab7ed50575,
        type: 3}
      propertyPath: m_SelectedEdges.Array.data[27].b
      value: 26
      objectReference: {fileID: 0}
    - target: {fileID: 42534633235665206, guid: 667b6ca98f35547d2a50f6ab7ed50575,
        type: 3}
      propertyPath: m_SelectedEdges.Array.data[28].a
      value: 28
      objectReference: {fileID: 0}
    - target: {fileID: 42534633235665206, guid: 667b6ca98f35547d2a50f6ab7ed50575,
        type: 3}
      propertyPath: m_SelectedEdges.Array.data[28].b
      value: 29
      objectReference: {fileID: 0}
    - target: {fileID: 42534633235665206, guid: 667b6ca98f35547d2a50f6ab7ed50575,
        type: 3}
      propertyPath: m_SelectedEdges.Array.data[29].a
      value: 30
      objectReference: {fileID: 0}
    - target: {fileID: 42534633235665206, guid: 667b6ca98f35547d2a50f6ab7ed50575,
        type: 3}
      propertyPath: m_SelectedEdges.Array.data[29].b
      value: 28
      objectReference: {fileID: 0}
    - target: {fileID: 42534633235665206, guid: 667b6ca98f35547d2a50f6ab7ed50575,
        type: 3}
      propertyPath: m_SelectedEdges.Array.data[30].a
      value: 29
      objectReference: {fileID: 0}
    - target: {fileID: 42534633235665206, guid: 667b6ca98f35547d2a50f6ab7ed50575,
        type: 3}
      propertyPath: m_SelectedEdges.Array.data[30].b
      value: 31
      objectReference: {fileID: 0}
    - target: {fileID: 42534633235665206, guid: 667b6ca98f35547d2a50f6ab7ed50575,
        type: 3}
      propertyPath: m_SelectedEdges.Array.data[31].a
      value: 31
      objectReference: {fileID: 0}
    - target: {fileID: 42534633235665206, guid: 667b6ca98f35547d2a50f6ab7ed50575,
        type: 3}
      propertyPath: m_SelectedEdges.Array.data[31].b
      value: 30
      objectReference: {fileID: 0}
    - target: {fileID: 42534633235665206, guid: 667b6ca98f35547d2a50f6ab7ed50575,
        type: 3}
      propertyPath: m_SelectedEdges.Array.data[32].a
      value: 32
      objectReference: {fileID: 0}
    - target: {fileID: 42534633235665206, guid: 667b6ca98f35547d2a50f6ab7ed50575,
        type: 3}
      propertyPath: m_SelectedEdges.Array.data[32].b
      value: 33
      objectReference: {fileID: 0}
    - target: {fileID: 42534633235665206, guid: 667b6ca98f35547d2a50f6ab7ed50575,
        type: 3}
      propertyPath: m_SelectedEdges.Array.data[33].a
      value: 34
      objectReference: {fileID: 0}
    - target: {fileID: 42534633235665206, guid: 667b6ca98f35547d2a50f6ab7ed50575,
        type: 3}
      propertyPath: m_SelectedEdges.Array.data[33].b
      value: 32
      objectReference: {fileID: 0}
    - target: {fileID: 42534633235665206, guid: 667b6ca98f35547d2a50f6ab7ed50575,
        type: 3}
      propertyPath: m_SelectedEdges.Array.data[34].a
      value: 33
      objectReference: {fileID: 0}
    - target: {fileID: 42534633235665206, guid: 667b6ca98f35547d2a50f6ab7ed50575,
        type: 3}
      propertyPath: m_SelectedEdges.Array.data[34].b
      value: 35
      objectReference: {fileID: 0}
    - target: {fileID: 42534633235665206, guid: 667b6ca98f35547d2a50f6ab7ed50575,
        type: 3}
      propertyPath: m_SelectedEdges.Array.data[35].a
      value: 35
      objectReference: {fileID: 0}
    - target: {fileID: 42534633235665206, guid: 667b6ca98f35547d2a50f6ab7ed50575,
        type: 3}
      propertyPath: m_SelectedEdges.Array.data[35].b
      value: 34
      objectReference: {fileID: 0}
    - target: {fileID: 42534633235665206, guid: 667b6ca98f35547d2a50f6ab7ed50575,
        type: 3}
      propertyPath: m_SelectedEdges.Array.data[36].a
      value: 36
      objectReference: {fileID: 0}
    - target: {fileID: 42534633235665206, guid: 667b6ca98f35547d2a50f6ab7ed50575,
        type: 3}
      propertyPath: m_SelectedEdges.Array.data[36].b
      value: 37
      objectReference: {fileID: 0}
    - target: {fileID: 42534633235665206, guid: 667b6ca98f35547d2a50f6ab7ed50575,
        type: 3}
      propertyPath: m_SelectedEdges.Array.data[37].a
      value: 38
      objectReference: {fileID: 0}
    - target: {fileID: 42534633235665206, guid: 667b6ca98f35547d2a50f6ab7ed50575,
        type: 3}
      propertyPath: m_SelectedEdges.Array.data[37].b
      value: 36
      objectReference: {fileID: 0}
    - target: {fileID: 42534633235665206, guid: 667b6ca98f35547d2a50f6ab7ed50575,
        type: 3}
      propertyPath: m_SelectedEdges.Array.data[38].a
      value: 37
      objectReference: {fileID: 0}
    - target: {fileID: 42534633235665206, guid: 667b6ca98f35547d2a50f6ab7ed50575,
        type: 3}
      propertyPath: m_SelectedEdges.Array.data[38].b
      value: 39
      objectReference: {fileID: 0}
    - target: {fileID: 42534633235665206, guid: 667b6ca98f35547d2a50f6ab7ed50575,
        type: 3}
      propertyPath: m_SelectedEdges.Array.data[39].a
      value: 39
      objectReference: {fileID: 0}
    - target: {fileID: 42534633235665206, guid: 667b6ca98f35547d2a50f6ab7ed50575,
        type: 3}
      propertyPath: m_SelectedEdges.Array.data[39].b
      value: 38
      objectReference: {fileID: 0}
    - target: {fileID: 42534633235665206, guid: 667b6ca98f35547d2a50f6ab7ed50575,
        type: 3}
      propertyPath: m_SelectedEdges.Array.data[40].a
      value: 40
      objectReference: {fileID: 0}
    - target: {fileID: 42534633235665206, guid: 667b6ca98f35547d2a50f6ab7ed50575,
        type: 3}
      propertyPath: m_SelectedEdges.Array.data[40].b
      value: 41
      objectReference: {fileID: 0}
    - target: {fileID: 42534633235665206, guid: 667b6ca98f35547d2a50f6ab7ed50575,
        type: 3}
      propertyPath: m_SelectedEdges.Array.data[41].a
      value: 42
      objectReference: {fileID: 0}
    - target: {fileID: 42534633235665206, guid: 667b6ca98f35547d2a50f6ab7ed50575,
        type: 3}
      propertyPath: m_SelectedEdges.Array.data[41].b
      value: 40
      objectReference: {fileID: 0}
    - target: {fileID: 42534633235665206, guid: 667b6ca98f35547d2a50f6ab7ed50575,
        type: 3}
      propertyPath: m_SelectedEdges.Array.data[42].a
      value: 41
      objectReference: {fileID: 0}
    - target: {fileID: 42534633235665206, guid: 667b6ca98f35547d2a50f6ab7ed50575,
        type: 3}
      propertyPath: m_SelectedEdges.Array.data[42].b
      value: 43
      objectReference: {fileID: 0}
    - target: {fileID: 42534633235665206, guid: 667b6ca98f35547d2a50f6ab7ed50575,
        type: 3}
      propertyPath: m_SelectedEdges.Array.data[43].a
      value: 43
      objectReference: {fileID: 0}
    - target: {fileID: 42534633235665206, guid: 667b6ca98f35547d2a50f6ab7ed50575,
        type: 3}
      propertyPath: m_SelectedEdges.Array.data[43].b
      value: 42
      objectReference: {fileID: 0}
    - target: {fileID: 42534633235665206, guid: 667b6ca98f35547d2a50f6ab7ed50575,
        type: 3}
      propertyPath: m_SelectedEdges.Array.data[44].a
      value: 44
      objectReference: {fileID: 0}
    - target: {fileID: 42534633235665206, guid: 667b6ca98f35547d2a50f6ab7ed50575,
        type: 3}
      propertyPath: m_SelectedEdges.Array.data[44].b
      value: 45
      objectReference: {fileID: 0}
    - target: {fileID: 42534633235665206, guid: 667b6ca98f35547d2a50f6ab7ed50575,
        type: 3}
      propertyPath: m_SelectedEdges.Array.data[45].a
      value: 46
      objectReference: {fileID: 0}
    - target: {fileID: 42534633235665206, guid: 667b6ca98f35547d2a50f6ab7ed50575,
        type: 3}
      propertyPath: m_SelectedEdges.Array.data[45].b
      value: 44
      objectReference: {fileID: 0}
    - target: {fileID: 42534633235665206, guid: 667b6ca98f35547d2a50f6ab7ed50575,
        type: 3}
      propertyPath: m_SelectedEdges.Array.data[46].a
      value: 45
      objectReference: {fileID: 0}
    - target: {fileID: 42534633235665206, guid: 667b6ca98f35547d2a50f6ab7ed50575,
        type: 3}
      propertyPath: m_SelectedEdges.Array.data[46].b
      value: 47
      objectReference: {fileID: 0}
    - target: {fileID: 42534633235665206, guid: 667b6ca98f35547d2a50f6ab7ed50575,
        type: 3}
      propertyPath: m_SelectedEdges.Array.data[47].a
      value: 47
      objectReference: {fileID: 0}
    - target: {fileID: 42534633235665206, guid: 667b6ca98f35547d2a50f6ab7ed50575,
        type: 3}
      propertyPath: m_SelectedEdges.Array.data[47].b
      value: 46
      objectReference: {fileID: 0}
    - target: {fileID: 42534633235665206, guid: 667b6ca98f35547d2a50f6ab7ed50575,
        type: 3}
      propertyPath: m_SelectedEdges.Array.data[48].a
      value: 48
      objectReference: {fileID: 0}
    - target: {fileID: 42534633235665206, guid: 667b6ca98f35547d2a50f6ab7ed50575,
        type: 3}
      propertyPath: m_SelectedEdges.Array.data[48].b
      value: 49
      objectReference: {fileID: 0}
    - target: {fileID: 42534633235665206, guid: 667b6ca98f35547d2a50f6ab7ed50575,
        type: 3}
      propertyPath: m_SelectedEdges.Array.data[49].a
      value: 50
      objectReference: {fileID: 0}
    - target: {fileID: 42534633235665206, guid: 667b6ca98f35547d2a50f6ab7ed50575,
        type: 3}
      propertyPath: m_SelectedEdges.Array.data[49].b
      value: 48
      objectReference: {fileID: 0}
    - target: {fileID: 42534633235665206, guid: 667b6ca98f35547d2a50f6ab7ed50575,
        type: 3}
      propertyPath: m_SelectedEdges.Array.data[50].a
      value: 49
      objectReference: {fileID: 0}
    - target: {fileID: 42534633235665206, guid: 667b6ca98f35547d2a50f6ab7ed50575,
        type: 3}
      propertyPath: m_SelectedEdges.Array.data[50].b
      value: 51
      objectReference: {fileID: 0}
    - target: {fileID: 42534633235665206, guid: 667b6ca98f35547d2a50f6ab7ed50575,
        type: 3}
      propertyPath: m_SelectedEdges.Array.data[51].a
      value: 51
      objectReference: {fileID: 0}
    - target: {fileID: 42534633235665206, guid: 667b6ca98f35547d2a50f6ab7ed50575,
        type: 3}
      propertyPath: m_SelectedEdges.Array.data[51].b
      value: 50
      objectReference: {fileID: 0}
    - target: {fileID: 42534633235665206, guid: 667b6ca98f35547d2a50f6ab7ed50575,
        type: 3}
      propertyPath: m_SelectedEdges.Array.data[52].a
      value: 52
      objectReference: {fileID: 0}
    - target: {fileID: 42534633235665206, guid: 667b6ca98f35547d2a50f6ab7ed50575,
        type: 3}
      propertyPath: m_SelectedEdges.Array.data[52].b
      value: 53
      objectReference: {fileID: 0}
    - target: {fileID: 42534633235665206, guid: 667b6ca98f35547d2a50f6ab7ed50575,
        type: 3}
      propertyPath: m_SelectedEdges.Array.data[53].a
      value: 54
      objectReference: {fileID: 0}
    - target: {fileID: 42534633235665206, guid: 667b6ca98f35547d2a50f6ab7ed50575,
        type: 3}
      propertyPath: m_SelectedEdges.Array.data[53].b
      value: 52
      objectReference: {fileID: 0}
    - target: {fileID: 42534633235665206, guid: 667b6ca98f35547d2a50f6ab7ed50575,
        type: 3}
      propertyPath: m_SelectedEdges.Array.data[54].a
      value: 53
      objectReference: {fileID: 0}
    - target: {fileID: 42534633235665206, guid: 667b6ca98f35547d2a50f6ab7ed50575,
        type: 3}
      propertyPath: m_SelectedEdges.Array.data[54].b
      value: 55
      objectReference: {fileID: 0}
    - target: {fileID: 42534633235665206, guid: 667b6ca98f35547d2a50f6ab7ed50575,
        type: 3}
      propertyPath: m_SelectedEdges.Array.data[55].a
      value: 55
      objectReference: {fileID: 0}
    - target: {fileID: 42534633235665206, guid: 667b6ca98f35547d2a50f6ab7ed50575,
        type: 3}
      propertyPath: m_SelectedEdges.Array.data[55].b
      value: 54
      objectReference: {fileID: 0}
    - target: {fileID: 42534633235665206, guid: 667b6ca98f35547d2a50f6ab7ed50575,
        type: 3}
      propertyPath: m_SelectedEdges.Array.data[56].a
      value: 56
      objectReference: {fileID: 0}
    - target: {fileID: 42534633235665206, guid: 667b6ca98f35547d2a50f6ab7ed50575,
        type: 3}
      propertyPath: m_SelectedEdges.Array.data[56].b
      value: 57
      objectReference: {fileID: 0}
    - target: {fileID: 42534633235665206, guid: 667b6ca98f35547d2a50f6ab7ed50575,
        type: 3}
      propertyPath: m_SelectedEdges.Array.data[57].a
      value: 58
      objectReference: {fileID: 0}
    - target: {fileID: 42534633235665206, guid: 667b6ca98f35547d2a50f6ab7ed50575,
        type: 3}
      propertyPath: m_SelectedEdges.Array.data[57].b
      value: 56
      objectReference: {fileID: 0}
    - target: {fileID: 42534633235665206, guid: 667b6ca98f35547d2a50f6ab7ed50575,
        type: 3}
      propertyPath: m_SelectedEdges.Array.data[58].a
      value: 57
      objectReference: {fileID: 0}
    - target: {fileID: 42534633235665206, guid: 667b6ca98f35547d2a50f6ab7ed50575,
        type: 3}
      propertyPath: m_SelectedEdges.Array.data[58].b
      value: 59
      objectReference: {fileID: 0}
    - target: {fileID: 42534633235665206, guid: 667b6ca98f35547d2a50f6ab7ed50575,
        type: 3}
      propertyPath: m_SelectedEdges.Array.data[59].a
      value: 59
      objectReference: {fileID: 0}
    - target: {fileID: 42534633235665206, guid: 667b6ca98f35547d2a50f6ab7ed50575,
        type: 3}
      propertyPath: m_SelectedEdges.Array.data[59].b
      value: 58
      objectReference: {fileID: 0}
    - target: {fileID: 42534633235665206, guid: 667b6ca98f35547d2a50f6ab7ed50575,
        type: 3}
      propertyPath: m_SelectedEdges.Array.data[60].a
      value: 60
      objectReference: {fileID: 0}
    - target: {fileID: 42534633235665206, guid: 667b6ca98f35547d2a50f6ab7ed50575,
        type: 3}
      propertyPath: m_SelectedEdges.Array.data[60].b
      value: 61
      objectReference: {fileID: 0}
    - target: {fileID: 42534633235665206, guid: 667b6ca98f35547d2a50f6ab7ed50575,
        type: 3}
      propertyPath: m_SelectedEdges.Array.data[61].a
      value: 62
      objectReference: {fileID: 0}
    - target: {fileID: 42534633235665206, guid: 667b6ca98f35547d2a50f6ab7ed50575,
        type: 3}
      propertyPath: m_SelectedEdges.Array.data[61].b
      value: 60
      objectReference: {fileID: 0}
    - target: {fileID: 42534633235665206, guid: 667b6ca98f35547d2a50f6ab7ed50575,
        type: 3}
      propertyPath: m_SelectedEdges.Array.data[62].a
      value: 61
      objectReference: {fileID: 0}
    - target: {fileID: 42534633235665206, guid: 667b6ca98f35547d2a50f6ab7ed50575,
        type: 3}
      propertyPath: m_SelectedEdges.Array.data[62].b
      value: 63
      objectReference: {fileID: 0}
    - target: {fileID: 42534633235665206, guid: 667b6ca98f35547d2a50f6ab7ed50575,
        type: 3}
      propertyPath: m_SelectedEdges.Array.data[63].a
      value: 63
      objectReference: {fileID: 0}
    - target: {fileID: 42534633235665206, guid: 667b6ca98f35547d2a50f6ab7ed50575,
        type: 3}
      propertyPath: m_SelectedEdges.Array.data[63].b
      value: 62
      objectReference: {fileID: 0}
    - target: {fileID: 42534633235665206, guid: 667b6ca98f35547d2a50f6ab7ed50575,
        type: 3}
      propertyPath: m_SelectedEdges.Array.data[64].a
      value: 64
      objectReference: {fileID: 0}
    - target: {fileID: 42534633235665206, guid: 667b6ca98f35547d2a50f6ab7ed50575,
        type: 3}
      propertyPath: m_SelectedEdges.Array.data[64].b
      value: 65
      objectReference: {fileID: 0}
    - target: {fileID: 42534633235665206, guid: 667b6ca98f35547d2a50f6ab7ed50575,
        type: 3}
      propertyPath: m_SelectedEdges.Array.data[65].a
      value: 66
      objectReference: {fileID: 0}
    - target: {fileID: 42534633235665206, guid: 667b6ca98f35547d2a50f6ab7ed50575,
        type: 3}
      propertyPath: m_SelectedEdges.Array.data[65].b
      value: 64
      objectReference: {fileID: 0}
    - target: {fileID: 42534633235665206, guid: 667b6ca98f35547d2a50f6ab7ed50575,
        type: 3}
      propertyPath: m_SelectedEdges.Array.data[66].a
      value: 65
      objectReference: {fileID: 0}
    - target: {fileID: 42534633235665206, guid: 667b6ca98f35547d2a50f6ab7ed50575,
        type: 3}
      propertyPath: m_SelectedEdges.Array.data[66].b
      value: 67
      objectReference: {fileID: 0}
    - target: {fileID: 42534633235665206, guid: 667b6ca98f35547d2a50f6ab7ed50575,
        type: 3}
      propertyPath: m_SelectedEdges.Array.data[67].a
      value: 67
      objectReference: {fileID: 0}
    - target: {fileID: 42534633235665206, guid: 667b6ca98f35547d2a50f6ab7ed50575,
        type: 3}
      propertyPath: m_SelectedEdges.Array.data[67].b
      value: 66
      objectReference: {fileID: 0}
    - target: {fileID: 42534633235665206, guid: 667b6ca98f35547d2a50f6ab7ed50575,
        type: 3}
      propertyPath: m_SelectedEdges.Array.data[68].a
      value: 68
      objectReference: {fileID: 0}
    - target: {fileID: 42534633235665206, guid: 667b6ca98f35547d2a50f6ab7ed50575,
        type: 3}
      propertyPath: m_SelectedEdges.Array.data[68].b
      value: 69
      objectReference: {fileID: 0}
    - target: {fileID: 42534633235665206, guid: 667b6ca98f35547d2a50f6ab7ed50575,
        type: 3}
      propertyPath: m_SelectedEdges.Array.data[69].a
      value: 70
      objectReference: {fileID: 0}
    - target: {fileID: 42534633235665206, guid: 667b6ca98f35547d2a50f6ab7ed50575,
        type: 3}
      propertyPath: m_SelectedEdges.Array.data[69].b
      value: 68
      objectReference: {fileID: 0}
    - target: {fileID: 42534633235665206, guid: 667b6ca98f35547d2a50f6ab7ed50575,
        type: 3}
      propertyPath: m_SelectedEdges.Array.data[70].a
      value: 69
      objectReference: {fileID: 0}
    - target: {fileID: 42534633235665206, guid: 667b6ca98f35547d2a50f6ab7ed50575,
        type: 3}
      propertyPath: m_SelectedEdges.Array.data[70].b
      value: 71
      objectReference: {fileID: 0}
    - target: {fileID: 42534633235665206, guid: 667b6ca98f35547d2a50f6ab7ed50575,
        type: 3}
      propertyPath: m_SelectedEdges.Array.data[71].a
      value: 71
      objectReference: {fileID: 0}
    - target: {fileID: 42534633235665206, guid: 667b6ca98f35547d2a50f6ab7ed50575,
        type: 3}
      propertyPath: m_SelectedEdges.Array.data[71].b
      value: 70
      objectReference: {fileID: 0}
    - target: {fileID: 42534633235665206, guid: 667b6ca98f35547d2a50f6ab7ed50575,
        type: 3}
      propertyPath: m_SelectedVertices.Array.data[0]
      value: 16
      objectReference: {fileID: 0}
    - target: {fileID: 42534633235665206, guid: 667b6ca98f35547d2a50f6ab7ed50575,
        type: 3}
      propertyPath: m_SelectedVertices.Array.data[1]
      value: 17
      objectReference: {fileID: 0}
    - target: {fileID: 42534633235665206, guid: 667b6ca98f35547d2a50f6ab7ed50575,
        type: 3}
      propertyPath: m_SelectedVertices.Array.data[2]
      value: 18
      objectReference: {fileID: 0}
    - target: {fileID: 42534633235665206, guid: 667b6ca98f35547d2a50f6ab7ed50575,
        type: 3}
      propertyPath: m_SelectedVertices.Array.data[3]
      value: 19
      objectReference: {fileID: 0}
    - target: {fileID: 42534633235665206, guid: 667b6ca98f35547d2a50f6ab7ed50575,
        type: 3}
      propertyPath: m_SelectedVertices.Array.data[4]
      value: 4
      objectReference: {fileID: 0}
    - target: {fileID: 42534633235665206, guid: 667b6ca98f35547d2a50f6ab7ed50575,
        type: 3}
      propertyPath: m_SelectedVertices.Array.data[5]
      value: 5
      objectReference: {fileID: 0}
    - target: {fileID: 42534633235665206, guid: 667b6ca98f35547d2a50f6ab7ed50575,
        type: 3}
      propertyPath: m_SelectedVertices.Array.data[6]
      value: 6
      objectReference: {fileID: 0}
    - target: {fileID: 42534633235665206, guid: 667b6ca98f35547d2a50f6ab7ed50575,
        type: 3}
      propertyPath: m_SelectedVertices.Array.data[7]
      value: 7
      objectReference: {fileID: 0}
    - target: {fileID: 42534633235665206, guid: 667b6ca98f35547d2a50f6ab7ed50575,
        type: 3}
      propertyPath: m_SelectedVertices.Array.data[8]
      value: 8
      objectReference: {fileID: 0}
    - target: {fileID: 42534633235665206, guid: 667b6ca98f35547d2a50f6ab7ed50575,
        type: 3}
      propertyPath: m_SelectedVertices.Array.data[9]
      value: 9
      objectReference: {fileID: 0}
    - target: {fileID: 42534633235665206, guid: 667b6ca98f35547d2a50f6ab7ed50575,
        type: 3}
      propertyPath: m_SelectedVertices.Array.data[10]
      value: 10
      objectReference: {fileID: 0}
    - target: {fileID: 42534633235665206, guid: 667b6ca98f35547d2a50f6ab7ed50575,
        type: 3}
      propertyPath: m_SelectedVertices.Array.data[11]
      value: 11
      objectReference: {fileID: 0}
    - target: {fileID: 42534633235665206, guid: 667b6ca98f35547d2a50f6ab7ed50575,
        type: 3}
      propertyPath: m_SelectedVertices.Array.data[12]
      value: 12
      objectReference: {fileID: 0}
    - target: {fileID: 42534633235665206, guid: 667b6ca98f35547d2a50f6ab7ed50575,
        type: 3}
      propertyPath: m_SelectedVertices.Array.data[13]
      value: 13
      objectReference: {fileID: 0}
    - target: {fileID: 42534633235665206, guid: 667b6ca98f35547d2a50f6ab7ed50575,
        type: 3}
      propertyPath: m_SelectedVertices.Array.data[14]
      value: 14
      objectReference: {fileID: 0}
    - target: {fileID: 42534633235665206, guid: 667b6ca98f35547d2a50f6ab7ed50575,
        type: 3}
      propertyPath: m_SelectedVertices.Array.data[15]
      value: 15
      objectReference: {fileID: 0}
    - target: {fileID: 42534633235665206, guid: 667b6ca98f35547d2a50f6ab7ed50575,
        type: 3}
      propertyPath: m_SelectedVertices.Array.data[16]
      value: 16
      objectReference: {fileID: 0}
    - target: {fileID: 42534633235665206, guid: 667b6ca98f35547d2a50f6ab7ed50575,
        type: 3}
      propertyPath: m_SelectedVertices.Array.data[17]
      value: 17
      objectReference: {fileID: 0}
    - target: {fileID: 42534633235665206, guid: 667b6ca98f35547d2a50f6ab7ed50575,
        type: 3}
      propertyPath: m_SelectedVertices.Array.data[18]
      value: 18
      objectReference: {fileID: 0}
    - target: {fileID: 42534633235665206, guid: 667b6ca98f35547d2a50f6ab7ed50575,
        type: 3}
      propertyPath: m_SelectedVertices.Array.data[19]
      value: 19
      objectReference: {fileID: 0}
    - target: {fileID: 42534633235665206, guid: 667b6ca98f35547d2a50f6ab7ed50575,
        type: 3}
      propertyPath: m_SelectedVertices.Array.data[20]
      value: 20
      objectReference: {fileID: 0}
    - target: {fileID: 42534633235665206, guid: 667b6ca98f35547d2a50f6ab7ed50575,
        type: 3}
      propertyPath: m_SelectedVertices.Array.data[21]
      value: 21
      objectReference: {fileID: 0}
    - target: {fileID: 42534633235665206, guid: 667b6ca98f35547d2a50f6ab7ed50575,
        type: 3}
      propertyPath: m_SelectedVertices.Array.data[22]
      value: 22
      objectReference: {fileID: 0}
    - target: {fileID: 42534633235665206, guid: 667b6ca98f35547d2a50f6ab7ed50575,
        type: 3}
      propertyPath: m_SelectedVertices.Array.data[23]
      value: 23
      objectReference: {fileID: 0}
    - target: {fileID: 42534633235665206, guid: 667b6ca98f35547d2a50f6ab7ed50575,
        type: 3}
      propertyPath: m_SelectedVertices.Array.data[24]
      value: 24
      objectReference: {fileID: 0}
    - target: {fileID: 42534633235665206, guid: 667b6ca98f35547d2a50f6ab7ed50575,
        type: 3}
      propertyPath: m_SelectedVertices.Array.data[25]
      value: 25
      objectReference: {fileID: 0}
    - target: {fileID: 42534633235665206, guid: 667b6ca98f35547d2a50f6ab7ed50575,
        type: 3}
      propertyPath: m_SelectedVertices.Array.data[26]
      value: 26
      objectReference: {fileID: 0}
    - target: {fileID: 42534633235665206, guid: 667b6ca98f35547d2a50f6ab7ed50575,
        type: 3}
      propertyPath: m_SelectedVertices.Array.data[27]
      value: 27
      objectReference: {fileID: 0}
    - target: {fileID: 42534633235665206, guid: 667b6ca98f35547d2a50f6ab7ed50575,
        type: 3}
      propertyPath: m_SelectedVertices.Array.data[28]
      value: 28
      objectReference: {fileID: 0}
    - target: {fileID: 42534633235665206, guid: 667b6ca98f35547d2a50f6ab7ed50575,
        type: 3}
      propertyPath: m_SelectedVertices.Array.data[29]
      value: 29
      objectReference: {fileID: 0}
    - target: {fileID: 42534633235665206, guid: 667b6ca98f35547d2a50f6ab7ed50575,
        type: 3}
      propertyPath: m_SelectedVertices.Array.data[30]
      value: 30
      objectReference: {fileID: 0}
    - target: {fileID: 42534633235665206, guid: 667b6ca98f35547d2a50f6ab7ed50575,
        type: 3}
      propertyPath: m_SelectedVertices.Array.data[31]
      value: 31
      objectReference: {fileID: 0}
    - target: {fileID: 42534633235665206, guid: 667b6ca98f35547d2a50f6ab7ed50575,
        type: 3}
      propertyPath: m_SelectedVertices.Array.data[32]
      value: 32
      objectReference: {fileID: 0}
    - target: {fileID: 42534633235665206, guid: 667b6ca98f35547d2a50f6ab7ed50575,
        type: 3}
      propertyPath: m_SelectedVertices.Array.data[33]
      value: 33
      objectReference: {fileID: 0}
    - target: {fileID: 42534633235665206, guid: 667b6ca98f35547d2a50f6ab7ed50575,
        type: 3}
      propertyPath: m_SelectedVertices.Array.data[34]
      value: 34
      objectReference: {fileID: 0}
    - target: {fileID: 42534633235665206, guid: 667b6ca98f35547d2a50f6ab7ed50575,
        type: 3}
      propertyPath: m_SelectedVertices.Array.data[35]
      value: 35
      objectReference: {fileID: 0}
    - target: {fileID: 42534633235665206, guid: 667b6ca98f35547d2a50f6ab7ed50575,
        type: 3}
      propertyPath: m_SelectedVertices.Array.data[36]
      value: 36
      objectReference: {fileID: 0}
    - target: {fileID: 42534633235665206, guid: 667b6ca98f35547d2a50f6ab7ed50575,
        type: 3}
      propertyPath: m_SelectedVertices.Array.data[37]
      value: 37
      objectReference: {fileID: 0}
    - target: {fileID: 42534633235665206, guid: 667b6ca98f35547d2a50f6ab7ed50575,
        type: 3}
      propertyPath: m_SelectedVertices.Array.data[38]
      value: 38
      objectReference: {fileID: 0}
    - target: {fileID: 42534633235665206, guid: 667b6ca98f35547d2a50f6ab7ed50575,
        type: 3}
      propertyPath: m_SelectedVertices.Array.data[39]
      value: 39
      objectReference: {fileID: 0}
    - target: {fileID: 42534633235665206, guid: 667b6ca98f35547d2a50f6ab7ed50575,
        type: 3}
      propertyPath: m_SelectedVertices.Array.data[40]
      value: 40
      objectReference: {fileID: 0}
    - target: {fileID: 42534633235665206, guid: 667b6ca98f35547d2a50f6ab7ed50575,
        type: 3}
      propertyPath: m_SelectedVertices.Array.data[41]
      value: 41
      objectReference: {fileID: 0}
    - target: {fileID: 42534633235665206, guid: 667b6ca98f35547d2a50f6ab7ed50575,
        type: 3}
      propertyPath: m_SelectedVertices.Array.data[42]
      value: 42
      objectReference: {fileID: 0}
    - target: {fileID: 42534633235665206, guid: 667b6ca98f35547d2a50f6ab7ed50575,
        type: 3}
      propertyPath: m_SelectedVertices.Array.data[43]
      value: 43
      objectReference: {fileID: 0}
    - target: {fileID: 42534633235665206, guid: 667b6ca98f35547d2a50f6ab7ed50575,
        type: 3}
      propertyPath: m_SelectedVertices.Array.data[44]
      value: 44
      objectReference: {fileID: 0}
    - target: {fileID: 42534633235665206, guid: 667b6ca98f35547d2a50f6ab7ed50575,
        type: 3}
      propertyPath: m_SelectedVertices.Array.data[45]
      value: 45
      objectReference: {fileID: 0}
    - target: {fileID: 42534633235665206, guid: 667b6ca98f35547d2a50f6ab7ed50575,
        type: 3}
      propertyPath: m_SelectedVertices.Array.data[46]
      value: 46
      objectReference: {fileID: 0}
    - target: {fileID: 42534633235665206, guid: 667b6ca98f35547d2a50f6ab7ed50575,
        type: 3}
      propertyPath: m_SelectedVertices.Array.data[47]
      value: 47
      objectReference: {fileID: 0}
    - target: {fileID: 42534633235665206, guid: 667b6ca98f35547d2a50f6ab7ed50575,
        type: 3}
      propertyPath: m_SelectedVertices.Array.data[48]
      value: 48
      objectReference: {fileID: 0}
    - target: {fileID: 42534633235665206, guid: 667b6ca98f35547d2a50f6ab7ed50575,
        type: 3}
      propertyPath: m_SelectedVertices.Array.data[49]
      value: 49
      objectReference: {fileID: 0}
    - target: {fileID: 42534633235665206, guid: 667b6ca98f35547d2a50f6ab7ed50575,
        type: 3}
      propertyPath: m_SelectedVertices.Array.data[50]
      value: 50
      objectReference: {fileID: 0}
    - target: {fileID: 42534633235665206, guid: 667b6ca98f35547d2a50f6ab7ed50575,
        type: 3}
      propertyPath: m_SelectedVertices.Array.data[51]
      value: 51
      objectReference: {fileID: 0}
    - target: {fileID: 42534633235665206, guid: 667b6ca98f35547d2a50f6ab7ed50575,
        type: 3}
      propertyPath: m_SelectedVertices.Array.data[52]
      value: 52
      objectReference: {fileID: 0}
    - target: {fileID: 42534633235665206, guid: 667b6ca98f35547d2a50f6ab7ed50575,
        type: 3}
      propertyPath: m_SelectedVertices.Array.data[53]
      value: 53
      objectReference: {fileID: 0}
    - target: {fileID: 42534633235665206, guid: 667b6ca98f35547d2a50f6ab7ed50575,
        type: 3}
      propertyPath: m_SelectedVertices.Array.data[54]
      value: 54
      objectReference: {fileID: 0}
    - target: {fileID: 42534633235665206, guid: 667b6ca98f35547d2a50f6ab7ed50575,
        type: 3}
      propertyPath: m_SelectedVertices.Array.data[55]
      value: 55
      objectReference: {fileID: 0}
    - target: {fileID: 42534633235665206, guid: 667b6ca98f35547d2a50f6ab7ed50575,
        type: 3}
      propertyPath: m_SelectedVertices.Array.data[56]
      value: 56
      objectReference: {fileID: 0}
    - target: {fileID: 42534633235665206, guid: 667b6ca98f35547d2a50f6ab7ed50575,
        type: 3}
      propertyPath: m_SelectedVertices.Array.data[57]
      value: 57
      objectReference: {fileID: 0}
    - target: {fileID: 42534633235665206, guid: 667b6ca98f35547d2a50f6ab7ed50575,
        type: 3}
      propertyPath: m_SelectedVertices.Array.data[58]
      value: 58
      objectReference: {fileID: 0}
    - target: {fileID: 42534633235665206, guid: 667b6ca98f35547d2a50f6ab7ed50575,
        type: 3}
      propertyPath: m_SelectedVertices.Array.data[59]
      value: 59
      objectReference: {fileID: 0}
    - target: {fileID: 42534633235665206, guid: 667b6ca98f35547d2a50f6ab7ed50575,
        type: 3}
      propertyPath: m_SelectedVertices.Array.data[60]
      value: 60
      objectReference: {fileID: 0}
    - target: {fileID: 42534633235665206, guid: 667b6ca98f35547d2a50f6ab7ed50575,
        type: 3}
      propertyPath: m_SelectedVertices.Array.data[61]
      value: 61
      objectReference: {fileID: 0}
    - target: {fileID: 42534633235665206, guid: 667b6ca98f35547d2a50f6ab7ed50575,
        type: 3}
      propertyPath: m_SelectedVertices.Array.data[62]
      value: 62
      objectReference: {fileID: 0}
    - target: {fileID: 42534633235665206, guid: 667b6ca98f35547d2a50f6ab7ed50575,
        type: 3}
      propertyPath: m_SelectedVertices.Array.data[63]
      value: 63
      objectReference: {fileID: 0}
    - target: {fileID: 42534633235665206, guid: 667b6ca98f35547d2a50f6ab7ed50575,
        type: 3}
      propertyPath: m_SelectedVertices.Array.data[64]
      value: 64
      objectReference: {fileID: 0}
    - target: {fileID: 42534633235665206, guid: 667b6ca98f35547d2a50f6ab7ed50575,
        type: 3}
      propertyPath: m_SelectedVertices.Array.data[65]
      value: 65
      objectReference: {fileID: 0}
    - target: {fileID: 42534633235665206, guid: 667b6ca98f35547d2a50f6ab7ed50575,
        type: 3}
      propertyPath: m_SelectedVertices.Array.data[66]
      value: 66
      objectReference: {fileID: 0}
    - target: {fileID: 42534633235665206, guid: 667b6ca98f35547d2a50f6ab7ed50575,
        type: 3}
      propertyPath: m_SelectedVertices.Array.data[67]
      value: 67
      objectReference: {fileID: 0}
    - target: {fileID: 42534633235665206, guid: 667b6ca98f35547d2a50f6ab7ed50575,
        type: 3}
      propertyPath: m_SelectedVertices.Array.data[68]
      value: 68
      objectReference: {fileID: 0}
    - target: {fileID: 42534633235665206, guid: 667b6ca98f35547d2a50f6ab7ed50575,
        type: 3}
      propertyPath: m_SelectedVertices.Array.data[69]
      value: 69
      objectReference: {fileID: 0}
    - target: {fileID: 42534633235665206, guid: 667b6ca98f35547d2a50f6ab7ed50575,
        type: 3}
      propertyPath: m_SelectedVertices.Array.data[70]
      value: 70
      objectReference: {fileID: 0}
    - target: {fileID: 42534633235665206, guid: 667b6ca98f35547d2a50f6ab7ed50575,
        type: 3}
      propertyPath: m_SelectedVertices.Array.data[71]
      value: 71
      objectReference: {fileID: 0}
    - target: {fileID: 42534633235665206, guid: 667b6ca98f35547d2a50f6ab7ed50575,
        type: 3}
      propertyPath: m_Faces.Array.data[0].m_SubmeshIndex
      value: 0
      objectReference: {fileID: 0}
    - target: {fileID: 42534633235665206, guid: 667b6ca98f35547d2a50f6ab7ed50575,
        type: 3}
      propertyPath: m_Faces.Array.data[1].m_SubmeshIndex
      value: 2
      objectReference: {fileID: 0}
    - target: {fileID: 42534633235665206, guid: 667b6ca98f35547d2a50f6ab7ed50575,
        type: 3}
      propertyPath: m_Faces.Array.data[2].m_SubmeshIndex
      value: 2
      objectReference: {fileID: 0}
    - target: {fileID: 42534633235665206, guid: 667b6ca98f35547d2a50f6ab7ed50575,
        type: 3}
      propertyPath: m_Faces.Array.data[3].m_SubmeshIndex
      value: 2
      objectReference: {fileID: 0}
    - target: {fileID: 42534633235665206, guid: 667b6ca98f35547d2a50f6ab7ed50575,
        type: 3}
      propertyPath: m_Faces.Array.data[4].m_SubmeshIndex
      value: 2
      objectReference: {fileID: 0}
    - target: {fileID: 42534633235665206, guid: 667b6ca98f35547d2a50f6ab7ed50575,
        type: 3}
      propertyPath: m_Faces.Array.data[5].m_SubmeshIndex
      value: 2
      objectReference: {fileID: 0}
    - target: {fileID: 42534633235665206, guid: 667b6ca98f35547d2a50f6ab7ed50575,
        type: 3}
      propertyPath: m_Faces.Array.data[6].m_SubmeshIndex
      value: 2
      objectReference: {fileID: 0}
    - target: {fileID: 42534633235665206, guid: 667b6ca98f35547d2a50f6ab7ed50575,
        type: 3}
      propertyPath: m_Faces.Array.data[7].m_SubmeshIndex
      value: 2
      objectReference: {fileID: 0}
    - target: {fileID: 42534633235665206, guid: 667b6ca98f35547d2a50f6ab7ed50575,
        type: 3}
      propertyPath: m_Faces.Array.data[8].m_SubmeshIndex
      value: 2
      objectReference: {fileID: 0}
    - target: {fileID: 42534633235665206, guid: 667b6ca98f35547d2a50f6ab7ed50575,
        type: 3}
      propertyPath: m_Faces.Array.data[9].m_SubmeshIndex
      value: 2
      objectReference: {fileID: 0}
    - target: {fileID: 42534633235665206, guid: 667b6ca98f35547d2a50f6ab7ed50575,
        type: 3}
      propertyPath: m_Faces.Array.data[10].m_SubmeshIndex
      value: 2
      objectReference: {fileID: 0}
    - target: {fileID: 42534633235665206, guid: 667b6ca98f35547d2a50f6ab7ed50575,
        type: 3}
      propertyPath: m_Faces.Array.data[11].m_SubmeshIndex
      value: 2
      objectReference: {fileID: 0}
    - target: {fileID: 42534633235665206, guid: 667b6ca98f35547d2a50f6ab7ed50575,
        type: 3}
      propertyPath: m_Faces.Array.data[12].m_SubmeshIndex
      value: 2
      objectReference: {fileID: 0}
    - target: {fileID: 42534633235665206, guid: 667b6ca98f35547d2a50f6ab7ed50575,
        type: 3}
      propertyPath: m_Faces.Array.data[13].m_SubmeshIndex
      value: 2
      objectReference: {fileID: 0}
    - target: {fileID: 42534633235665206, guid: 667b6ca98f35547d2a50f6ab7ed50575,
        type: 3}
      propertyPath: m_Faces.Array.data[14].m_SubmeshIndex
      value: 2
      objectReference: {fileID: 0}
    - target: {fileID: 42534633235665206, guid: 667b6ca98f35547d2a50f6ab7ed50575,
        type: 3}
      propertyPath: m_Faces.Array.data[15].m_SubmeshIndex
      value: 2
      objectReference: {fileID: 0}
    - target: {fileID: 42534633235665206, guid: 667b6ca98f35547d2a50f6ab7ed50575,
        type: 3}
      propertyPath: m_Faces.Array.data[16].m_SubmeshIndex
      value: 2
      objectReference: {fileID: 0}
    - target: {fileID: 42534633235665206, guid: 667b6ca98f35547d2a50f6ab7ed50575,
        type: 3}
      propertyPath: m_Faces.Array.data[17].m_SubmeshIndex
      value: 2
      objectReference: {fileID: 0}
    - target: {fileID: 42534633235665207, guid: 667b6ca98f35547d2a50f6ab7ed50575,
        type: 3}
      propertyPath: m_Materials.Array.size
      value: 3
      objectReference: {fileID: 0}
    - target: {fileID: 42534633235665207, guid: 667b6ca98f35547d2a50f6ab7ed50575,
        type: 3}
      propertyPath: m_Materials.Array.data[1]
      value: 
      objectReference: {fileID: 2100000, guid: 01320e340860a4868bf0e47713859534, type: 2}
    - target: {fileID: 42534633235665207, guid: 667b6ca98f35547d2a50f6ab7ed50575,
        type: 3}
      propertyPath: m_Materials.Array.data[2]
      value: 
      objectReference: {fileID: 2100000, guid: 01320e340860a4868bf0e47713859534, type: 2}
    - target: {fileID: 5139907490115082922, guid: 667b6ca98f35547d2a50f6ab7ed50575,
        type: 3}
      propertyPath: offset.z
      value: 3.55
      objectReference: {fileID: 0}
    - target: {fileID: 5906323360534325312, guid: 667b6ca98f35547d2a50f6ab7ed50575,
        type: 3}
      propertyPath: m_SelectedEdges.Array.size
      value: 0
      objectReference: {fileID: 0}
    - target: {fileID: 5906323360534325312, guid: 667b6ca98f35547d2a50f6ab7ed50575,
        type: 3}
      propertyPath: m_SelectedFaces.Array.size
      value: 0
      objectReference: {fileID: 0}
    - target: {fileID: 5906323360534325312, guid: 667b6ca98f35547d2a50f6ab7ed50575,
        type: 3}
      propertyPath: m_SelectedFaces.Array.data[0]
      value: 5
      objectReference: {fileID: 0}
    - target: {fileID: 5906323360534325312, guid: 667b6ca98f35547d2a50f6ab7ed50575,
        type: 3}
      propertyPath: m_SelectedFaces.Array.data[1]
      value: 1
      objectReference: {fileID: 0}
    - target: {fileID: 5906323360534325312, guid: 667b6ca98f35547d2a50f6ab7ed50575,
        type: 3}
      propertyPath: m_SelectedFaces.Array.data[2]
      value: 2
      objectReference: {fileID: 0}
    - target: {fileID: 5906323360534325312, guid: 667b6ca98f35547d2a50f6ab7ed50575,
        type: 3}
      propertyPath: m_SelectedFaces.Array.data[3]
      value: 3
      objectReference: {fileID: 0}
    - target: {fileID: 5906323360534325312, guid: 667b6ca98f35547d2a50f6ab7ed50575,
        type: 3}
      propertyPath: m_SelectedFaces.Array.data[4]
      value: 4
      objectReference: {fileID: 0}
    - target: {fileID: 5906323360534325312, guid: 667b6ca98f35547d2a50f6ab7ed50575,
        type: 3}
      propertyPath: m_SelectedFaces.Array.data[5]
      value: 5
      objectReference: {fileID: 0}
    - target: {fileID: 5906323360534325312, guid: 667b6ca98f35547d2a50f6ab7ed50575,
        type: 3}
      propertyPath: m_SelectedFaces.Array.data[6]
      value: 6
      objectReference: {fileID: 0}
    - target: {fileID: 5906323360534325312, guid: 667b6ca98f35547d2a50f6ab7ed50575,
        type: 3}
      propertyPath: m_SelectedFaces.Array.data[7]
      value: 7
      objectReference: {fileID: 0}
    - target: {fileID: 5906323360534325312, guid: 667b6ca98f35547d2a50f6ab7ed50575,
        type: 3}
      propertyPath: m_SelectedFaces.Array.data[8]
      value: 8
      objectReference: {fileID: 0}
    - target: {fileID: 5906323360534325312, guid: 667b6ca98f35547d2a50f6ab7ed50575,
        type: 3}
      propertyPath: m_SelectedFaces.Array.data[9]
      value: 9
      objectReference: {fileID: 0}
    - target: {fileID: 5906323360534325312, guid: 667b6ca98f35547d2a50f6ab7ed50575,
        type: 3}
      propertyPath: m_SelectedVertices.Array.size
      value: 0
      objectReference: {fileID: 0}
    - target: {fileID: 5906323360534325312, guid: 667b6ca98f35547d2a50f6ab7ed50575,
        type: 3}
      propertyPath: m_SelectedFaces.Array.data[10]
      value: 10
      objectReference: {fileID: 0}
    - target: {fileID: 5906323360534325312, guid: 667b6ca98f35547d2a50f6ab7ed50575,
        type: 3}
      propertyPath: m_SelectedFaces.Array.data[11]
      value: 11
      objectReference: {fileID: 0}
    - target: {fileID: 5906323360534325312, guid: 667b6ca98f35547d2a50f6ab7ed50575,
        type: 3}
      propertyPath: m_SelectedFaces.Array.data[12]
      value: 12
      objectReference: {fileID: 0}
    - target: {fileID: 5906323360534325312, guid: 667b6ca98f35547d2a50f6ab7ed50575,
        type: 3}
      propertyPath: m_SelectedFaces.Array.data[13]
      value: 13
      objectReference: {fileID: 0}
    - target: {fileID: 5906323360534325312, guid: 667b6ca98f35547d2a50f6ab7ed50575,
        type: 3}
      propertyPath: m_SelectedEdges.Array.data[0].a
      value: 20
      objectReference: {fileID: 0}
    - target: {fileID: 5906323360534325312, guid: 667b6ca98f35547d2a50f6ab7ed50575,
        type: 3}
      propertyPath: m_SelectedEdges.Array.data[0].b
      value: 21
      objectReference: {fileID: 0}
    - target: {fileID: 5906323360534325312, guid: 667b6ca98f35547d2a50f6ab7ed50575,
        type: 3}
      propertyPath: m_SelectedEdges.Array.data[1].a
      value: 22
      objectReference: {fileID: 0}
    - target: {fileID: 5906323360534325312, guid: 667b6ca98f35547d2a50f6ab7ed50575,
        type: 3}
      propertyPath: m_SelectedEdges.Array.data[1].b
      value: 20
      objectReference: {fileID: 0}
    - target: {fileID: 5906323360534325312, guid: 667b6ca98f35547d2a50f6ab7ed50575,
        type: 3}
      propertyPath: m_SelectedEdges.Array.data[2].a
      value: 21
      objectReference: {fileID: 0}
    - target: {fileID: 5906323360534325312, guid: 667b6ca98f35547d2a50f6ab7ed50575,
        type: 3}
      propertyPath: m_SelectedEdges.Array.data[2].b
      value: 23
      objectReference: {fileID: 0}
    - target: {fileID: 5906323360534325312, guid: 667b6ca98f35547d2a50f6ab7ed50575,
        type: 3}
      propertyPath: m_SelectedEdges.Array.data[3].a
      value: 23
      objectReference: {fileID: 0}
    - target: {fileID: 5906323360534325312, guid: 667b6ca98f35547d2a50f6ab7ed50575,
        type: 3}
      propertyPath: m_SelectedEdges.Array.data[3].b
      value: 22
      objectReference: {fileID: 0}
    - target: {fileID: 5906323360534325312, guid: 667b6ca98f35547d2a50f6ab7ed50575,
        type: 3}
      propertyPath: m_SelectedEdges.Array.data[4].a
      value: 4
      objectReference: {fileID: 0}
    - target: {fileID: 5906323360534325312, guid: 667b6ca98f35547d2a50f6ab7ed50575,
        type: 3}
      propertyPath: m_SelectedEdges.Array.data[4].b
      value: 5
      objectReference: {fileID: 0}
    - target: {fileID: 5906323360534325312, guid: 667b6ca98f35547d2a50f6ab7ed50575,
        type: 3}
      propertyPath: m_SelectedEdges.Array.data[5].a
      value: 6
      objectReference: {fileID: 0}
    - target: {fileID: 5906323360534325312, guid: 667b6ca98f35547d2a50f6ab7ed50575,
        type: 3}
      propertyPath: m_SelectedEdges.Array.data[5].b
      value: 4
      objectReference: {fileID: 0}
    - target: {fileID: 5906323360534325312, guid: 667b6ca98f35547d2a50f6ab7ed50575,
        type: 3}
      propertyPath: m_SelectedEdges.Array.data[6].a
      value: 5
      objectReference: {fileID: 0}
    - target: {fileID: 5906323360534325312, guid: 667b6ca98f35547d2a50f6ab7ed50575,
        type: 3}
      propertyPath: m_SelectedEdges.Array.data[6].b
      value: 7
      objectReference: {fileID: 0}
    - target: {fileID: 5906323360534325312, guid: 667b6ca98f35547d2a50f6ab7ed50575,
        type: 3}
      propertyPath: m_SelectedEdges.Array.data[7].a
      value: 7
      objectReference: {fileID: 0}
    - target: {fileID: 5906323360534325312, guid: 667b6ca98f35547d2a50f6ab7ed50575,
        type: 3}
      propertyPath: m_SelectedEdges.Array.data[7].b
      value: 6
      objectReference: {fileID: 0}
    - target: {fileID: 5906323360534325312, guid: 667b6ca98f35547d2a50f6ab7ed50575,
        type: 3}
      propertyPath: m_SelectedEdges.Array.data[8].a
      value: 8
      objectReference: {fileID: 0}
    - target: {fileID: 5906323360534325312, guid: 667b6ca98f35547d2a50f6ab7ed50575,
        type: 3}
      propertyPath: m_SelectedEdges.Array.data[8].b
      value: 9
      objectReference: {fileID: 0}
    - target: {fileID: 5906323360534325312, guid: 667b6ca98f35547d2a50f6ab7ed50575,
        type: 3}
      propertyPath: m_SelectedEdges.Array.data[9].a
      value: 10
      objectReference: {fileID: 0}
    - target: {fileID: 5906323360534325312, guid: 667b6ca98f35547d2a50f6ab7ed50575,
        type: 3}
      propertyPath: m_SelectedEdges.Array.data[9].b
      value: 8
      objectReference: {fileID: 0}
    - target: {fileID: 5906323360534325312, guid: 667b6ca98f35547d2a50f6ab7ed50575,
        type: 3}
      propertyPath: m_SelectedEdges.Array.data[10].a
      value: 9
      objectReference: {fileID: 0}
    - target: {fileID: 5906323360534325312, guid: 667b6ca98f35547d2a50f6ab7ed50575,
        type: 3}
      propertyPath: m_SelectedEdges.Array.data[10].b
      value: 11
      objectReference: {fileID: 0}
    - target: {fileID: 5906323360534325312, guid: 667b6ca98f35547d2a50f6ab7ed50575,
        type: 3}
      propertyPath: m_SelectedEdges.Array.data[11].a
      value: 11
      objectReference: {fileID: 0}
    - target: {fileID: 5906323360534325312, guid: 667b6ca98f35547d2a50f6ab7ed50575,
        type: 3}
      propertyPath: m_SelectedEdges.Array.data[11].b
      value: 10
      objectReference: {fileID: 0}
    - target: {fileID: 5906323360534325312, guid: 667b6ca98f35547d2a50f6ab7ed50575,
        type: 3}
      propertyPath: m_SelectedEdges.Array.data[12].a
      value: 12
      objectReference: {fileID: 0}
    - target: {fileID: 5906323360534325312, guid: 667b6ca98f35547d2a50f6ab7ed50575,
        type: 3}
      propertyPath: m_SelectedEdges.Array.data[12].b
      value: 13
      objectReference: {fileID: 0}
    - target: {fileID: 5906323360534325312, guid: 667b6ca98f35547d2a50f6ab7ed50575,
        type: 3}
      propertyPath: m_SelectedEdges.Array.data[13].a
      value: 14
      objectReference: {fileID: 0}
    - target: {fileID: 5906323360534325312, guid: 667b6ca98f35547d2a50f6ab7ed50575,
        type: 3}
      propertyPath: m_SelectedEdges.Array.data[13].b
      value: 12
      objectReference: {fileID: 0}
    - target: {fileID: 5906323360534325312, guid: 667b6ca98f35547d2a50f6ab7ed50575,
        type: 3}
      propertyPath: m_SelectedEdges.Array.data[14].a
      value: 13
      objectReference: {fileID: 0}
    - target: {fileID: 5906323360534325312, guid: 667b6ca98f35547d2a50f6ab7ed50575,
        type: 3}
      propertyPath: m_SelectedEdges.Array.data[14].b
      value: 15
      objectReference: {fileID: 0}
    - target: {fileID: 5906323360534325312, guid: 667b6ca98f35547d2a50f6ab7ed50575,
        type: 3}
      propertyPath: m_SelectedEdges.Array.data[15].a
      value: 15
      objectReference: {fileID: 0}
    - target: {fileID: 5906323360534325312, guid: 667b6ca98f35547d2a50f6ab7ed50575,
        type: 3}
      propertyPath: m_SelectedEdges.Array.data[15].b
      value: 14
      objectReference: {fileID: 0}
    - target: {fileID: 5906323360534325312, guid: 667b6ca98f35547d2a50f6ab7ed50575,
        type: 3}
      propertyPath: m_SelectedEdges.Array.data[16].a
      value: 16
      objectReference: {fileID: 0}
    - target: {fileID: 5906323360534325312, guid: 667b6ca98f35547d2a50f6ab7ed50575,
        type: 3}
      propertyPath: m_SelectedEdges.Array.data[16].b
      value: 17
      objectReference: {fileID: 0}
    - target: {fileID: 5906323360534325312, guid: 667b6ca98f35547d2a50f6ab7ed50575,
        type: 3}
      propertyPath: m_SelectedEdges.Array.data[17].a
      value: 18
      objectReference: {fileID: 0}
    - target: {fileID: 5906323360534325312, guid: 667b6ca98f35547d2a50f6ab7ed50575,
        type: 3}
      propertyPath: m_SelectedEdges.Array.data[17].b
      value: 16
      objectReference: {fileID: 0}
    - target: {fileID: 5906323360534325312, guid: 667b6ca98f35547d2a50f6ab7ed50575,
        type: 3}
      propertyPath: m_SelectedEdges.Array.data[18].a
      value: 17
      objectReference: {fileID: 0}
    - target: {fileID: 5906323360534325312, guid: 667b6ca98f35547d2a50f6ab7ed50575,
        type: 3}
      propertyPath: m_SelectedEdges.Array.data[18].b
      value: 19
      objectReference: {fileID: 0}
    - target: {fileID: 5906323360534325312, guid: 667b6ca98f35547d2a50f6ab7ed50575,
        type: 3}
      propertyPath: m_SelectedEdges.Array.data[19].a
      value: 19
      objectReference: {fileID: 0}
    - target: {fileID: 5906323360534325312, guid: 667b6ca98f35547d2a50f6ab7ed50575,
        type: 3}
      propertyPath: m_SelectedEdges.Array.data[19].b
      value: 18
      objectReference: {fileID: 0}
    - target: {fileID: 5906323360534325312, guid: 667b6ca98f35547d2a50f6ab7ed50575,
        type: 3}
      propertyPath: m_SelectedEdges.Array.data[20].a
      value: 20
      objectReference: {fileID: 0}
    - target: {fileID: 5906323360534325312, guid: 667b6ca98f35547d2a50f6ab7ed50575,
        type: 3}
      propertyPath: m_SelectedEdges.Array.data[20].b
      value: 21
      objectReference: {fileID: 0}
    - target: {fileID: 5906323360534325312, guid: 667b6ca98f35547d2a50f6ab7ed50575,
        type: 3}
      propertyPath: m_SelectedEdges.Array.data[21].a
      value: 22
      objectReference: {fileID: 0}
    - target: {fileID: 5906323360534325312, guid: 667b6ca98f35547d2a50f6ab7ed50575,
        type: 3}
      propertyPath: m_SelectedEdges.Array.data[21].b
      value: 20
      objectReference: {fileID: 0}
    - target: {fileID: 5906323360534325312, guid: 667b6ca98f35547d2a50f6ab7ed50575,
        type: 3}
      propertyPath: m_SelectedEdges.Array.data[22].a
      value: 21
      objectReference: {fileID: 0}
    - target: {fileID: 5906323360534325312, guid: 667b6ca98f35547d2a50f6ab7ed50575,
        type: 3}
      propertyPath: m_SelectedEdges.Array.data[22].b
      value: 23
      objectReference: {fileID: 0}
    - target: {fileID: 5906323360534325312, guid: 667b6ca98f35547d2a50f6ab7ed50575,
        type: 3}
      propertyPath: m_SelectedEdges.Array.data[23].a
      value: 23
      objectReference: {fileID: 0}
    - target: {fileID: 5906323360534325312, guid: 667b6ca98f35547d2a50f6ab7ed50575,
        type: 3}
      propertyPath: m_SelectedEdges.Array.data[23].b
      value: 22
      objectReference: {fileID: 0}
    - target: {fileID: 5906323360534325312, guid: 667b6ca98f35547d2a50f6ab7ed50575,
        type: 3}
      propertyPath: m_SelectedEdges.Array.data[24].a
      value: 24
      objectReference: {fileID: 0}
    - target: {fileID: 5906323360534325312, guid: 667b6ca98f35547d2a50f6ab7ed50575,
        type: 3}
      propertyPath: m_SelectedEdges.Array.data[24].b
      value: 25
      objectReference: {fileID: 0}
    - target: {fileID: 5906323360534325312, guid: 667b6ca98f35547d2a50f6ab7ed50575,
        type: 3}
      propertyPath: m_SelectedEdges.Array.data[25].a
      value: 26
      objectReference: {fileID: 0}
    - target: {fileID: 5906323360534325312, guid: 667b6ca98f35547d2a50f6ab7ed50575,
        type: 3}
      propertyPath: m_SelectedEdges.Array.data[25].b
      value: 24
      objectReference: {fileID: 0}
    - target: {fileID: 5906323360534325312, guid: 667b6ca98f35547d2a50f6ab7ed50575,
        type: 3}
      propertyPath: m_SelectedEdges.Array.data[26].a
      value: 25
      objectReference: {fileID: 0}
    - target: {fileID: 5906323360534325312, guid: 667b6ca98f35547d2a50f6ab7ed50575,
        type: 3}
      propertyPath: m_SelectedEdges.Array.data[26].b
      value: 27
      objectReference: {fileID: 0}
    - target: {fileID: 5906323360534325312, guid: 667b6ca98f35547d2a50f6ab7ed50575,
        type: 3}
      propertyPath: m_SelectedEdges.Array.data[27].a
      value: 27
      objectReference: {fileID: 0}
    - target: {fileID: 5906323360534325312, guid: 667b6ca98f35547d2a50f6ab7ed50575,
        type: 3}
      propertyPath: m_SelectedEdges.Array.data[27].b
      value: 26
      objectReference: {fileID: 0}
    - target: {fileID: 5906323360534325312, guid: 667b6ca98f35547d2a50f6ab7ed50575,
        type: 3}
      propertyPath: m_SelectedEdges.Array.data[28].a
      value: 28
      objectReference: {fileID: 0}
    - target: {fileID: 5906323360534325312, guid: 667b6ca98f35547d2a50f6ab7ed50575,
        type: 3}
      propertyPath: m_SelectedEdges.Array.data[28].b
      value: 29
      objectReference: {fileID: 0}
    - target: {fileID: 5906323360534325312, guid: 667b6ca98f35547d2a50f6ab7ed50575,
        type: 3}
      propertyPath: m_SelectedEdges.Array.data[29].a
      value: 30
      objectReference: {fileID: 0}
    - target: {fileID: 5906323360534325312, guid: 667b6ca98f35547d2a50f6ab7ed50575,
        type: 3}
      propertyPath: m_SelectedEdges.Array.data[29].b
      value: 28
      objectReference: {fileID: 0}
    - target: {fileID: 5906323360534325312, guid: 667b6ca98f35547d2a50f6ab7ed50575,
        type: 3}
      propertyPath: m_SelectedEdges.Array.data[30].a
      value: 29
      objectReference: {fileID: 0}
    - target: {fileID: 5906323360534325312, guid: 667b6ca98f35547d2a50f6ab7ed50575,
        type: 3}
      propertyPath: m_SelectedEdges.Array.data[30].b
      value: 31
      objectReference: {fileID: 0}
    - target: {fileID: 5906323360534325312, guid: 667b6ca98f35547d2a50f6ab7ed50575,
        type: 3}
      propertyPath: m_SelectedEdges.Array.data[31].a
      value: 31
      objectReference: {fileID: 0}
    - target: {fileID: 5906323360534325312, guid: 667b6ca98f35547d2a50f6ab7ed50575,
        type: 3}
      propertyPath: m_SelectedEdges.Array.data[31].b
      value: 30
      objectReference: {fileID: 0}
    - target: {fileID: 5906323360534325312, guid: 667b6ca98f35547d2a50f6ab7ed50575,
        type: 3}
      propertyPath: m_SelectedEdges.Array.data[32].a
      value: 32
      objectReference: {fileID: 0}
    - target: {fileID: 5906323360534325312, guid: 667b6ca98f35547d2a50f6ab7ed50575,
        type: 3}
      propertyPath: m_SelectedEdges.Array.data[32].b
      value: 33
      objectReference: {fileID: 0}
    - target: {fileID: 5906323360534325312, guid: 667b6ca98f35547d2a50f6ab7ed50575,
        type: 3}
      propertyPath: m_SelectedEdges.Array.data[33].a
      value: 34
      objectReference: {fileID: 0}
    - target: {fileID: 5906323360534325312, guid: 667b6ca98f35547d2a50f6ab7ed50575,
        type: 3}
      propertyPath: m_SelectedEdges.Array.data[33].b
      value: 32
      objectReference: {fileID: 0}
    - target: {fileID: 5906323360534325312, guid: 667b6ca98f35547d2a50f6ab7ed50575,
        type: 3}
      propertyPath: m_SelectedEdges.Array.data[34].a
      value: 33
      objectReference: {fileID: 0}
    - target: {fileID: 5906323360534325312, guid: 667b6ca98f35547d2a50f6ab7ed50575,
        type: 3}
      propertyPath: m_SelectedEdges.Array.data[34].b
      value: 35
      objectReference: {fileID: 0}
    - target: {fileID: 5906323360534325312, guid: 667b6ca98f35547d2a50f6ab7ed50575,
        type: 3}
      propertyPath: m_SelectedEdges.Array.data[35].a
      value: 35
      objectReference: {fileID: 0}
    - target: {fileID: 5906323360534325312, guid: 667b6ca98f35547d2a50f6ab7ed50575,
        type: 3}
      propertyPath: m_SelectedEdges.Array.data[35].b
      value: 34
      objectReference: {fileID: 0}
    - target: {fileID: 5906323360534325312, guid: 667b6ca98f35547d2a50f6ab7ed50575,
        type: 3}
      propertyPath: m_SelectedEdges.Array.data[36].a
      value: 36
      objectReference: {fileID: 0}
    - target: {fileID: 5906323360534325312, guid: 667b6ca98f35547d2a50f6ab7ed50575,
        type: 3}
      propertyPath: m_SelectedEdges.Array.data[36].b
      value: 37
      objectReference: {fileID: 0}
    - target: {fileID: 5906323360534325312, guid: 667b6ca98f35547d2a50f6ab7ed50575,
        type: 3}
      propertyPath: m_SelectedEdges.Array.data[37].a
      value: 38
      objectReference: {fileID: 0}
    - target: {fileID: 5906323360534325312, guid: 667b6ca98f35547d2a50f6ab7ed50575,
        type: 3}
      propertyPath: m_SelectedEdges.Array.data[37].b
      value: 36
      objectReference: {fileID: 0}
    - target: {fileID: 5906323360534325312, guid: 667b6ca98f35547d2a50f6ab7ed50575,
        type: 3}
      propertyPath: m_SelectedEdges.Array.data[38].a
      value: 37
      objectReference: {fileID: 0}
    - target: {fileID: 5906323360534325312, guid: 667b6ca98f35547d2a50f6ab7ed50575,
        type: 3}
      propertyPath: m_SelectedEdges.Array.data[38].b
      value: 39
      objectReference: {fileID: 0}
    - target: {fileID: 5906323360534325312, guid: 667b6ca98f35547d2a50f6ab7ed50575,
        type: 3}
      propertyPath: m_SelectedEdges.Array.data[39].a
      value: 39
      objectReference: {fileID: 0}
    - target: {fileID: 5906323360534325312, guid: 667b6ca98f35547d2a50f6ab7ed50575,
        type: 3}
      propertyPath: m_SelectedEdges.Array.data[39].b
      value: 38
      objectReference: {fileID: 0}
    - target: {fileID: 5906323360534325312, guid: 667b6ca98f35547d2a50f6ab7ed50575,
        type: 3}
      propertyPath: m_SelectedEdges.Array.data[40].a
      value: 40
      objectReference: {fileID: 0}
    - target: {fileID: 5906323360534325312, guid: 667b6ca98f35547d2a50f6ab7ed50575,
        type: 3}
      propertyPath: m_SelectedEdges.Array.data[40].b
      value: 41
      objectReference: {fileID: 0}
    - target: {fileID: 5906323360534325312, guid: 667b6ca98f35547d2a50f6ab7ed50575,
        type: 3}
      propertyPath: m_SelectedEdges.Array.data[41].a
      value: 42
      objectReference: {fileID: 0}
    - target: {fileID: 5906323360534325312, guid: 667b6ca98f35547d2a50f6ab7ed50575,
        type: 3}
      propertyPath: m_SelectedEdges.Array.data[41].b
      value: 40
      objectReference: {fileID: 0}
    - target: {fileID: 5906323360534325312, guid: 667b6ca98f35547d2a50f6ab7ed50575,
        type: 3}
      propertyPath: m_SelectedEdges.Array.data[42].a
      value: 41
      objectReference: {fileID: 0}
    - target: {fileID: 5906323360534325312, guid: 667b6ca98f35547d2a50f6ab7ed50575,
        type: 3}
      propertyPath: m_SelectedEdges.Array.data[42].b
      value: 43
      objectReference: {fileID: 0}
    - target: {fileID: 5906323360534325312, guid: 667b6ca98f35547d2a50f6ab7ed50575,
        type: 3}
      propertyPath: m_SelectedEdges.Array.data[43].a
      value: 43
      objectReference: {fileID: 0}
    - target: {fileID: 5906323360534325312, guid: 667b6ca98f35547d2a50f6ab7ed50575,
        type: 3}
      propertyPath: m_SelectedEdges.Array.data[43].b
      value: 42
      objectReference: {fileID: 0}
    - target: {fileID: 5906323360534325312, guid: 667b6ca98f35547d2a50f6ab7ed50575,
        type: 3}
      propertyPath: m_SelectedEdges.Array.data[44].a
      value: 44
      objectReference: {fileID: 0}
    - target: {fileID: 5906323360534325312, guid: 667b6ca98f35547d2a50f6ab7ed50575,
        type: 3}
      propertyPath: m_SelectedEdges.Array.data[44].b
      value: 45
      objectReference: {fileID: 0}
    - target: {fileID: 5906323360534325312, guid: 667b6ca98f35547d2a50f6ab7ed50575,
        type: 3}
      propertyPath: m_SelectedEdges.Array.data[45].a
      value: 46
      objectReference: {fileID: 0}
    - target: {fileID: 5906323360534325312, guid: 667b6ca98f35547d2a50f6ab7ed50575,
        type: 3}
      propertyPath: m_SelectedEdges.Array.data[45].b
      value: 44
      objectReference: {fileID: 0}
    - target: {fileID: 5906323360534325312, guid: 667b6ca98f35547d2a50f6ab7ed50575,
        type: 3}
      propertyPath: m_SelectedEdges.Array.data[46].a
      value: 45
      objectReference: {fileID: 0}
    - target: {fileID: 5906323360534325312, guid: 667b6ca98f35547d2a50f6ab7ed50575,
        type: 3}
      propertyPath: m_SelectedEdges.Array.data[46].b
      value: 47
      objectReference: {fileID: 0}
    - target: {fileID: 5906323360534325312, guid: 667b6ca98f35547d2a50f6ab7ed50575,
        type: 3}
      propertyPath: m_SelectedEdges.Array.data[47].a
      value: 47
      objectReference: {fileID: 0}
    - target: {fileID: 5906323360534325312, guid: 667b6ca98f35547d2a50f6ab7ed50575,
        type: 3}
      propertyPath: m_SelectedEdges.Array.data[47].b
      value: 46
      objectReference: {fileID: 0}
    - target: {fileID: 5906323360534325312, guid: 667b6ca98f35547d2a50f6ab7ed50575,
        type: 3}
      propertyPath: m_SelectedEdges.Array.data[48].a
      value: 48
      objectReference: {fileID: 0}
    - target: {fileID: 5906323360534325312, guid: 667b6ca98f35547d2a50f6ab7ed50575,
        type: 3}
      propertyPath: m_SelectedEdges.Array.data[48].b
      value: 49
      objectReference: {fileID: 0}
    - target: {fileID: 5906323360534325312, guid: 667b6ca98f35547d2a50f6ab7ed50575,
        type: 3}
      propertyPath: m_SelectedEdges.Array.data[49].a
      value: 50
      objectReference: {fileID: 0}
    - target: {fileID: 5906323360534325312, guid: 667b6ca98f35547d2a50f6ab7ed50575,
        type: 3}
      propertyPath: m_SelectedEdges.Array.data[49].b
      value: 48
      objectReference: {fileID: 0}
    - target: {fileID: 5906323360534325312, guid: 667b6ca98f35547d2a50f6ab7ed50575,
        type: 3}
      propertyPath: m_SelectedEdges.Array.data[50].a
      value: 49
      objectReference: {fileID: 0}
    - target: {fileID: 5906323360534325312, guid: 667b6ca98f35547d2a50f6ab7ed50575,
        type: 3}
      propertyPath: m_SelectedEdges.Array.data[50].b
      value: 51
      objectReference: {fileID: 0}
    - target: {fileID: 5906323360534325312, guid: 667b6ca98f35547d2a50f6ab7ed50575,
        type: 3}
      propertyPath: m_SelectedEdges.Array.data[51].a
      value: 51
      objectReference: {fileID: 0}
    - target: {fileID: 5906323360534325312, guid: 667b6ca98f35547d2a50f6ab7ed50575,
        type: 3}
      propertyPath: m_SelectedEdges.Array.data[51].b
      value: 50
      objectReference: {fileID: 0}
    - target: {fileID: 5906323360534325312, guid: 667b6ca98f35547d2a50f6ab7ed50575,
        type: 3}
      propertyPath: m_SelectedEdges.Array.data[52].a
      value: 52
      objectReference: {fileID: 0}
    - target: {fileID: 5906323360534325312, guid: 667b6ca98f35547d2a50f6ab7ed50575,
        type: 3}
      propertyPath: m_SelectedEdges.Array.data[52].b
      value: 53
      objectReference: {fileID: 0}
    - target: {fileID: 5906323360534325312, guid: 667b6ca98f35547d2a50f6ab7ed50575,
        type: 3}
      propertyPath: m_SelectedEdges.Array.data[53].a
      value: 54
      objectReference: {fileID: 0}
    - target: {fileID: 5906323360534325312, guid: 667b6ca98f35547d2a50f6ab7ed50575,
        type: 3}
      propertyPath: m_SelectedEdges.Array.data[53].b
      value: 52
      objectReference: {fileID: 0}
    - target: {fileID: 5906323360534325312, guid: 667b6ca98f35547d2a50f6ab7ed50575,
        type: 3}
      propertyPath: m_SelectedEdges.Array.data[54].a
      value: 53
      objectReference: {fileID: 0}
    - target: {fileID: 5906323360534325312, guid: 667b6ca98f35547d2a50f6ab7ed50575,
        type: 3}
      propertyPath: m_SelectedEdges.Array.data[54].b
      value: 55
      objectReference: {fileID: 0}
    - target: {fileID: 5906323360534325312, guid: 667b6ca98f35547d2a50f6ab7ed50575,
        type: 3}
      propertyPath: m_SelectedEdges.Array.data[55].a
      value: 55
      objectReference: {fileID: 0}
    - target: {fileID: 5906323360534325312, guid: 667b6ca98f35547d2a50f6ab7ed50575,
        type: 3}
      propertyPath: m_SelectedEdges.Array.data[55].b
      value: 54
      objectReference: {fileID: 0}
    - target: {fileID: 5906323360534325312, guid: 667b6ca98f35547d2a50f6ab7ed50575,
        type: 3}
      propertyPath: m_SelectedVertices.Array.data[0]
      value: 20
      objectReference: {fileID: 0}
    - target: {fileID: 5906323360534325312, guid: 667b6ca98f35547d2a50f6ab7ed50575,
        type: 3}
      propertyPath: m_SelectedVertices.Array.data[1]
      value: 21
      objectReference: {fileID: 0}
    - target: {fileID: 5906323360534325312, guid: 667b6ca98f35547d2a50f6ab7ed50575,
        type: 3}
      propertyPath: m_SelectedVertices.Array.data[2]
      value: 22
      objectReference: {fileID: 0}
    - target: {fileID: 5906323360534325312, guid: 667b6ca98f35547d2a50f6ab7ed50575,
        type: 3}
      propertyPath: m_SelectedVertices.Array.data[3]
      value: 23
      objectReference: {fileID: 0}
    - target: {fileID: 5906323360534325312, guid: 667b6ca98f35547d2a50f6ab7ed50575,
        type: 3}
      propertyPath: m_SelectedVertices.Array.data[4]
      value: 4
      objectReference: {fileID: 0}
    - target: {fileID: 5906323360534325312, guid: 667b6ca98f35547d2a50f6ab7ed50575,
        type: 3}
      propertyPath: m_SelectedVertices.Array.data[5]
      value: 5
      objectReference: {fileID: 0}
    - target: {fileID: 5906323360534325312, guid: 667b6ca98f35547d2a50f6ab7ed50575,
        type: 3}
      propertyPath: m_SelectedVertices.Array.data[6]
      value: 6
      objectReference: {fileID: 0}
    - target: {fileID: 5906323360534325312, guid: 667b6ca98f35547d2a50f6ab7ed50575,
        type: 3}
      propertyPath: m_SelectedVertices.Array.data[7]
      value: 7
      objectReference: {fileID: 0}
    - target: {fileID: 5906323360534325312, guid: 667b6ca98f35547d2a50f6ab7ed50575,
        type: 3}
      propertyPath: m_SelectedVertices.Array.data[8]
      value: 8
      objectReference: {fileID: 0}
    - target: {fileID: 5906323360534325312, guid: 667b6ca98f35547d2a50f6ab7ed50575,
        type: 3}
      propertyPath: m_SelectedVertices.Array.data[9]
      value: 9
      objectReference: {fileID: 0}
    - target: {fileID: 5906323360534325312, guid: 667b6ca98f35547d2a50f6ab7ed50575,
        type: 3}
      propertyPath: m_SelectedVertices.Array.data[10]
      value: 10
      objectReference: {fileID: 0}
    - target: {fileID: 5906323360534325312, guid: 667b6ca98f35547d2a50f6ab7ed50575,
        type: 3}
      propertyPath: m_SelectedVertices.Array.data[11]
      value: 11
      objectReference: {fileID: 0}
    - target: {fileID: 5906323360534325312, guid: 667b6ca98f35547d2a50f6ab7ed50575,
        type: 3}
      propertyPath: m_SelectedVertices.Array.data[12]
      value: 12
      objectReference: {fileID: 0}
    - target: {fileID: 5906323360534325312, guid: 667b6ca98f35547d2a50f6ab7ed50575,
        type: 3}
      propertyPath: m_SelectedVertices.Array.data[13]
      value: 13
      objectReference: {fileID: 0}
    - target: {fileID: 5906323360534325312, guid: 667b6ca98f35547d2a50f6ab7ed50575,
        type: 3}
      propertyPath: m_SelectedVertices.Array.data[14]
      value: 14
      objectReference: {fileID: 0}
    - target: {fileID: 5906323360534325312, guid: 667b6ca98f35547d2a50f6ab7ed50575,
        type: 3}
      propertyPath: m_SelectedVertices.Array.data[15]
      value: 15
      objectReference: {fileID: 0}
    - target: {fileID: 5906323360534325312, guid: 667b6ca98f35547d2a50f6ab7ed50575,
        type: 3}
      propertyPath: m_SelectedVertices.Array.data[16]
      value: 16
      objectReference: {fileID: 0}
    - target: {fileID: 5906323360534325312, guid: 667b6ca98f35547d2a50f6ab7ed50575,
        type: 3}
      propertyPath: m_SelectedVertices.Array.data[17]
      value: 17
      objectReference: {fileID: 0}
    - target: {fileID: 5906323360534325312, guid: 667b6ca98f35547d2a50f6ab7ed50575,
        type: 3}
      propertyPath: m_SelectedVertices.Array.data[18]
      value: 18
      objectReference: {fileID: 0}
    - target: {fileID: 5906323360534325312, guid: 667b6ca98f35547d2a50f6ab7ed50575,
        type: 3}
      propertyPath: m_SelectedVertices.Array.data[19]
      value: 19
      objectReference: {fileID: 0}
    - target: {fileID: 5906323360534325312, guid: 667b6ca98f35547d2a50f6ab7ed50575,
        type: 3}
      propertyPath: m_SelectedVertices.Array.data[20]
      value: 20
      objectReference: {fileID: 0}
    - target: {fileID: 5906323360534325312, guid: 667b6ca98f35547d2a50f6ab7ed50575,
        type: 3}
      propertyPath: m_SelectedVertices.Array.data[21]
      value: 21
      objectReference: {fileID: 0}
    - target: {fileID: 5906323360534325312, guid: 667b6ca98f35547d2a50f6ab7ed50575,
        type: 3}
      propertyPath: m_SelectedVertices.Array.data[22]
      value: 22
      objectReference: {fileID: 0}
    - target: {fileID: 5906323360534325312, guid: 667b6ca98f35547d2a50f6ab7ed50575,
        type: 3}
      propertyPath: m_SelectedVertices.Array.data[23]
      value: 23
      objectReference: {fileID: 0}
    - target: {fileID: 5906323360534325312, guid: 667b6ca98f35547d2a50f6ab7ed50575,
        type: 3}
      propertyPath: m_SelectedVertices.Array.data[24]
      value: 24
      objectReference: {fileID: 0}
    - target: {fileID: 5906323360534325312, guid: 667b6ca98f35547d2a50f6ab7ed50575,
        type: 3}
      propertyPath: m_SelectedVertices.Array.data[25]
      value: 25
      objectReference: {fileID: 0}
    - target: {fileID: 5906323360534325312, guid: 667b6ca98f35547d2a50f6ab7ed50575,
        type: 3}
      propertyPath: m_SelectedVertices.Array.data[26]
      value: 26
      objectReference: {fileID: 0}
    - target: {fileID: 5906323360534325312, guid: 667b6ca98f35547d2a50f6ab7ed50575,
        type: 3}
      propertyPath: m_SelectedVertices.Array.data[27]
      value: 27
      objectReference: {fileID: 0}
    - target: {fileID: 5906323360534325312, guid: 667b6ca98f35547d2a50f6ab7ed50575,
        type: 3}
      propertyPath: m_SelectedVertices.Array.data[28]
      value: 28
      objectReference: {fileID: 0}
    - target: {fileID: 5906323360534325312, guid: 667b6ca98f35547d2a50f6ab7ed50575,
        type: 3}
      propertyPath: m_SelectedVertices.Array.data[29]
      value: 29
      objectReference: {fileID: 0}
    - target: {fileID: 5906323360534325312, guid: 667b6ca98f35547d2a50f6ab7ed50575,
        type: 3}
      propertyPath: m_SelectedVertices.Array.data[30]
      value: 30
      objectReference: {fileID: 0}
    - target: {fileID: 5906323360534325312, guid: 667b6ca98f35547d2a50f6ab7ed50575,
        type: 3}
      propertyPath: m_SelectedVertices.Array.data[31]
      value: 31
      objectReference: {fileID: 0}
    - target: {fileID: 5906323360534325312, guid: 667b6ca98f35547d2a50f6ab7ed50575,
        type: 3}
      propertyPath: m_SelectedVertices.Array.data[32]
      value: 32
      objectReference: {fileID: 0}
    - target: {fileID: 5906323360534325312, guid: 667b6ca98f35547d2a50f6ab7ed50575,
        type: 3}
      propertyPath: m_SelectedVertices.Array.data[33]
      value: 33
      objectReference: {fileID: 0}
    - target: {fileID: 5906323360534325312, guid: 667b6ca98f35547d2a50f6ab7ed50575,
        type: 3}
      propertyPath: m_SelectedVertices.Array.data[34]
      value: 34
      objectReference: {fileID: 0}
    - target: {fileID: 5906323360534325312, guid: 667b6ca98f35547d2a50f6ab7ed50575,
        type: 3}
      propertyPath: m_SelectedVertices.Array.data[35]
      value: 35
      objectReference: {fileID: 0}
    - target: {fileID: 5906323360534325312, guid: 667b6ca98f35547d2a50f6ab7ed50575,
        type: 3}
      propertyPath: m_SelectedVertices.Array.data[36]
      value: 36
      objectReference: {fileID: 0}
    - target: {fileID: 5906323360534325312, guid: 667b6ca98f35547d2a50f6ab7ed50575,
        type: 3}
      propertyPath: m_SelectedVertices.Array.data[37]
      value: 37
      objectReference: {fileID: 0}
    - target: {fileID: 5906323360534325312, guid: 667b6ca98f35547d2a50f6ab7ed50575,
        type: 3}
      propertyPath: m_SelectedVertices.Array.data[38]
      value: 38
      objectReference: {fileID: 0}
    - target: {fileID: 5906323360534325312, guid: 667b6ca98f35547d2a50f6ab7ed50575,
        type: 3}
      propertyPath: m_SelectedVertices.Array.data[39]
      value: 39
      objectReference: {fileID: 0}
    - target: {fileID: 5906323360534325312, guid: 667b6ca98f35547d2a50f6ab7ed50575,
        type: 3}
      propertyPath: m_SelectedVertices.Array.data[40]
      value: 40
      objectReference: {fileID: 0}
    - target: {fileID: 5906323360534325312, guid: 667b6ca98f35547d2a50f6ab7ed50575,
        type: 3}
      propertyPath: m_SelectedVertices.Array.data[41]
      value: 41
      objectReference: {fileID: 0}
    - target: {fileID: 5906323360534325312, guid: 667b6ca98f35547d2a50f6ab7ed50575,
        type: 3}
      propertyPath: m_SelectedVertices.Array.data[42]
      value: 42
      objectReference: {fileID: 0}
    - target: {fileID: 5906323360534325312, guid: 667b6ca98f35547d2a50f6ab7ed50575,
        type: 3}
      propertyPath: m_SelectedVertices.Array.data[43]
      value: 43
      objectReference: {fileID: 0}
    - target: {fileID: 5906323360534325312, guid: 667b6ca98f35547d2a50f6ab7ed50575,
        type: 3}
      propertyPath: m_SelectedVertices.Array.data[44]
      value: 44
      objectReference: {fileID: 0}
    - target: {fileID: 5906323360534325312, guid: 667b6ca98f35547d2a50f6ab7ed50575,
        type: 3}
      propertyPath: m_SelectedVertices.Array.data[45]
      value: 45
      objectReference: {fileID: 0}
    - target: {fileID: 5906323360534325312, guid: 667b6ca98f35547d2a50f6ab7ed50575,
        type: 3}
      propertyPath: m_SelectedVertices.Array.data[46]
      value: 46
      objectReference: {fileID: 0}
    - target: {fileID: 5906323360534325312, guid: 667b6ca98f35547d2a50f6ab7ed50575,
        type: 3}
      propertyPath: m_SelectedVertices.Array.data[47]
      value: 47
      objectReference: {fileID: 0}
    - target: {fileID: 5906323360534325312, guid: 667b6ca98f35547d2a50f6ab7ed50575,
        type: 3}
      propertyPath: m_SelectedVertices.Array.data[48]
      value: 48
      objectReference: {fileID: 0}
    - target: {fileID: 5906323360534325312, guid: 667b6ca98f35547d2a50f6ab7ed50575,
        type: 3}
      propertyPath: m_SelectedVertices.Array.data[49]
      value: 49
      objectReference: {fileID: 0}
    - target: {fileID: 5906323360534325312, guid: 667b6ca98f35547d2a50f6ab7ed50575,
        type: 3}
      propertyPath: m_SelectedVertices.Array.data[50]
      value: 50
      objectReference: {fileID: 0}
    - target: {fileID: 5906323360534325312, guid: 667b6ca98f35547d2a50f6ab7ed50575,
        type: 3}
      propertyPath: m_SelectedVertices.Array.data[51]
      value: 51
      objectReference: {fileID: 0}
    - target: {fileID: 5906323360534325312, guid: 667b6ca98f35547d2a50f6ab7ed50575,
        type: 3}
      propertyPath: m_SelectedVertices.Array.data[52]
      value: 52
      objectReference: {fileID: 0}
    - target: {fileID: 5906323360534325312, guid: 667b6ca98f35547d2a50f6ab7ed50575,
        type: 3}
      propertyPath: m_SelectedVertices.Array.data[53]
      value: 53
      objectReference: {fileID: 0}
    - target: {fileID: 5906323360534325312, guid: 667b6ca98f35547d2a50f6ab7ed50575,
        type: 3}
      propertyPath: m_SelectedVertices.Array.data[54]
      value: 54
      objectReference: {fileID: 0}
    - target: {fileID: 5906323360534325312, guid: 667b6ca98f35547d2a50f6ab7ed50575,
        type: 3}
      propertyPath: m_SelectedVertices.Array.data[55]
      value: 55
      objectReference: {fileID: 0}
    - target: {fileID: 5906323360534325312, guid: 667b6ca98f35547d2a50f6ab7ed50575,
        type: 3}
      propertyPath: m_Faces.Array.data[0].m_SubmeshIndex
      value: 0
      objectReference: {fileID: 0}
    - target: {fileID: 5906323360534325312, guid: 667b6ca98f35547d2a50f6ab7ed50575,
        type: 3}
      propertyPath: m_Faces.Array.data[1].m_SubmeshIndex
      value: 0
      objectReference: {fileID: 0}
    - target: {fileID: 5906323360534325312, guid: 667b6ca98f35547d2a50f6ab7ed50575,
        type: 3}
      propertyPath: m_Faces.Array.data[2].m_SubmeshIndex
      value: 0
      objectReference: {fileID: 0}
    - target: {fileID: 5906323360534325312, guid: 667b6ca98f35547d2a50f6ab7ed50575,
        type: 3}
      propertyPath: m_Faces.Array.data[3].m_SubmeshIndex
      value: 0
      objectReference: {fileID: 0}
    - target: {fileID: 5906323360534325312, guid: 667b6ca98f35547d2a50f6ab7ed50575,
        type: 3}
      propertyPath: m_Faces.Array.data[4].m_SubmeshIndex
      value: 1
      objectReference: {fileID: 0}
    - target: {fileID: 5906323360534325312, guid: 667b6ca98f35547d2a50f6ab7ed50575,
        type: 3}
      propertyPath: m_Faces.Array.data[5].m_SubmeshIndex
      value: 1
      objectReference: {fileID: 0}
    - target: {fileID: 5906323360534325312, guid: 667b6ca98f35547d2a50f6ab7ed50575,
        type: 3}
      propertyPath: m_Faces.Array.data[6].m_SubmeshIndex
      value: 0
      objectReference: {fileID: 0}
    - target: {fileID: 5906323360534325312, guid: 667b6ca98f35547d2a50f6ab7ed50575,
        type: 3}
      propertyPath: m_Faces.Array.data[7].m_SubmeshIndex
      value: 0
      objectReference: {fileID: 0}
    - target: {fileID: 5906323360534325312, guid: 667b6ca98f35547d2a50f6ab7ed50575,
        type: 3}
      propertyPath: m_Faces.Array.data[8].m_SubmeshIndex
      value: 0
      objectReference: {fileID: 0}
    - target: {fileID: 5906323360534325312, guid: 667b6ca98f35547d2a50f6ab7ed50575,
        type: 3}
      propertyPath: m_Faces.Array.data[9].m_SubmeshIndex
      value: 0
      objectReference: {fileID: 0}
    - target: {fileID: 5906323360534325312, guid: 667b6ca98f35547d2a50f6ab7ed50575,
        type: 3}
      propertyPath: m_Faces.Array.data[10].m_SubmeshIndex
      value: 0
      objectReference: {fileID: 0}
    - target: {fileID: 5906323360534325312, guid: 667b6ca98f35547d2a50f6ab7ed50575,
        type: 3}
      propertyPath: m_Faces.Array.data[11].m_SubmeshIndex
      value: 0
      objectReference: {fileID: 0}
    - target: {fileID: 5906323360534325312, guid: 667b6ca98f35547d2a50f6ab7ed50575,
        type: 3}
      propertyPath: m_Faces.Array.data[12].m_SubmeshIndex
      value: 0
      objectReference: {fileID: 0}
    - target: {fileID: 5906323360534325312, guid: 667b6ca98f35547d2a50f6ab7ed50575,
        type: 3}
      propertyPath: m_Faces.Array.data[13].m_SubmeshIndex
      value: 0
      objectReference: {fileID: 0}
    - target: {fileID: 5906323360534325315, guid: 667b6ca98f35547d2a50f6ab7ed50575,
        type: 3}
      propertyPath: m_IsActive
      value: 1
      objectReference: {fileID: 0}
    - target: {fileID: 5906323360534325343, guid: 667b6ca98f35547d2a50f6ab7ed50575,
        type: 3}
      propertyPath: m_Materials.Array.data[0]
      value: 
      objectReference: {fileID: 2100000, guid: 2a4722d6cacf446db8479e558f1027c5, type: 2}
    - target: {fileID: 5906323360534325343, guid: 667b6ca98f35547d2a50f6ab7ed50575,
        type: 3}
      propertyPath: m_Materials.Array.data[1]
      value: 
      objectReference: {fileID: 2100000, guid: cdffcea329e284dfda86aa7a4643be72, type: 2}
    m_RemovedComponents: []
  m_SourcePrefab: {fileID: 100100000, guid: 667b6ca98f35547d2a50f6ab7ed50575, type: 3}
