%YAML 1.1
%TAG !u! tag:unity3d.com,2011:
--- !u!114 &5480771162969162247
MonoBehaviour:
  m_ObjectHideFlags: 0
  m_CorrespondingSourceObject: {fileID: 0}
  m_PrefabInstance: {fileID: 0}
  m_PrefabAsset: {fileID: 0}
  m_GameObject: {fileID: 5016773701023165982}
  m_Enabled: 1
  m_EditorHideFlags: 0
  m_Script: {fileID: 11500000, guid: 4fc475a4823031b4698bd74089767e16, type: 3}
  m_Name: 
  m_EditorClassIdentifier: 
--- !u!1001 &3870582100962643073
PrefabInstance:
  m_ObjectHideFlags: 0
  serializedVersion: 2
  m_Modification:
    m_TransformParent: {fileID: 0}
    m_Modifications:
    - target: {fileID: 1147518761171103404, guid: fbc57761ca2064524b4eaf07bbe2ac47,
        type: 3}
      propertyPath: m_Materials.Array.data[0]
      value: 
      objectReference: {fileID: 2100000, guid: 550654e30e7c349bd95e9bce4ed6003a, type: 2}
    - target: {fileID: 5735070359434857759, guid: fbc57761ca2064524b4eaf07bbe2ac47,
        type: 3}
      propertyPath: m_RootOrder
      value: 0
      objectReference: {fileID: 0}
    - target: {fileID: 5735070359434857759, guid: fbc57761ca2064524b4eaf07bbe2ac47,
        type: 3}
      propertyPath: m_LocalPosition.x
      value: -91.296326
      objectReference: {fileID: 0}
    - target: {fileID: 5735070359434857759, guid: fbc57761ca2064524b4eaf07bbe2ac47,
        type: 3}
      propertyPath: m_LocalPosition.y
      value: 38.360855
      objectReference: {fileID: 0}
    - target: {fileID: 5735070359434857759, guid: fbc57761ca2064524b4eaf07bbe2ac47,
        type: 3}
      propertyPath: m_LocalPosition.z
      value: -52.02369
      objectReference: {fileID: 0}
    - target: {fileID: 5735070359434857759, guid: fbc57761ca2064524b4eaf07bbe2ac47,
        type: 3}
      propertyPath: m_LocalRotation.w
      value: 0.7071068
      objectReference: {fileID: 0}
    - target: {fileID: 5735070359434857759, guid: fbc57761ca2064524b4eaf07bbe2ac47,
        type: 3}
      propertyPath: m_LocalRotation.x
      value: 0.7071068
      objectReference: {fileID: 0}
    - target: {fileID: 5735070359434857759, guid: fbc57761ca2064524b4eaf07bbe2ac47,
        type: 3}
      propertyPath: m_LocalRotation.y
      value: 0
      objectReference: {fileID: 0}
    - target: {fileID: 5735070359434857759, guid: fbc57761ca2064524b4eaf07bbe2ac47,
        type: 3}
      propertyPath: m_LocalRotation.z
      value: 0
      objectReference: {fileID: 0}
    - target: {fileID: 5735070359434857759, guid: fbc57761ca2064524b4eaf07bbe2ac47,
        type: 3}
      propertyPath: m_LocalEulerAnglesHint.x
      value: 90
      objectReference: {fileID: 0}
    - target: {fileID: 5735070359434857759, guid: fbc57761ca2064524b4eaf07bbe2ac47,
        type: 3}
      propertyPath: m_LocalEulerAnglesHint.y
      value: 0
      objectReference: {fileID: 0}
    - target: {fileID: 5735070359434857759, guid: fbc57761ca2064524b4eaf07bbe2ac47,
        type: 3}
      propertyPath: m_LocalEulerAnglesHint.z
      value: 0
      objectReference: {fileID: 0}
    - target: {fileID: 8081772134790914719, guid: fbc57761ca2064524b4eaf07bbe2ac47,
        type: 3}
      propertyPath: m_Name
      value: Red Hanging Vines
      objectReference: {fileID: 0}
    - target: {fileID: 8349038431123498476, guid: fbc57761ca2064524b4eaf07bbe2ac47,
        type: 3}
      propertyPath: m_Materials.Array.data[0]
      value: 
      objectReference: {fileID: 2100000, guid: 550654e30e7c349bd95e9bce4ed6003a, type: 2}
    m_RemovedComponents: []
  m_SourcePrefab: {fileID: 100100000, guid: fbc57761ca2064524b4eaf07bbe2ac47, type: 3}
--- !u!1 &5016773701023165982 stripped
GameObject:
  m_CorrespondingSourceObject: {fileID: 8081772134790914719, guid: fbc57761ca2064524b4eaf07bbe2ac47,
    type: 3}
  m_PrefabInstance: {fileID: 3870582100962643073}
  m_PrefabAsset: {fileID: 0}
