%YAML 1.1
%TAG !u! tag:unity3d.com,2011:
--- !u!114 &11400000
MonoBehaviour:
  m_ObjectHideFlags: 0
  m_CorrespondingSourceObject: {fileID: 0}
  m_PrefabInstance: {fileID: 0}
  m_PrefabAsset: {fileID: 0}
  m_GameObject: {fileID: 0}
  m_Enabled: 1
  m_EditorHideFlags: 0
  m_Script: {fileID: 11500000, guid: e7ba7a43222473d4292f91ae936fe2cc, type: 3}
  m_Name: MovPlat_Platform_Small_Peak Plateau Variant_Impostor
  m_EditorClassIdentifier: 
  Material: {fileID: 1957543261630348009}
  Mesh: {fileID: 8114158929693304217}
  Version: 9701
  ImpostorType: 1
  LockedSizes: 1
  SelectedSize: 2048
  TexSize: {x: 2048, y: 2048}
  DecoupleAxisFrames: 0
  HorizontalFrames: 16
  VerticalFrames: 16
  PixelPadding: 32
  MaxVertices: 8
  Tolerance: 0.15
  NormalScale: 0.01
  ShapePoints:
  - {x: 0.04931109, y: 0.77994686}
  - {x: 0.2645319, y: 1}
  - {x: 0.7427742, y: 1}
  - {x: 0.97175545, y: 0.74938226}
  - {x: 0.92428225, y: 0.18920273}
  - {x: 0.67479223, y: 0}
  - {x: 0.34671158, y: 0}
  - {x: 0.049777005, y: 0.18929178}
  Preset: {fileID: 11400000, guid: e4786beb7716da54dbb02a632681cc37, type: 2}
  OverrideOutput: []
--- !u!21 &1957543261630348009
Material:
  serializedVersion: 6
  m_ObjectHideFlags: 0
  m_CorrespondingSourceObject: {fileID: 0}
  m_PrefabInstance: {fileID: 0}
  m_PrefabAsset: {fileID: 0}
  m_Name: MovPlat_Platform_Small_Peak Plateau Variant_Impostor
  m_Shader: {fileID: 4800000, guid: 572f9be5706148142b8da6e9de53acdb, type: 3}
  m_ShaderKeywords: 
  m_LightmapFlags: 4
  m_EnableInstancingVariants: 1
  m_DoubleSidedGI: 0
  m_CustomRenderQueue: -1
  stringTagMap: {}
  disabledShaderPasses: []
  m_SavedProperties:
    serializedVersion: 3
    m_TexEnvs:
    - _Albedo:
        m_Texture: {fileID: 2800000, guid: ebccd1904cc966c479df6f04ee7e80ac, type: 3}
        m_Scale: {x: 1, y: 1}
        m_Offset: {x: 0, y: 0}
    - _Emission:
        m_Texture: {fileID: 2800000, guid: 04b83b094d1d52549b39a8b745456f15, type: 3}
        m_Scale: {x: 1, y: 1}
        m_Offset: {x: 0, y: 0}
    - _Normals:
        m_Texture: {fileID: 2800000, guid: c96a0b18ef074044fb38e5ff6dbc086b, type: 3}
        m_Scale: {x: 1, y: 1}
        m_Offset: {x: 0, y: 0}
    - _Specular:
        m_Texture: {fileID: 2800000, guid: 514e49736ac435c448832dc0245592e6, type: 3}
        m_Scale: {x: 1, y: 1}
        m_Offset: {x: 0, y: 0}
    m_Floats:
    - _AI_AlphaToCoverage: 0
    - _AI_ShadowBias: 0.25
    - _AI_ShadowView: 1
    - _ClipMask: 0.5
    - _DepthSize: 2.2866886
    - _Frames: 16
    - _Hemi: 0
    - _Hue: 0
    - _ImpostorSize: 2.2761128
    - _Parallax: 1
    - _TextureBias: -1
    m_Colors:
    - _AI_SizeOffset: {r: 2.2761128, g: 2.2866886, b: 0, a: -0.0012019231}
    - _HueVariation: {r: 0, g: 0, b: 0, a: 0}
    - _Offset: {r: 0.0017498732, g: -0.14150017, b: -0.0022497773, a: 0.01923077}
--- !u!43 &8114158929693304217
Mesh:
  m_ObjectHideFlags: 0
  m_CorrespondingSourceObject: {fileID: 0}
  m_PrefabInstance: {fileID: 0}
  m_PrefabAsset: {fileID: 0}
  m_Name: MovPlat_Platform_Small_Peak Plateau Variant_Impostor
  serializedVersion: 10
  m_SubMeshes:
  - serializedVersion: 2
    firstByte: 0
    indexCount: 18
    topology: 0
    baseVertex: 0
    firstVertex: 0
    vertexCount: 8
    localAABB:
      m_Center: {x: 0.023974895, y: -0.043771386, z: 0}
      m_Extent: {x: 1.0497937, y: 1.1380564, z: 0}
  m_Shapes:
    vertices: []
    shapes: []
    channels: []
    fullWeights: []
  m_BindPose: []
  m_BoneNameHashes: 
  m_RootBoneNameHash: 0
  m_BonesAABB: []
  m_VariableBoneCountWeights:
    m_Data: 
  m_MeshCompression: 0
  m_IsReadable: 1
  m_KeepVertices: 1
  m_KeepIndices: 1
  m_IndexFormat: 0
  m_IndexBuffer: 070005000300030001000700070006000500050004000300030002000100010000000700
  m_VertexData:
    serializedVersion: 3
    m_VertexCount: 8
    m_Channels:
    - stream: 0
      offset: 0
      format: 0
      dimension: 3
    - stream: 0
      offset: 12
      format: 0
      dimension: 3
    - stream: 0
      offset: 0
      format: 0
      dimension: 0
    - stream: 0
      offset: 0
      format: 0
      dimension: 0
    - stream: 0
      offset: 24
      format: 0
      dimension: 2
    - stream: 0
      offset: 0
      format: 0
      dimension: 0
    - stream: 0
      offset: 0
      format: 0
      dimension: 0
    - stream: 0
      offset: 0
      format: 0
      dimension: 0
    - stream: 0
      offset: 0
      format: 0
      dimension: 0
    - stream: 0
      offset: 0
      format: 0
      dimension: 0
    - stream: 0
      offset: 0
      format: 0
      dimension: 0
    - stream: 0
      offset: 0
      format: 0
      dimension: 0
    - stream: 0
      offset: 0
      format: 0
      dimension: 0
    - stream: 0
      offset: 0
      format: 0
      dimension: 0
    m_DataSize: 256
    _typelessdata: 084e83bf87532ebf000000000000000000000000000080bf6dfa493d9c55613e253409bf224697bf000000000000000000000000000080bfba70873e00000000fa750d3f224697bf000000000000000000000000000080bf73263e3f000000004071893f4a841cbf000000000000000000000000000080bff7c4783ff850803e0d39773f32e4293f000000000000000000000000000080bfc39d6c3f69904f3f94b2cb3e88118c3f000000000000000000000000ffff7fbf2fbf2c3f0000803f40a3b2be88118c3f000000000000000000000000000080bf2e84b13e0000803f482b83bfead6293f000000000000000000000000000080bff9e24b3d938a4f3f
  m_CompressedMesh:
    m_Vertices:
      m_NumItems: 0
      m_Range: 0
      m_Start: 0
      m_Data: 
      m_BitSize: 0
    m_UV:
      m_NumItems: 0
      m_Range: 0
      m_Start: 0
      m_Data: 
      m_BitSize: 0
    m_Normals:
      m_NumItems: 0
      m_Range: 0
      m_Start: 0
      m_Data: 
      m_BitSize: 0
    m_Tangents:
      m_NumItems: 0
      m_Range: 0
      m_Start: 0
      m_Data: 
      m_BitSize: 0
    m_Weights:
      m_NumItems: 0
      m_Data: 
      m_BitSize: 0
    m_NormalSigns:
      m_NumItems: 0
      m_Data: 
      m_BitSize: 0
    m_TangentSigns:
      m_NumItems: 0
      m_Data: 
      m_BitSize: 0
    m_FloatColors:
      m_NumItems: 0
      m_Range: 0
      m_Start: 0
      m_Data: 
      m_BitSize: 0
    m_BoneIndices:
      m_NumItems: 0
      m_Data: 
      m_BitSize: 0
    m_Triangles:
      m_NumItems: 0
      m_Data: 
      m_BitSize: 0
    m_UVInfo: 0
  m_LocalAABB:
    m_Center: {x: 0.0017498732, y: -0.14150017, z: -0.0022497773}
    m_Extent: {x: 0.83541465, y: 0.7665002, z: 0.83541465}
  m_MeshUsageFlags: 0
  m_BakedConvexCollisionMesh: 
  m_BakedTriangleCollisionMesh: 
  m_MeshMetrics[0]: 1
  m_MeshMetrics[1]: 1
  m_MeshOptimizationFlags: 1
  m_StreamData:
    offset: 0
    size: 0
    path: 
