%YAML 1.1
%TAG !u! tag:unity3d.com,2011:
--- !u!114 &550031881
MonoBehaviour:
  m_ObjectHideFlags: 0
  m_CorrespondingSourceObject: {fileID: 0}
  m_PrefabInstance: {fileID: 0}
  m_PrefabAsset: {fileID: 0}
  m_GameObject: {fileID: 8319499282955786593}
  m_Enabled: 1
  m_EditorHideFlags: 0
  m_Script: {fileID: 11500000, guid: 5d707231473129c4d913705d79a55301, type: 3}
  m_Name: 
  m_EditorClassIdentifier: 
  mover: {fileID: 6334362989012309558}
  distanceCheckScalar: 1
  optimizerScalar: 1
  path: {fileID: 5621352209606182171}
  speed: 1
  rotationType: 2
  turnAxis: {x: 0, y: 1, z: 0}
  turnSpeed: 20
  rotationTarget: {fileID: 0}
  rotationOffset: 0
  maxDistanceToGoal: 0.1
  overrideResetPath: 0
  startDelay: 0
  waitDelay: 5
  disableIfFinished: 0
  onFinished:
    m_PersistentCalls:
      m_Calls: []
  onNodeLeft:
    m_PersistentCalls:
      m_Calls: []
  onNodeReached:
    m_PersistentCalls:
      m_Calls: []
  onTargetNodesReached: []
  snapToPathOnStart: 0
--- !u!1001 &173066230
PrefabInstance:
  m_ObjectHideFlags: 0
  serializedVersion: 2
  m_Modification:
    m_TransformParent: {fileID: 7347573349112395826}
    m_Modifications:
    - target: {fileID: 5621352209435312874, guid: 6b2040de02b4c4a9bbe1062043b78828,
        type: 3}
      propertyPath: m_Name
      value: MovPlat_Path_LinearPingPong
      objectReference: {fileID: 0}
    - target: {fileID: 5621352209435312876, guid: 6b2040de02b4c4a9bbe1062043b78828,
        type: 3}
      propertyPath: m_RootOrder
      value: 2
      objectReference: {fileID: 0}
    - target: {fileID: 5621352209435312876, guid: 6b2040de02b4c4a9bbe1062043b78828,
        type: 3}
      propertyPath: m_LocalPosition.x
      value: 0.0920105
      objectReference: {fileID: 0}
    - target: {fileID: 5621352209435312876, guid: 6b2040de02b4c4a9bbe1062043b78828,
        type: 3}
      propertyPath: m_LocalPosition.y
      value: 0
      objectReference: {fileID: 0}
    - target: {fileID: 5621352209435312876, guid: 6b2040de02b4c4a9bbe1062043b78828,
        type: 3}
      propertyPath: m_LocalPosition.z
      value: 0.36118317
      objectReference: {fileID: 0}
    - target: {fileID: 5621352209435312876, guid: 6b2040de02b4c4a9bbe1062043b78828,
        type: 3}
      propertyPath: m_LocalRotation.w
      value: 1
      objectReference: {fileID: 0}
    - target: {fileID: 5621352209435312876, guid: 6b2040de02b4c4a9bbe1062043b78828,
        type: 3}
      propertyPath: m_LocalRotation.x
      value: -0
      objectReference: {fileID: 0}
    - target: {fileID: 5621352209435312876, guid: 6b2040de02b4c4a9bbe1062043b78828,
        type: 3}
      propertyPath: m_LocalRotation.y
      value: -0
      objectReference: {fileID: 0}
    - target: {fileID: 5621352209435312876, guid: 6b2040de02b4c4a9bbe1062043b78828,
        type: 3}
      propertyPath: m_LocalRotation.z
      value: -0
      objectReference: {fileID: 0}
    - target: {fileID: 5621352209435312876, guid: 6b2040de02b4c4a9bbe1062043b78828,
        type: 3}
      propertyPath: m_LocalEulerAnglesHint.x
      value: 0
      objectReference: {fileID: 0}
    - target: {fileID: 5621352209435312876, guid: 6b2040de02b4c4a9bbe1062043b78828,
        type: 3}
      propertyPath: m_LocalEulerAnglesHint.y
      value: 0
      objectReference: {fileID: 0}
    - target: {fileID: 5621352209435312876, guid: 6b2040de02b4c4a9bbe1062043b78828,
        type: 3}
      propertyPath: m_LocalEulerAnglesHint.z
      value: 0
      objectReference: {fileID: 0}
    - target: {fileID: 5621352210095936005, guid: 6b2040de02b4c4a9bbe1062043b78828,
        type: 3}
      propertyPath: m_LocalPosition.x
      value: 0
      objectReference: {fileID: 0}
    - target: {fileID: 5621352210095936005, guid: 6b2040de02b4c4a9bbe1062043b78828,
        type: 3}
      propertyPath: m_LocalPosition.y
      value: 11
      objectReference: {fileID: 0}
    - target: {fileID: 5621352210095936005, guid: 6b2040de02b4c4a9bbe1062043b78828,
        type: 3}
      propertyPath: m_LocalPosition.z
      value: 0
      objectReference: {fileID: 0}
    - target: {fileID: 5621352210095936005, guid: 6b2040de02b4c4a9bbe1062043b78828,
        type: 3}
      propertyPath: m_LocalRotation.w
      value: 1
      objectReference: {fileID: 0}
    - target: {fileID: 5621352210095936005, guid: 6b2040de02b4c4a9bbe1062043b78828,
        type: 3}
      propertyPath: m_LocalRotation.x
      value: 0
      objectReference: {fileID: 0}
    - target: {fileID: 5621352210095936005, guid: 6b2040de02b4c4a9bbe1062043b78828,
        type: 3}
      propertyPath: m_LocalRotation.y
      value: 0
      objectReference: {fileID: 0}
    - target: {fileID: 5621352210095936005, guid: 6b2040de02b4c4a9bbe1062043b78828,
        type: 3}
      propertyPath: m_LocalRotation.z
      value: 0
      objectReference: {fileID: 0}
    - target: {fileID: 5621352210095936005, guid: 6b2040de02b4c4a9bbe1062043b78828,
        type: 3}
      propertyPath: m_LocalEulerAnglesHint.x
      value: 0
      objectReference: {fileID: 0}
    - target: {fileID: 5621352210095936005, guid: 6b2040de02b4c4a9bbe1062043b78828,
        type: 3}
      propertyPath: m_LocalEulerAnglesHint.y
      value: 0
      objectReference: {fileID: 0}
    - target: {fileID: 5621352210095936005, guid: 6b2040de02b4c4a9bbe1062043b78828,
        type: 3}
      propertyPath: m_LocalEulerAnglesHint.z
      value: 0
      objectReference: {fileID: 0}
    - target: {fileID: 5621352210869477653, guid: 6b2040de02b4c4a9bbe1062043b78828,
        type: 3}
      propertyPath: m_LocalPosition.x
      value: 0
      objectReference: {fileID: 0}
    - target: {fileID: 5621352210869477653, guid: 6b2040de02b4c4a9bbe1062043b78828,
        type: 3}
      propertyPath: m_LocalPosition.z
      value: 0
      objectReference: {fileID: 0}
    - target: {fileID: 5621352210869477653, guid: 6b2040de02b4c4a9bbe1062043b78828,
        type: 3}
      propertyPath: m_LocalRotation.w
      value: 1
      objectReference: {fileID: 0}
    - target: {fileID: 5621352210869477653, guid: 6b2040de02b4c4a9bbe1062043b78828,
        type: 3}
      propertyPath: m_LocalRotation.x
      value: 0
      objectReference: {fileID: 0}
    - target: {fileID: 5621352210869477653, guid: 6b2040de02b4c4a9bbe1062043b78828,
        type: 3}
      propertyPath: m_LocalRotation.y
      value: 0
      objectReference: {fileID: 0}
    - target: {fileID: 5621352210869477653, guid: 6b2040de02b4c4a9bbe1062043b78828,
        type: 3}
      propertyPath: m_LocalRotation.z
      value: 0
      objectReference: {fileID: 0}
    - target: {fileID: 5621352210869477653, guid: 6b2040de02b4c4a9bbe1062043b78828,
        type: 3}
      propertyPath: m_LocalEulerAnglesHint.y
      value: 0
      objectReference: {fileID: 0}
    m_RemovedComponents: []
  m_SourcePrefab: {fileID: 100100000, guid: 6b2040de02b4c4a9bbe1062043b78828, type: 3}
--- !u!114 &5621352209606182171 stripped
MonoBehaviour:
  m_CorrespondingSourceObject: {fileID: 5621352209435312877, guid: 6b2040de02b4c4a9bbe1062043b78828,
    type: 3}
  m_PrefabInstance: {fileID: 173066230}
  m_PrefabAsset: {fileID: 0}
  m_GameObject: {fileID: 0}
  m_Enabled: 1
  m_EditorHideFlags: 0
  m_Script: {fileID: 11500000, guid: 217cfab7da99ca54d8c23fc784490ec1, type: 3}
  m_Name: 
  m_EditorClassIdentifier: 
--- !u!1001 &4233132746685911597
PrefabInstance:
  m_ObjectHideFlags: 0
  serializedVersion: 2
  m_Modification:
    m_TransformParent: {fileID: 0}
    m_Modifications:
    - target: {fileID: 2340427963719277627, guid: d3a2b97a7e01b456a83e88622ca1b4f4,
        type: 3}
      propertyPath: m_Name
      value: Screwed Platform (Rotating Automatic)
      objectReference: {fileID: 0}
    - target: {fileID: 4879956525330243464, guid: d3a2b97a7e01b456a83e88622ca1b4f4,
        type: 3}
      propertyPath: m_RootOrder
      value: 3
      objectReference: {fileID: 0}
    - target: {fileID: 6094103345202006897, guid: d3a2b97a7e01b456a83e88622ca1b4f4,
        type: 3}
      propertyPath: m_RootOrder
      value: 6
      objectReference: {fileID: 0}
    - target: {fileID: 6865958385723976223, guid: d3a2b97a7e01b456a83e88622ca1b4f4,
        type: 3}
      propertyPath: m_RootOrder
      value: 0
      objectReference: {fileID: 0}
    - target: {fileID: 6865958385723976223, guid: d3a2b97a7e01b456a83e88622ca1b4f4,
        type: 3}
      propertyPath: m_LocalPosition.x
      value: -29.031754
      objectReference: {fileID: 0}
    - target: {fileID: 6865958385723976223, guid: d3a2b97a7e01b456a83e88622ca1b4f4,
        type: 3}
      propertyPath: m_LocalPosition.y
      value: 13.497154
      objectReference: {fileID: 0}
    - target: {fileID: 6865958385723976223, guid: d3a2b97a7e01b456a83e88622ca1b4f4,
        type: 3}
      propertyPath: m_LocalPosition.z
      value: 30.7202
      objectReference: {fileID: 0}
    - target: {fileID: 6865958385723976223, guid: d3a2b97a7e01b456a83e88622ca1b4f4,
        type: 3}
      propertyPath: m_LocalRotation.w
      value: 1
      objectReference: {fileID: 0}
    - target: {fileID: 6865958385723976223, guid: d3a2b97a7e01b456a83e88622ca1b4f4,
        type: 3}
      propertyPath: m_LocalRotation.x
      value: -0
      objectReference: {fileID: 0}
    - target: {fileID: 6865958385723976223, guid: d3a2b97a7e01b456a83e88622ca1b4f4,
        type: 3}
      propertyPath: m_LocalRotation.y
      value: -0
      objectReference: {fileID: 0}
    - target: {fileID: 6865958385723976223, guid: d3a2b97a7e01b456a83e88622ca1b4f4,
        type: 3}
      propertyPath: m_LocalRotation.z
      value: -0
      objectReference: {fileID: 0}
    - target: {fileID: 6865958385723976223, guid: d3a2b97a7e01b456a83e88622ca1b4f4,
        type: 3}
      propertyPath: m_LocalEulerAnglesHint.x
      value: 0
      objectReference: {fileID: 0}
    - target: {fileID: 6865958385723976223, guid: d3a2b97a7e01b456a83e88622ca1b4f4,
        type: 3}
      propertyPath: m_LocalEulerAnglesHint.y
      value: 0
      objectReference: {fileID: 0}
    - target: {fileID: 6865958385723976223, guid: d3a2b97a7e01b456a83e88622ca1b4f4,
        type: 3}
      propertyPath: m_LocalEulerAnglesHint.z
      value: 0
      objectReference: {fileID: 0}
    - target: {fileID: 7056052569201380765, guid: d3a2b97a7e01b456a83e88622ca1b4f4,
        type: 3}
      propertyPath: m_LocalPosition.y
      value: 0
      objectReference: {fileID: 0}
    m_RemovedComponents:
    - {fileID: 2459871328142493957, guid: d3a2b97a7e01b456a83e88622ca1b4f4, type: 3}
  m_SourcePrefab: {fileID: 100100000, guid: d3a2b97a7e01b456a83e88622ca1b4f4, type: 3}
--- !u!4 &7347573349112395826 stripped
Transform:
  m_CorrespondingSourceObject: {fileID: 6865958385723976223, guid: d3a2b97a7e01b456a83e88622ca1b4f4,
    type: 3}
  m_PrefabInstance: {fileID: 4233132746685911597}
  m_PrefabAsset: {fileID: 0}
--- !u!1 &8319499282955786593 stripped
GameObject:
  m_CorrespondingSourceObject: {fileID: 5317580502045805388, guid: d3a2b97a7e01b456a83e88622ca1b4f4,
    type: 3}
  m_PrefabInstance: {fileID: 4233132746685911597}
  m_PrefabAsset: {fileID: 0}
--- !u!114 &6334362989012309558 stripped
MonoBehaviour:
  m_CorrespondingSourceObject: {fileID: 7878825849577554971, guid: d3a2b97a7e01b456a83e88622ca1b4f4,
    type: 3}
  m_PrefabInstance: {fileID: 4233132746685911597}
  m_PrefabAsset: {fileID: 0}
  m_GameObject: {fileID: 8319499282955786593}
  m_Enabled: 1
  m_EditorHideFlags: 0
  m_Script: {fileID: 11500000, guid: 9bf9d4c4f0f8629478d9747008118de6, type: 3}
  m_Name: 
  m_EditorClassIdentifier: 
