%YAML 1.1
%TAG !u! tag:unity3d.com,2011:
--- !u!21 &2100000
Material:
  serializedVersion: 6
  m_ObjectHideFlags: 0
  m_CorrespondingSourceObject: {fileID: 0}
  m_PrefabInstance: {fileID: 0}
  m_PrefabAsset: {fileID: 0}
  m_Name: LargeFakeWindow_ShabbyRoom
  m_Shader: {fileID: 4800000, guid: 963bc3c6f4b8c2f4c8db108f28a07575, type: 3}
  m_ShaderKeywords: _FACADETEXTURE_ON _SWITCHPLANE_ON _TOGGLEPROPLAYER_ON
  m_LightmapFlags: 5
  m_EnableInstancingVariants: 0
  m_DoubleSidedGI: 0
  m_CustomRenderQueue: -1
  stringTagMap: {}
  disabledShaderPasses: []
  m_SavedProperties:
    serializedVersion: 3
    m_TexEnvs:
    - _Back:
        m_Texture: {fileID: 2800000, guid: c7c924627f18e4c889e727170284fab4, type: 3}
        m_Scale: {x: 1, y: 1}
        m_Offset: {x: 0, y: 0}
    - _Ceileing:
        m_Texture: {fileID: 2800000, guid: 63bb90049cec6ac479388e696ef377d4, type: 3}
        m_Scale: {x: 1, y: 1}
        m_Offset: {x: 0, y: 0}
    - _Ceiling:
        m_Texture: {fileID: 2800000, guid: 4105a37dde73a46ecaa3c81bf68b15f8, type: 3}
        m_Scale: {x: 1, y: 1}
        m_Offset: {x: 0, y: 0}
    - _FacadeAlbedo:
        m_Texture: {fileID: 2800000, guid: 9b54be27961c1483da9cc346fd22b493, type: 3}
        m_Scale: {x: 1, y: 1}
        m_Offset: {x: 0, y: 0}
    - _FacadeSmoothness:
        m_Texture: {fileID: 0}
        m_Scale: {x: 1, y: 1}
        m_Offset: {x: 0, y: 0}
    - _Floor:
        m_Texture: {fileID: 2800000, guid: 43d8295ac866d407e83f3a209833ac53, type: 3}
        m_Scale: {x: 1, y: 1}
        m_Offset: {x: 0, y: 0}
    - _Props:
        m_Texture: {fileID: 2800000, guid: 0385c57d414f74e819c5b9a0ddf7c666, type: 3}
        m_Scale: {x: 1, y: 1}
        m_Offset: {x: 0, y: 0}
    - _TextureSample1:
        m_Texture: {fileID: 2800000, guid: e5e660bd44fcb5d498761b934c5f5f4e, type: 3}
        m_Scale: {x: 1, y: 1}
        m_Offset: {x: 0, y: 0}
    - _TextureSample2:
        m_Texture: {fileID: 2800000, guid: e5e660bd44fcb5d498761b934c5f5f4e, type: 3}
        m_Scale: {x: 1, y: 1}
        m_Offset: {x: 0, y: 0}
    - _Wall:
        m_Texture: {fileID: 2800000, guid: bfc12a47c4e674fb394252ed2f16e8c1, type: 3}
        m_Scale: {x: 1, y: 1}
        m_Offset: {x: 0, y: 0}
    - _texcoord:
        m_Texture: {fileID: 0}
        m_Scale: {x: 1, y: 1}
        m_Offset: {x: 0, y: 0}
    m_Floats:
    - _BackWallTexTiling: 0.2
    - _BackWallTexTilling: 0.15
    - _BackWallTile: 2
    - _CeilingTexTiling: 0.2
    - _CeilingTexTilling: 0.3
    - _CeilingTile: 2
    - _FacadeSmoothnessValue: 1
    - _FacadeTexture: 1
    - _FacadeTiling: 0.5
    - _Float0: -1.57
    - _Float1: -1.57
    - _Float2: 1
    - _Float5: 1
    - _FloorTexTiling: 0.5
    - _FloorTexTilling: 0.2
    - _FloorTile: 2
    - _GlassSmoothnessMultiplier: 1
    - _Keyword1: 1
    - _PropLayerToggle: 1
    - _PropsTexTiling: 0.195
    - _PropsTexTilling: 0.15
    - _RoomIntensity: 1
    - _RoomTile: 0.1
    - _Smoothness: 0
    - _SmoothnessValue: 1
    - _SwitchPlane: 1
    - _TogglePropLayer: 1
    - _WallTile: 2
    - _WalltexTiling: 0.2
    - _WalltexTilling: 0.15
    - __dirty: 0
    m_Colors:
    - _ColorTint: {r: 1, g: 1, b: 1, a: 0}
    - _PositionOffsetXYZroomsWprops: {r: 2.5, g: 7.5, b: 6, a: 1.9}
    - _RoomColorTint: {r: 1, g: 1, b: 1, a: 0}
    - _RoomsXYZPropsW: {r: 1.93, g: 2, b: 0.5, a: 0.1}
    - _Vector0: {r: 0.93, g: 1, b: 0, a: 0}
