%YAML 1.1
%TAG !u! tag:unity3d.com,2011:
--- !u!114 &2532529174891341507
MonoBehaviour:
  m_ObjectHideFlags: 0
  m_CorrespondingSourceObject: {fileID: 0}
  m_PrefabInstance: {fileID: 0}
  m_PrefabAsset: {fileID: 0}
  m_GameObject: {fileID: 2672574653343172892}
  m_Enabled: 1
  m_EditorHideFlags: 0
  m_Script: {fileID: 11500000, guid: 0e98e1582a2221345acb0ef23409a093, type: 3}
  m_Name: 
  m_EditorClassIdentifier: 
  mixerTarget: 2
  playData:
    minDistance: 5
    maxDistance: 20
    is3D: 0
    volume: 0.8
    isLooping: 0
    autoDestroy: 1
    pitchRange: 0
    pitchRangeDirection: 0
    stereoPan: 0
    spread: 45
    ignoreBuffer: 0
    notSet: 0
  audioSet:
    clips:
    - {fileID: 8300000, guid: d440304029e94440e84a84bd4f1df50b, type: 3}
    playChance: 1
--- !u!1001 &3418582994804427396
PrefabInstance:
  m_ObjectHideFlags: 0
  serializedVersion: 2
  m_Modification:
    m_TransformParent: {fileID: 0}
    m_Modifications:
    - target: {fileID: 274275398873814527, guid: bea5a1f7d97e9e64abba57f26420504f,
        type: 3}
      propertyPath: onImpact.m_PersistentCalls.m_Calls.Array.size
      value: 2
      objectReference: {fileID: 0}
    - target: {fileID: 274275398873814527, guid: bea5a1f7d97e9e64abba57f26420504f,
        type: 3}
      propertyPath: onImpact.m_PersistentCalls.m_Calls.Array.data[1].m_Mode
      value: 1
      objectReference: {fileID: 0}
    - target: {fileID: 274275398873814527, guid: bea5a1f7d97e9e64abba57f26420504f,
        type: 3}
      propertyPath: onImpact.m_PersistentCalls.m_Calls.Array.data[1].m_Target
      value: 
      objectReference: {fileID: 2532529174891341507}
    - target: {fileID: 274275398873814527, guid: bea5a1f7d97e9e64abba57f26420504f,
        type: 3}
      propertyPath: onImpact.m_PersistentCalls.m_Calls.Array.data[1].m_CallState
      value: 2
      objectReference: {fileID: 0}
    - target: {fileID: 274275398873814527, guid: bea5a1f7d97e9e64abba57f26420504f,
        type: 3}
      propertyPath: onImpact.m_PersistentCalls.m_Calls.Array.data[1].m_MethodName
      value: Trigger3DSound
      objectReference: {fileID: 0}
    - target: {fileID: 274275398873814527, guid: bea5a1f7d97e9e64abba57f26420504f,
        type: 3}
      propertyPath: onImpact.m_PersistentCalls.m_Calls.Array.data[1].m_Arguments.m_ObjectArgument
      value: 
      objectReference: {fileID: 0}
    - target: {fileID: 274275398873814527, guid: bea5a1f7d97e9e64abba57f26420504f,
        type: 3}
      propertyPath: onImpact.m_PersistentCalls.m_Calls.Array.data[1].m_Arguments.m_ObjectArgumentAssemblyTypeName
      value: UnityEngine.Object, UnityEngine
      objectReference: {fileID: 0}
    - target: {fileID: 618035197579930695, guid: bea5a1f7d97e9e64abba57f26420504f,
        type: 3}
      propertyPath: onImpact.m_PersistentCalls.m_Calls.Array.size
      value: 3
      objectReference: {fileID: 0}
    - target: {fileID: 618035197579930695, guid: bea5a1f7d97e9e64abba57f26420504f,
        type: 3}
      propertyPath: onImpact.m_PersistentCalls.m_Calls.Array.data[2].m_Mode
      value: 1
      objectReference: {fileID: 0}
    - target: {fileID: 618035197579930695, guid: bea5a1f7d97e9e64abba57f26420504f,
        type: 3}
      propertyPath: onImpact.m_PersistentCalls.m_Calls.Array.data[2].m_Target
      value: 
      objectReference: {fileID: 2532529174891341507}
    - target: {fileID: 618035197579930695, guid: bea5a1f7d97e9e64abba57f26420504f,
        type: 3}
      propertyPath: onImpact.m_PersistentCalls.m_Calls.Array.data[2].m_CallState
      value: 2
      objectReference: {fileID: 0}
    - target: {fileID: 618035197579930695, guid: bea5a1f7d97e9e64abba57f26420504f,
        type: 3}
      propertyPath: onImpact.m_PersistentCalls.m_Calls.Array.data[2].m_MethodName
      value: Trigger3DSound
      objectReference: {fileID: 0}
    - target: {fileID: 618035197579930695, guid: bea5a1f7d97e9e64abba57f26420504f,
        type: 3}
      propertyPath: onImpact.m_PersistentCalls.m_Calls.Array.data[2].m_Arguments.m_ObjectArgument
      value: 
      objectReference: {fileID: 0}
    - target: {fileID: 618035197579930695, guid: bea5a1f7d97e9e64abba57f26420504f,
        type: 3}
      propertyPath: onImpact.m_PersistentCalls.m_Calls.Array.data[2].m_Arguments.m_ObjectArgumentAssemblyTypeName
      value: UnityEngine.Object, UnityEngine
      objectReference: {fileID: 0}
    - target: {fileID: 749809084730557336, guid: bea5a1f7d97e9e64abba57f26420504f,
        type: 3}
      propertyPath: m_Name
      value: Rolling Ball Bouncy
      objectReference: {fileID: 0}
    - target: {fileID: 749809084730557343, guid: bea5a1f7d97e9e64abba57f26420504f,
        type: 3}
      propertyPath: m_RootOrder
      value: 0
      objectReference: {fileID: 0}
    - target: {fileID: 749809084730557343, guid: bea5a1f7d97e9e64abba57f26420504f,
        type: 3}
      propertyPath: m_LocalPosition.x
      value: 2.26
      objectReference: {fileID: 0}
    - target: {fileID: 749809084730557343, guid: bea5a1f7d97e9e64abba57f26420504f,
        type: 3}
      propertyPath: m_LocalPosition.y
      value: 2.49
      objectReference: {fileID: 0}
    - target: {fileID: 749809084730557343, guid: bea5a1f7d97e9e64abba57f26420504f,
        type: 3}
      propertyPath: m_LocalPosition.z
      value: -2.01
      objectReference: {fileID: 0}
    - target: {fileID: 749809084730557343, guid: bea5a1f7d97e9e64abba57f26420504f,
        type: 3}
      propertyPath: m_LocalRotation.w
      value: 1
      objectReference: {fileID: 0}
    - target: {fileID: 749809084730557343, guid: bea5a1f7d97e9e64abba57f26420504f,
        type: 3}
      propertyPath: m_LocalRotation.x
      value: 0
      objectReference: {fileID: 0}
    - target: {fileID: 749809084730557343, guid: bea5a1f7d97e9e64abba57f26420504f,
        type: 3}
      propertyPath: m_LocalRotation.y
      value: 0
      objectReference: {fileID: 0}
    - target: {fileID: 749809084730557343, guid: bea5a1f7d97e9e64abba57f26420504f,
        type: 3}
      propertyPath: m_LocalRotation.z
      value: 0
      objectReference: {fileID: 0}
    - target: {fileID: 749809084730557343, guid: bea5a1f7d97e9e64abba57f26420504f,
        type: 3}
      propertyPath: m_LocalEulerAnglesHint.x
      value: 0
      objectReference: {fileID: 0}
    - target: {fileID: 749809084730557343, guid: bea5a1f7d97e9e64abba57f26420504f,
        type: 3}
      propertyPath: m_LocalEulerAnglesHint.y
      value: 0
      objectReference: {fileID: 0}
    - target: {fileID: 749809084730557343, guid: bea5a1f7d97e9e64abba57f26420504f,
        type: 3}
      propertyPath: m_LocalEulerAnglesHint.z
      value: 0
      objectReference: {fileID: 0}
    - target: {fileID: 2274584033958902889, guid: bea5a1f7d97e9e64abba57f26420504f,
        type: 3}
      propertyPath: m_Mesh
      value: 
      objectReference: {fileID: 0}
    - target: {fileID: 2891582384093036994, guid: bea5a1f7d97e9e64abba57f26420504f,
        type: 3}
      propertyPath: m_SelectedEdges.Array.size
      value: 0
      objectReference: {fileID: 0}
    - target: {fileID: 2891582384093036994, guid: bea5a1f7d97e9e64abba57f26420504f,
        type: 3}
      propertyPath: m_SelectedFaces.Array.size
      value: 0
      objectReference: {fileID: 0}
    - target: {fileID: 2891582384093036994, guid: bea5a1f7d97e9e64abba57f26420504f,
        type: 3}
      propertyPath: m_SelectedVertices.Array.size
      value: 0
      objectReference: {fileID: 0}
    - target: {fileID: 4141454897062778475, guid: bea5a1f7d97e9e64abba57f26420504f,
        type: 3}
      propertyPath: m_Mesh
      value: 
      objectReference: {fileID: 0}
    - target: {fileID: 5566416984511308896, guid: bea5a1f7d97e9e64abba57f26420504f,
        type: 3}
      propertyPath: m_audioClip
      value: 
      objectReference: {fileID: 8300000, guid: bfbce67adcde9476fb72bd6b6f23ed7e, type: 3}
    m_RemovedComponents:
    - {fileID: 840639813145845342, guid: bea5a1f7d97e9e64abba57f26420504f, type: 3}
  m_SourcePrefab: {fileID: 100100000, guid: bea5a1f7d97e9e64abba57f26420504f, type: 3}
--- !u!1 &2672574653343172892 stripped
GameObject:
  m_CorrespondingSourceObject: {fileID: 749809084730557336, guid: bea5a1f7d97e9e64abba57f26420504f,
    type: 3}
  m_PrefabInstance: {fileID: 3418582994804427396}
  m_PrefabAsset: {fileID: 0}
